%YAML 1.1
%TAG !u! tag:unity3d.com,2011:
--- !u!1001 &100100000
Prefab:
  m_ObjectHideFlags: 1
  serializedVersion: 2
  m_Modification:
    m_TransformParent: {fileID: 0}
    m_Modifications: []
    m_RemovedComponents: []
  m_ParentPrefab: {fileID: 0}
  m_RootGameObject: {fileID: 1273875218432892}
  m_IsPrefabParent: 1
--- !u!1 &1055557761338436
GameObject:
  m_ObjectHideFlags: 1
  m_PrefabParentObject: {fileID: 0}
  m_PrefabInternal: {fileID: 100100000}
  serializedVersion: 5
  m_Component:
  - component: {fileID: 4864214765103526}
  m_Layer: 0
  m_Name: mixamorig_RightHandIndex4_end
  m_TagString: Untagged
  m_Icon: {fileID: 0}
  m_NavMeshLayer: 0
  m_StaticEditorFlags: 0
  m_IsActive: 1
--- !u!1 &1056844727248540
GameObject:
  m_ObjectHideFlags: 1
  m_PrefabParentObject: {fileID: 0}
  m_PrefabInternal: {fileID: 100100000}
  serializedVersion: 5
  m_Component:
  - component: {fileID: 4829055704708924}
  m_Layer: 0
  m_Name: mixamorig_LeftForeArm
  m_TagString: Untagged
  m_Icon: {fileID: 0}
  m_NavMeshLayer: 0
  m_StaticEditorFlags: 0
  m_IsActive: 1
--- !u!1 &1058853442060872
GameObject:
  m_ObjectHideFlags: 1
  m_PrefabParentObject: {fileID: 0}
  m_PrefabInternal: {fileID: 100100000}
  serializedVersion: 5
  m_Component:
  - component: {fileID: 4863561802518434}
  m_Layer: 0
  m_Name: mixamorig_RightHandRing2
  m_TagString: Untagged
  m_Icon: {fileID: 0}
  m_NavMeshLayer: 0
  m_StaticEditorFlags: 0
  m_IsActive: 1
--- !u!1 &1080473527385782
GameObject:
  m_ObjectHideFlags: 1
  m_PrefabParentObject: {fileID: 0}
  m_PrefabInternal: {fileID: 100100000}
  serializedVersion: 5
  m_Component:
  - component: {fileID: 4977149769534346}
  m_Layer: 0
  m_Name: mixamorig_RightHandPinky4_end
  m_TagString: Untagged
  m_Icon: {fileID: 0}
  m_NavMeshLayer: 0
  m_StaticEditorFlags: 0
  m_IsActive: 1
--- !u!1 &1093834145951158
GameObject:
  m_ObjectHideFlags: 1
  m_PrefabParentObject: {fileID: 0}
  m_PrefabInternal: {fileID: 100100000}
  serializedVersion: 5
  m_Component:
  - component: {fileID: 4984723626352092}
  m_Layer: 0
  m_Name: mixamorig_RightFoot
  m_TagString: Untagged
  m_Icon: {fileID: 0}
  m_NavMeshLayer: 0
  m_StaticEditorFlags: 0
  m_IsActive: 1
--- !u!1 &1100166472221712
GameObject:
  m_ObjectHideFlags: 1
  m_PrefabParentObject: {fileID: 0}
  m_PrefabInternal: {fileID: 100100000}
  serializedVersion: 5
  m_Component:
  - component: {fileID: 4952570844509472}
  m_Layer: 0
  m_Name: mixamorig_RightToe_End
  m_TagString: Untagged
  m_Icon: {fileID: 0}
  m_NavMeshLayer: 0
  m_StaticEditorFlags: 0
  m_IsActive: 1
--- !u!1 &1109581293136350
GameObject:
  m_ObjectHideFlags: 1
  m_PrefabParentObject: {fileID: 0}
  m_PrefabInternal: {fileID: 100100000}
  serializedVersion: 5
  m_Component:
  - component: {fileID: 4975140667216960}
  m_Layer: 0
  m_Name: mixamorig_RightHandThumb4_end
  m_TagString: Untagged
  m_Icon: {fileID: 0}
  m_NavMeshLayer: 0
  m_StaticEditorFlags: 0
  m_IsActive: 1
--- !u!1 &1110010705134804
GameObject:
  m_ObjectHideFlags: 0
  m_PrefabParentObject: {fileID: 0}
  m_PrefabInternal: {fileID: 100100000}
  serializedVersion: 5
  m_Component:
  - component: {fileID: 4245205387213394}
  m_Layer: 0
  m_Name: Armature
  m_TagString: Untagged
  m_Icon: {fileID: 0}
  m_NavMeshLayer: 0
  m_StaticEditorFlags: 0
  m_IsActive: 1
--- !u!1 &1115554928230350
GameObject:
  m_ObjectHideFlags: 0
  m_PrefabParentObject: {fileID: 0}
  m_PrefabInternal: {fileID: 100100000}
  serializedVersion: 5
  m_Component:
  - component: {fileID: 4519699712174006}
  - component: {fileID: 137390871012769472}
  m_Layer: 0
  m_Name: Helmet_LP
  m_TagString: Untagged
  m_Icon: {fileID: 0}
  m_NavMeshLayer: 0
  m_StaticEditorFlags: 0
  m_IsActive: 1
--- !u!1 &1124446956260560
GameObject:
  m_ObjectHideFlags: 1
  m_PrefabParentObject: {fileID: 0}
  m_PrefabInternal: {fileID: 100100000}
  serializedVersion: 5
  m_Component:
  - component: {fileID: 4101359151083442}
  m_Layer: 0
  m_Name: mixamorig_RightHandRing4
  m_TagString: Untagged
  m_Icon: {fileID: 0}
  m_NavMeshLayer: 0
  m_StaticEditorFlags: 0
  m_IsActive: 1
--- !u!1 &1135766305268800
GameObject:
  m_ObjectHideFlags: 0
  m_PrefabParentObject: {fileID: 0}
  m_PrefabInternal: {fileID: 100100000}
  serializedVersion: 5
  m_Component:
  - component: {fileID: 4895243882794030}
  - component: {fileID: 137916698088153690}
  m_Layer: 0
  m_Name: Soldier_LP
  m_TagString: Untagged
  m_Icon: {fileID: 0}
  m_NavMeshLayer: 0
  m_StaticEditorFlags: 0
  m_IsActive: 1
--- !u!1 &1140408115518356
GameObject:
  m_ObjectHideFlags: 1
  m_PrefabParentObject: {fileID: 0}
  m_PrefabInternal: {fileID: 100100000}
  serializedVersion: 5
  m_Component:
  - component: {fileID: 4294736962295356}
  m_Layer: 0
  m_Name: mixamorig_LeftHandThumb4
  m_TagString: Untagged
  m_Icon: {fileID: 0}
  m_NavMeshLayer: 0
  m_StaticEditorFlags: 0
  m_IsActive: 1
--- !u!1 &1151765366695506
GameObject:
  m_ObjectHideFlags: 1
  m_PrefabParentObject: {fileID: 0}
  m_PrefabInternal: {fileID: 100100000}
  serializedVersion: 5
  m_Component:
  - component: {fileID: 4408231413782354}
  m_Layer: 0
  m_Name: mixamorig_LeftHandThumb3
  m_TagString: Untagged
  m_Icon: {fileID: 0}
  m_NavMeshLayer: 0
  m_StaticEditorFlags: 0
  m_IsActive: 1
--- !u!1 &1159842561440736
GameObject:
  m_ObjectHideFlags: 1
  m_PrefabParentObject: {fileID: 0}
  m_PrefabInternal: {fileID: 100100000}
  serializedVersion: 5
  m_Component:
  - component: {fileID: 4866753978768010}
  m_Layer: 0
  m_Name: mixamorig_Neck
  m_TagString: Untagged
  m_Icon: {fileID: 0}
  m_NavMeshLayer: 0
  m_StaticEditorFlags: 0
  m_IsActive: 1
--- !u!1 &1201026786406504
GameObject:
  m_ObjectHideFlags: 1
  m_PrefabParentObject: {fileID: 0}
  m_PrefabInternal: {fileID: 100100000}
  serializedVersion: 5
  m_Component:
  - component: {fileID: 4092960691350414}
  m_Layer: 0
  m_Name: mixamorig_LeftHand
  m_TagString: Untagged
  m_Icon: {fileID: 0}
  m_NavMeshLayer: 0
  m_StaticEditorFlags: 0
  m_IsActive: 1
--- !u!1 &1231082473424452
GameObject:
  m_ObjectHideFlags: 1
  m_PrefabParentObject: {fileID: 0}
  m_PrefabInternal: {fileID: 100100000}
  serializedVersion: 5
  m_Component:
  - component: {fileID: 4031717731955612}
  m_Layer: 0
  m_Name: mixamorig_RightToeBase
  m_TagString: Untagged
  m_Icon: {fileID: 0}
  m_NavMeshLayer: 0
  m_StaticEditorFlags: 0
  m_IsActive: 1
--- !u!1 &1239095515316808
GameObject:
  m_ObjectHideFlags: 1
  m_PrefabParentObject: {fileID: 0}
  m_PrefabInternal: {fileID: 100100000}
  serializedVersion: 5
  m_Component:
  - component: {fileID: 4524791668112232}
  m_Layer: 0
  m_Name: mixamorig_LeftHandPinky4
  m_TagString: Untagged
  m_Icon: {fileID: 0}
  m_NavMeshLayer: 0
  m_StaticEditorFlags: 0
  m_IsActive: 1
--- !u!1 &1243708575525914
GameObject:
  m_ObjectHideFlags: 1
  m_PrefabParentObject: {fileID: 0}
  m_PrefabInternal: {fileID: 100100000}
  serializedVersion: 5
  m_Component:
  - component: {fileID: 4475470882518506}
  m_Layer: 0
  m_Name: mixamorig_LeftHandPinky2
  m_TagString: Untagged
  m_Icon: {fileID: 0}
  m_NavMeshLayer: 0
  m_StaticEditorFlags: 0
  m_IsActive: 1
--- !u!1 &1244848451373632
GameObject:
  m_ObjectHideFlags: 1
  m_PrefabParentObject: {fileID: 0}
  m_PrefabInternal: {fileID: 100100000}
  serializedVersion: 5
  m_Component:
  - component: {fileID: 4573014235044816}
  m_Layer: 0
  m_Name: mixamorig_LeftHandPinky3
  m_TagString: Untagged
  m_Icon: {fileID: 0}
  m_NavMeshLayer: 0
  m_StaticEditorFlags: 0
  m_IsActive: 1
--- !u!1 &1273875218432892
GameObject:
  m_ObjectHideFlags: 0
  m_PrefabParentObject: {fileID: 0}
  m_PrefabInternal: {fileID: 100100000}
  serializedVersion: 5
  m_Component:
  - component: {fileID: 4019277327452756}
  - component: {fileID: 95760693057808126}
  m_Layer: 0
  m_Name: Soldier_Team2_Standard
  m_TagString: Untagged
  m_Icon: {fileID: 0}
  m_NavMeshLayer: 0
  m_StaticEditorFlags: 0
  m_IsActive: 1
--- !u!1 &1283236656321246
GameObject:
  m_ObjectHideFlags: 1
  m_PrefabParentObject: {fileID: 0}
  m_PrefabInternal: {fileID: 100100000}
  serializedVersion: 5
  m_Component:
  - component: {fileID: 4142958442580414}
  m_Layer: 0
  m_Name: mixamorig_RightHandThumb1
  m_TagString: Untagged
  m_Icon: {fileID: 0}
  m_NavMeshLayer: 0
  m_StaticEditorFlags: 0
  m_IsActive: 1
--- !u!1 &1287367907053628
GameObject:
  m_ObjectHideFlags: 1
  m_PrefabParentObject: {fileID: 0}
  m_PrefabInternal: {fileID: 100100000}
  serializedVersion: 5
  m_Component:
  - component: {fileID: 4943493644888130}
  m_Layer: 0
  m_Name: mixamorig_Head
  m_TagString: Untagged
  m_Icon: {fileID: 0}
  m_NavMeshLayer: 0
  m_StaticEditorFlags: 0
  m_IsActive: 1
--- !u!1 &1291040444186906
GameObject:
  m_ObjectHideFlags: 1
  m_PrefabParentObject: {fileID: 0}
  m_PrefabInternal: {fileID: 100100000}
  serializedVersion: 5
  m_Component:
  - component: {fileID: 4344611803677678}
  m_Layer: 0
  m_Name: mixamorig_LeftHandMiddle3
  m_TagString: Untagged
  m_Icon: {fileID: 0}
  m_NavMeshLayer: 0
  m_StaticEditorFlags: 0
  m_IsActive: 1
--- !u!1 &1293728821111534
GameObject:
  m_ObjectHideFlags: 1
  m_PrefabParentObject: {fileID: 0}
  m_PrefabInternal: {fileID: 100100000}
  serializedVersion: 5
  m_Component:
  - component: {fileID: 4902805951508122}
  m_Layer: 0
  m_Name: mixamorig_LeftHandThumb4_end
  m_TagString: Untagged
  m_Icon: {fileID: 0}
  m_NavMeshLayer: 0
  m_StaticEditorFlags: 0
  m_IsActive: 1
--- !u!1 &1337997301295040
GameObject:
  m_ObjectHideFlags: 1
  m_PrefabParentObject: {fileID: 0}
  m_PrefabInternal: {fileID: 100100000}
  serializedVersion: 5
  m_Component:
  - component: {fileID: 4360618742485248}
  m_Layer: 0
  m_Name: mixamorig_LeftHandIndex2
  m_TagString: Untagged
  m_Icon: {fileID: 0}
  m_NavMeshLayer: 0
  m_StaticEditorFlags: 0
  m_IsActive: 1
--- !u!1 &1339420840316688
GameObject:
  m_ObjectHideFlags: 1
  m_PrefabParentObject: {fileID: 0}
  m_PrefabInternal: {fileID: 100100000}
  serializedVersion: 5
  m_Component:
  - component: {fileID: 4871834507887662}
  m_Layer: 0
  m_Name: mixamorig_RightHandMiddle2
  m_TagString: Untagged
  m_Icon: {fileID: 0}
  m_NavMeshLayer: 0
  m_StaticEditorFlags: 0
  m_IsActive: 1
--- !u!1 &1339753024952770
GameObject:
  m_ObjectHideFlags: 1
  m_PrefabParentObject: {fileID: 0}
  m_PrefabInternal: {fileID: 100100000}
  serializedVersion: 5
  m_Component:
  - component: {fileID: 4469117364361030}
  m_Layer: 0
  m_Name: mixamorig_RightHandMiddle4
  m_TagString: Untagged
  m_Icon: {fileID: 0}
  m_NavMeshLayer: 0
  m_StaticEditorFlags: 0
  m_IsActive: 1
--- !u!1 &1350037199403584
GameObject:
  m_ObjectHideFlags: 1
  m_PrefabParentObject: {fileID: 0}
  m_PrefabInternal: {fileID: 100100000}
  serializedVersion: 5
  m_Component:
  - component: {fileID: 4197344709918350}
  m_Layer: 0
  m_Name: mixamorig_Hips
  m_TagString: Untagged
  m_Icon: {fileID: 0}
  m_NavMeshLayer: 0
  m_StaticEditorFlags: 0
  m_IsActive: 1
--- !u!1 &1375114449373930
GameObject:
  m_ObjectHideFlags: 1
  m_PrefabParentObject: {fileID: 0}
  m_PrefabInternal: {fileID: 100100000}
  serializedVersion: 5
  m_Component:
  - component: {fileID: 4443446840410796}
  m_Layer: 0
  m_Name: mixamorig_RightHandPinky4
  m_TagString: Untagged
  m_Icon: {fileID: 0}
  m_NavMeshLayer: 0
  m_StaticEditorFlags: 0
  m_IsActive: 1
--- !u!1 &1392633194089164
GameObject:
  m_ObjectHideFlags: 1
  m_PrefabParentObject: {fileID: 0}
  m_PrefabInternal: {fileID: 100100000}
  serializedVersion: 5
  m_Component:
  - component: {fileID: 4721581199599512}
  m_Layer: 0
  m_Name: mixamorig_RightHandIndex2
  m_TagString: Untagged
  m_Icon: {fileID: 0}
  m_NavMeshLayer: 0
  m_StaticEditorFlags: 0
  m_IsActive: 1
--- !u!1 &1401180847206292
GameObject:
  m_ObjectHideFlags: 1
  m_PrefabParentObject: {fileID: 0}
  m_PrefabInternal: {fileID: 100100000}
  serializedVersion: 5
  m_Component:
  - component: {fileID: 4332288321442802}
  m_Layer: 0
  m_Name: mixamorig_Spine
  m_TagString: Untagged
  m_Icon: {fileID: 0}
  m_NavMeshLayer: 0
  m_StaticEditorFlags: 0
  m_IsActive: 1
--- !u!1 &1412410265891066
GameObject:
  m_ObjectHideFlags: 1
  m_PrefabParentObject: {fileID: 0}
  m_PrefabInternal: {fileID: 100100000}
  serializedVersion: 5
  m_Component:
  - component: {fileID: 4128518726287604}
  m_Layer: 0
  m_Name: mixamorig_LeftHandMiddle4
  m_TagString: Untagged
  m_Icon: {fileID: 0}
  m_NavMeshLayer: 0
  m_StaticEditorFlags: 0
  m_IsActive: 1
--- !u!1 &1435664564228978
GameObject:
  m_ObjectHideFlags: 1
  m_PrefabParentObject: {fileID: 0}
  m_PrefabInternal: {fileID: 100100000}
  serializedVersion: 5
  m_Component:
  - component: {fileID: 4197937332221324}
  m_Layer: 0
  m_Name: mixamorig_RightHandPinky2
  m_TagString: Untagged
  m_Icon: {fileID: 0}
  m_NavMeshLayer: 0
  m_StaticEditorFlags: 0
  m_IsActive: 1
--- !u!1 &1475888360320940
GameObject:
  m_ObjectHideFlags: 1
  m_PrefabParentObject: {fileID: 0}
  m_PrefabInternal: {fileID: 100100000}
  serializedVersion: 5
  m_Component:
  - component: {fileID: 4774101899193534}
  m_Layer: 0
  m_Name: mixamorig_RightLeg
  m_TagString: Untagged
  m_Icon: {fileID: 0}
  m_NavMeshLayer: 0
  m_StaticEditorFlags: 0
  m_IsActive: 1
--- !u!1 &1477134724244610
GameObject:
  m_ObjectHideFlags: 0
  m_PrefabParentObject: {fileID: 0}
  m_PrefabInternal: {fileID: 100100000}
  serializedVersion: 5
  m_Component:
  - component: {fileID: 4547002682858346}
  - component: {fileID: 137857961872557468}
  m_Layer: 0
  m_Name: Goggles_LP
  m_TagString: Untagged
  m_Icon: {fileID: 0}
  m_NavMeshLayer: 0
  m_StaticEditorFlags: 0
  m_IsActive: 1
--- !u!1 &1492886918475280
GameObject:
  m_ObjectHideFlags: 1
  m_PrefabParentObject: {fileID: 0}
  m_PrefabInternal: {fileID: 100100000}
  serializedVersion: 5
  m_Component:
  - component: {fileID: 4393748203504562}
  m_Layer: 0
  m_Name: mixamorig_LeftUpLeg
  m_TagString: Untagged
  m_Icon: {fileID: 0}
  m_NavMeshLayer: 0
  m_StaticEditorFlags: 0
  m_IsActive: 1
--- !u!1 &1508908519210390
GameObject:
  m_ObjectHideFlags: 1
  m_PrefabParentObject: {fileID: 0}
  m_PrefabInternal: {fileID: 100100000}
  serializedVersion: 5
  m_Component:
  - component: {fileID: 4941049596353068}
  m_Layer: 0
  m_Name: mixamorig_Spine2
  m_TagString: Untagged
  m_Icon: {fileID: 0}
  m_NavMeshLayer: 0
  m_StaticEditorFlags: 0
  m_IsActive: 1
--- !u!1 &1509967537132780
GameObject:
  m_ObjectHideFlags: 1
  m_PrefabParentObject: {fileID: 0}
  m_PrefabInternal: {fileID: 100100000}
  serializedVersion: 5
  m_Component:
  - component: {fileID: 4497911358804960}
  m_Layer: 0
  m_Name: mixamorig_RightHandRing3
  m_TagString: Untagged
  m_Icon: {fileID: 0}
  m_NavMeshLayer: 0
  m_StaticEditorFlags: 0
  m_IsActive: 1
--- !u!1 &1511398164407608
GameObject:
  m_ObjectHideFlags: 1
  m_PrefabParentObject: {fileID: 0}
  m_PrefabInternal: {fileID: 100100000}
  serializedVersion: 5
  m_Component:
  - component: {fileID: 4631869639563748}
  m_Layer: 0
  m_Name: mixamorig_LeftShoulder
  m_TagString: Untagged
  m_Icon: {fileID: 0}
  m_NavMeshLayer: 0
  m_StaticEditorFlags: 0
  m_IsActive: 1
--- !u!1 &1524024177593950
GameObject:
  m_ObjectHideFlags: 1
  m_PrefabParentObject: {fileID: 0}
  m_PrefabInternal: {fileID: 100100000}
  serializedVersion: 5
  m_Component:
  - component: {fileID: 4365921271463068}
  m_Layer: 0
  m_Name: mixamorig_RightHandPinky1
  m_TagString: Untagged
  m_Icon: {fileID: 0}
  m_NavMeshLayer: 0
  m_StaticEditorFlags: 0
  m_IsActive: 1
--- !u!1 &1535189284271666
GameObject:
  m_ObjectHideFlags: 1
  m_PrefabParentObject: {fileID: 0}
  m_PrefabInternal: {fileID: 100100000}
  serializedVersion: 5
  m_Component:
  - component: {fileID: 4746613788529404}
  m_Layer: 0
  m_Name: mixamorig_LeftHandPinky4_end
  m_TagString: Untagged
  m_Icon: {fileID: 0}
  m_NavMeshLayer: 0
  m_StaticEditorFlags: 0
  m_IsActive: 1
--- !u!1 &1551238298631370
GameObject:
  m_ObjectHideFlags: 1
  m_PrefabParentObject: {fileID: 0}
  m_PrefabInternal: {fileID: 100100000}
  serializedVersion: 5
  m_Component:
  - component: {fileID: 4694954822348790}
  m_Layer: 0
  m_Name: mixamorig_LeftHandRing2
  m_TagString: Untagged
  m_Icon: {fileID: 0}
  m_NavMeshLayer: 0
  m_StaticEditorFlags: 0
  m_IsActive: 1
--- !u!1 &1557754727585452
GameObject:
  m_ObjectHideFlags: 1
  m_PrefabParentObject: {fileID: 0}
  m_PrefabInternal: {fileID: 100100000}
  serializedVersion: 5
  m_Component:
  - component: {fileID: 4047005259197344}
  m_Layer: 0
  m_Name: mixamorig_RightHandThumb3
  m_TagString: Untagged
  m_Icon: {fileID: 0}
  m_NavMeshLayer: 0
  m_StaticEditorFlags: 0
  m_IsActive: 1
--- !u!1 &1558169279397478
GameObject:
  m_ObjectHideFlags: 1
  m_PrefabParentObject: {fileID: 0}
  m_PrefabInternal: {fileID: 100100000}
  serializedVersion: 5
  m_Component:
  - component: {fileID: 4365876900283418}
  m_Layer: 0
  m_Name: mixamorig_RightHandThumb2
  m_TagString: Untagged
  m_Icon: {fileID: 0}
  m_NavMeshLayer: 0
  m_StaticEditorFlags: 0
  m_IsActive: 1
--- !u!1 &1560967771911824
GameObject:
  m_ObjectHideFlags: 1
  m_PrefabParentObject: {fileID: 0}
  m_PrefabInternal: {fileID: 100100000}
  serializedVersion: 5
  m_Component:
  - component: {fileID: 4661457238496376}
  m_Layer: 0
  m_Name: mixamorig_LeftHandIndex1
  m_TagString: Untagged
  m_Icon: {fileID: 0}
  m_NavMeshLayer: 0
  m_StaticEditorFlags: 0
  m_IsActive: 1
--- !u!1 &1565264603113212
GameObject:
  m_ObjectHideFlags: 1
  m_PrefabParentObject: {fileID: 0}
  m_PrefabInternal: {fileID: 100100000}
  serializedVersion: 5
  m_Component:
  - component: {fileID: 4751873365619910}
  m_Layer: 0
  m_Name: mixamorig_LeftLeg
  m_TagString: Untagged
  m_Icon: {fileID: 0}
  m_NavMeshLayer: 0
  m_StaticEditorFlags: 0
  m_IsActive: 1
--- !u!1 &1570178450066078
GameObject:
  m_ObjectHideFlags: 1
  m_PrefabParentObject: {fileID: 0}
  m_PrefabInternal: {fileID: 100100000}
  serializedVersion: 5
  m_Component:
  - component: {fileID: 4353173374521890}
  m_Layer: 0
  m_Name: mixamorig_LeftHandIndex4
  m_TagString: Untagged
  m_Icon: {fileID: 0}
  m_NavMeshLayer: 0
  m_StaticEditorFlags: 0
  m_IsActive: 1
--- !u!1 &1587467467159050
GameObject:
  m_ObjectHideFlags: 1
  m_PrefabParentObject: {fileID: 0}
  m_PrefabInternal: {fileID: 100100000}
  serializedVersion: 5
  m_Component:
  - component: {fileID: 4993943915865780}
  m_Layer: 0
  m_Name: mixamorig_RightHandPinky3
  m_TagString: Untagged
  m_Icon: {fileID: 0}
  m_NavMeshLayer: 0
  m_StaticEditorFlags: 0
  m_IsActive: 1
--- !u!1 &1592717498226406
GameObject:
  m_ObjectHideFlags: 1
  m_PrefabParentObject: {fileID: 0}
  m_PrefabInternal: {fileID: 100100000}
  serializedVersion: 5
  m_Component:
  - component: {fileID: 4036953645964718}
  m_Layer: 0
  m_Name: mixamorig_RightHandMiddle4_end
  m_TagString: Untagged
  m_Icon: {fileID: 0}
  m_NavMeshLayer: 0
  m_StaticEditorFlags: 0
  m_IsActive: 1
--- !u!1 &1639068177065768
GameObject:
  m_ObjectHideFlags: 1
  m_PrefabParentObject: {fileID: 0}
  m_PrefabInternal: {fileID: 100100000}
  serializedVersion: 5
  m_Component:
  - component: {fileID: 4064852390900632}
  m_Layer: 0
  m_Name: mixamorig_LeftToeBase
  m_TagString: Untagged
  m_Icon: {fileID: 0}
  m_NavMeshLayer: 0
  m_StaticEditorFlags: 0
  m_IsActive: 1
--- !u!1 &1645071640813158
GameObject:
  m_ObjectHideFlags: 1
  m_PrefabParentObject: {fileID: 0}
  m_PrefabInternal: {fileID: 100100000}
  serializedVersion: 5
  m_Component:
  - component: {fileID: 4524621475018264}
  m_Layer: 0
  m_Name: mixamorig_RightHandIndex3
  m_TagString: Untagged
  m_Icon: {fileID: 0}
  m_NavMeshLayer: 0
  m_StaticEditorFlags: 0
  m_IsActive: 1
--- !u!1 &1645857386959494
GameObject:
  m_ObjectHideFlags: 1
  m_PrefabParentObject: {fileID: 0}
  m_PrefabInternal: {fileID: 100100000}
  serializedVersion: 5
  m_Component:
  - component: {fileID: 4897691484095822}
  m_Layer: 0
  m_Name: mixamorig_LeftToe_End_end
  m_TagString: Untagged
  m_Icon: {fileID: 0}
  m_NavMeshLayer: 0
  m_StaticEditorFlags: 0
  m_IsActive: 1
--- !u!1 &1646734452427532
GameObject:
  m_ObjectHideFlags: 1
  m_PrefabParentObject: {fileID: 0}
  m_PrefabInternal: {fileID: 100100000}
  serializedVersion: 5
  m_Component:
  - component: {fileID: 4717751848643830}
  m_Layer: 0
  m_Name: mixamorig_RightHandRing4_end
  m_TagString: Untagged
  m_Icon: {fileID: 0}
  m_NavMeshLayer: 0
  m_StaticEditorFlags: 0
  m_IsActive: 1
--- !u!1 &1646916028205036
GameObject:
  m_ObjectHideFlags: 1
  m_PrefabParentObject: {fileID: 0}
  m_PrefabInternal: {fileID: 100100000}
  serializedVersion: 5
  m_Component:
  - component: {fileID: 4217577770838248}
  m_Layer: 0
  m_Name: mixamorig_LeftToe_End
  m_TagString: Untagged
  m_Icon: {fileID: 0}
  m_NavMeshLayer: 0
  m_StaticEditorFlags: 0
  m_IsActive: 1
--- !u!1 &1662740876284998
GameObject:
  m_ObjectHideFlags: 1
  m_PrefabParentObject: {fileID: 0}
  m_PrefabInternal: {fileID: 100100000}
  serializedVersion: 5
  m_Component:
  - component: {fileID: 4198775918174758}
  m_Layer: 0
  m_Name: mixamorig_LeftHandRing4_end
  m_TagString: Untagged
  m_Icon: {fileID: 0}
  m_NavMeshLayer: 0
  m_StaticEditorFlags: 0
  m_IsActive: 1
--- !u!1 &1669816075194960
GameObject:
  m_ObjectHideFlags: 1
  m_PrefabParentObject: {fileID: 0}
  m_PrefabInternal: {fileID: 100100000}
  serializedVersion: 5
  m_Component:
  - component: {fileID: 4163842682998458}
  m_Layer: 0
  m_Name: mixamorig_RightArm
  m_TagString: Untagged
  m_Icon: {fileID: 0}
  m_NavMeshLayer: 0
  m_StaticEditorFlags: 0
  m_IsActive: 1
--- !u!1 &1686234459649120
GameObject:
  m_ObjectHideFlags: 1
  m_PrefabParentObject: {fileID: 0}
  m_PrefabInternal: {fileID: 100100000}
  serializedVersion: 5
  m_Component:
  - component: {fileID: 4182294907251154}
  m_Layer: 0
  m_Name: mixamorig_LeftHandRing1
  m_TagString: Untagged
  m_Icon: {fileID: 0}
  m_NavMeshLayer: 0
  m_StaticEditorFlags: 0
  m_IsActive: 1
--- !u!1 &1707419291249080
GameObject:
  m_ObjectHideFlags: 1
  m_PrefabParentObject: {fileID: 0}
  m_PrefabInternal: {fileID: 100100000}
  serializedVersion: 5
  m_Component:
  - component: {fileID: 4304119040316512}
  m_Layer: 0
  m_Name: mixamorig_RightHandThumb4
  m_TagString: Untagged
  m_Icon: {fileID: 0}
  m_NavMeshLayer: 0
  m_StaticEditorFlags: 0
  m_IsActive: 1
--- !u!1 &1721958870348424
GameObject:
  m_ObjectHideFlags: 1
  m_PrefabParentObject: {fileID: 0}
  m_PrefabInternal: {fileID: 100100000}
  serializedVersion: 5
  m_Component:
  - component: {fileID: 4393824267939530}
  m_Layer: 0
  m_Name: mixamorig_LeftFoot
  m_TagString: Untagged
  m_Icon: {fileID: 0}
  m_NavMeshLayer: 0
  m_StaticEditorFlags: 0
  m_IsActive: 1
--- !u!1 &1749948368990332
GameObject:
  m_ObjectHideFlags: 1
  m_PrefabParentObject: {fileID: 0}
  m_PrefabInternal: {fileID: 100100000}
  serializedVersion: 5
  m_Component:
  - component: {fileID: 4307462524843544}
  m_Layer: 0
  m_Name: mixamorig_LeftHandMiddle2
  m_TagString: Untagged
  m_Icon: {fileID: 0}
  m_NavMeshLayer: 0
  m_StaticEditorFlags: 0
  m_IsActive: 1
--- !u!1 &1750783762269566
GameObject:
  m_ObjectHideFlags: 1
  m_PrefabParentObject: {fileID: 0}
  m_PrefabInternal: {fileID: 100100000}
  serializedVersion: 5
  m_Component:
  - component: {fileID: 4744593480705662}
  m_Layer: 0
  m_Name: mixamorig_RightHandMiddle1
  m_TagString: Untagged
  m_Icon: {fileID: 0}
  m_NavMeshLayer: 0
  m_StaticEditorFlags: 0
  m_IsActive: 1
--- !u!1 &1761153601391586
GameObject:
  m_ObjectHideFlags: 1
  m_PrefabParentObject: {fileID: 0}
  m_PrefabInternal: {fileID: 100100000}
  serializedVersion: 5
  m_Component:
  - component: {fileID: 4893130243655656}
  m_Layer: 0
  m_Name: mixamorig_LeftHandIndex3
  m_TagString: Untagged
  m_Icon: {fileID: 0}
  m_NavMeshLayer: 0
  m_StaticEditorFlags: 0
  m_IsActive: 1
--- !u!1 &1763775553976422
GameObject:
  m_ObjectHideFlags: 1
  m_PrefabParentObject: {fileID: 0}
  m_PrefabInternal: {fileID: 100100000}
  serializedVersion: 5
  m_Component:
  - component: {fileID: 4838166184543674}
  m_Layer: 0
  m_Name: mixamorig_RightUpLeg
  m_TagString: Untagged
  m_Icon: {fileID: 0}
  m_NavMeshLayer: 0
  m_StaticEditorFlags: 0
  m_IsActive: 1
--- !u!1 &1770405590735036
GameObject:
  m_ObjectHideFlags: 1
  m_PrefabParentObject: {fileID: 0}
  m_PrefabInternal: {fileID: 100100000}
  serializedVersion: 5
  m_Component:
  - component: {fileID: 4293646865468802}
  m_Layer: 0
  m_Name: mixamorig_LeftHandRing4
  m_TagString: Untagged
  m_Icon: {fileID: 0}
  m_NavMeshLayer: 0
  m_StaticEditorFlags: 0
  m_IsActive: 1
--- !u!1 &1793541956013710
GameObject:
  m_ObjectHideFlags: 1
  m_PrefabParentObject: {fileID: 0}
  m_PrefabInternal: {fileID: 100100000}
  serializedVersion: 5
  m_Component:
  - component: {fileID: 4739899776362268}
  m_Layer: 0
  m_Name: mixamorig_LeftHandMiddle1
  m_TagString: Untagged
  m_Icon: {fileID: 0}
  m_NavMeshLayer: 0
  m_StaticEditorFlags: 0
  m_IsActive: 1
--- !u!1 &1801579197884776
GameObject:
  m_ObjectHideFlags: 1
  m_PrefabParentObject: {fileID: 0}
  m_PrefabInternal: {fileID: 100100000}
  serializedVersion: 5
  m_Component:
  - component: {fileID: 4257212094232836}
  m_Layer: 0
  m_Name: mixamorig_RightHandRing1
  m_TagString: Untagged
  m_Icon: {fileID: 0}
  m_NavMeshLayer: 0
  m_StaticEditorFlags: 0
  m_IsActive: 1
--- !u!1 &1805911209843988
GameObject:
  m_ObjectHideFlags: 1
  m_PrefabParentObject: {fileID: 0}
  m_PrefabInternal: {fileID: 100100000}
  serializedVersion: 5
  m_Component:
  - component: {fileID: 4454145182315564}
  m_Layer: 0
  m_Name: mixamorig_RightHandMiddle3
  m_TagString: Untagged
  m_Icon: {fileID: 0}
  m_NavMeshLayer: 0
  m_StaticEditorFlags: 0
  m_IsActive: 1
--- !u!1 &1815417550319320
GameObject:
  m_ObjectHideFlags: 1
  m_PrefabParentObject: {fileID: 0}
  m_PrefabInternal: {fileID: 100100000}
  serializedVersion: 5
  m_Component:
  - component: {fileID: 4844129560214712}
  m_Layer: 0
  m_Name: mixamorig_RightToe_End_end
  m_TagString: Untagged
  m_Icon: {fileID: 0}
  m_NavMeshLayer: 0
  m_StaticEditorFlags: 0
  m_IsActive: 1
--- !u!1 &1846302695166898
GameObject:
  m_ObjectHideFlags: 1
  m_PrefabParentObject: {fileID: 0}
  m_PrefabInternal: {fileID: 100100000}
  serializedVersion: 5
  m_Component:
  - component: {fileID: 4625168442921126}
  m_Layer: 0
  m_Name: mixamorig_RightHandIndex4
  m_TagString: Untagged
  m_Icon: {fileID: 0}
  m_NavMeshLayer: 0
  m_StaticEditorFlags: 0
  m_IsActive: 1
--- !u!1 &1847470067025376
GameObject:
  m_ObjectHideFlags: 1
  m_PrefabParentObject: {fileID: 0}
  m_PrefabInternal: {fileID: 100100000}
  serializedVersion: 5
  m_Component:
  - component: {fileID: 4899659405142326}
  m_Layer: 0
  m_Name: mixamorig_LeftHandRing3
  m_TagString: Untagged
  m_Icon: {fileID: 0}
  m_NavMeshLayer: 0
  m_StaticEditorFlags: 0
  m_IsActive: 1
--- !u!1 &1854418599633860
GameObject:
  m_ObjectHideFlags: 0
  m_PrefabParentObject: {fileID: 0}
  m_PrefabInternal: {fileID: 100100000}
  serializedVersion: 5
  m_Component:
  - component: {fileID: 4674154452978068}
  - component: {fileID: 137335775674105306}
  m_Layer: 0
  m_Name: Helmet_Strap_LP
  m_TagString: Untagged
  m_Icon: {fileID: 0}
  m_NavMeshLayer: 0
  m_StaticEditorFlags: 0
  m_IsActive: 1
--- !u!1 &1860234510583464
GameObject:
  m_ObjectHideFlags: 1
  m_PrefabParentObject: {fileID: 0}
  m_PrefabInternal: {fileID: 100100000}
  serializedVersion: 5
  m_Component:
  - component: {fileID: 4042802680789816}
  m_Layer: 0
  m_Name: mixamorig_LeftHandMiddle4_end
  m_TagString: Untagged
  m_Icon: {fileID: 0}
  m_NavMeshLayer: 0
  m_StaticEditorFlags: 0
  m_IsActive: 1
--- !u!1 &1864116942772722
GameObject:
  m_ObjectHideFlags: 1
  m_PrefabParentObject: {fileID: 0}
  m_PrefabInternal: {fileID: 100100000}
  serializedVersion: 5
  m_Component:
  - component: {fileID: 4250242786234340}
  m_Layer: 0
  m_Name: mixamorig_HeadTop_End
  m_TagString: Untagged
  m_Icon: {fileID: 0}
  m_NavMeshLayer: 0
  m_StaticEditorFlags: 0
  m_IsActive: 1
--- !u!1 &1874164390201174
GameObject:
  m_ObjectHideFlags: 1
  m_PrefabParentObject: {fileID: 0}
  m_PrefabInternal: {fileID: 100100000}
  serializedVersion: 5
  m_Component:
  - component: {fileID: 4738075255015684}
  m_Layer: 0
  m_Name: mixamorig_LeftHandThumb2
  m_TagString: Untagged
  m_Icon: {fileID: 0}
  m_NavMeshLayer: 0
  m_StaticEditorFlags: 0
  m_IsActive: 1
--- !u!1 &1891362839174948
GameObject:
  m_ObjectHideFlags: 1
  m_PrefabParentObject: {fileID: 0}
  m_PrefabInternal: {fileID: 100100000}
  serializedVersion: 5
  m_Component:
  - component: {fileID: 4406560425371262}
  m_Layer: 0
  m_Name: mixamorig_LeftArm
  m_TagString: Untagged
  m_Icon: {fileID: 0}
  m_NavMeshLayer: 0
  m_StaticEditorFlags: 0
  m_IsActive: 1
--- !u!1 &1909405706274264
GameObject:
  m_ObjectHideFlags: 1
  m_PrefabParentObject: {fileID: 0}
  m_PrefabInternal: {fileID: 100100000}
  serializedVersion: 5
  m_Component:
  - component: {fileID: 4216157089481264}
  m_Layer: 0
  m_Name: mixamorig_RightHand
  m_TagString: Untagged
  m_Icon: {fileID: 0}
  m_NavMeshLayer: 0
  m_StaticEditorFlags: 0
  m_IsActive: 1
--- !u!1 &1928161531644002
GameObject:
  m_ObjectHideFlags: 1
  m_PrefabParentObject: {fileID: 0}
  m_PrefabInternal: {fileID: 100100000}
  serializedVersion: 5
  m_Component:
  - component: {fileID: 4279739796702078}
  m_Layer: 0
  m_Name: mixamorig_LeftHandIndex4_end
  m_TagString: Untagged
  m_Icon: {fileID: 0}
  m_NavMeshLayer: 0
  m_StaticEditorFlags: 0
  m_IsActive: 1
--- !u!1 &1950566855478618
GameObject:
  m_ObjectHideFlags: 1
  m_PrefabParentObject: {fileID: 0}
  m_PrefabInternal: {fileID: 100100000}
  serializedVersion: 5
  m_Component:
  - component: {fileID: 4986328270850916}
  m_Layer: 0
  m_Name: mixamorig_LeftHandThumb1
  m_TagString: Untagged
  m_Icon: {fileID: 0}
  m_NavMeshLayer: 0
  m_StaticEditorFlags: 0
  m_IsActive: 1
--- !u!1 &1956617857449012
GameObject:
  m_ObjectHideFlags: 1
  m_PrefabParentObject: {fileID: 0}
  m_PrefabInternal: {fileID: 100100000}
  serializedVersion: 5
  m_Component:
  - component: {fileID: 4077151143462942}
  m_Layer: 0
  m_Name: mixamorig_HeadTop_End_end
  m_TagString: Untagged
  m_Icon: {fileID: 0}
  m_NavMeshLayer: 0
  m_StaticEditorFlags: 0
  m_IsActive: 1
--- !u!1 &1966074661253772
GameObject:
  m_ObjectHideFlags: 1
  m_PrefabParentObject: {fileID: 0}
  m_PrefabInternal: {fileID: 100100000}
  serializedVersion: 5
  m_Component:
  - component: {fileID: 4649215859090910}
  m_Layer: 0
  m_Name: mixamorig_LeftHandPinky1
  m_TagString: Untagged
  m_Icon: {fileID: 0}
  m_NavMeshLayer: 0
  m_StaticEditorFlags: 0
  m_IsActive: 1
--- !u!1 &1981292556521154
GameObject:
  m_ObjectHideFlags: 1
  m_PrefabParentObject: {fileID: 0}
  m_PrefabInternal: {fileID: 100100000}
  serializedVersion: 5
  m_Component:
  - component: {fileID: 4439427522120272}
  m_Layer: 0
  m_Name: mixamorig_Spine1
  m_TagString: Untagged
  m_Icon: {fileID: 0}
  m_NavMeshLayer: 0
  m_StaticEditorFlags: 0
  m_IsActive: 1
--- !u!1 &1984778139917402
GameObject:
  m_ObjectHideFlags: 1
  m_PrefabParentObject: {fileID: 0}
  m_PrefabInternal: {fileID: 100100000}
  serializedVersion: 5
  m_Component:
  - component: {fileID: 4517584698790666}
  m_Layer: 0
  m_Name: mixamorig_RightHandIndex1
  m_TagString: Untagged
  m_Icon: {fileID: 0}
  m_NavMeshLayer: 0
  m_StaticEditorFlags: 0
  m_IsActive: 1
--- !u!1 &1986712981341088
GameObject:
  m_ObjectHideFlags: 1
  m_PrefabParentObject: {fileID: 0}
  m_PrefabInternal: {fileID: 100100000}
  serializedVersion: 5
  m_Component:
  - component: {fileID: 4479049498574234}
  m_Layer: 0
  m_Name: mixamorig_RightForeArm
  m_TagString: Untagged
  m_Icon: {fileID: 0}
  m_NavMeshLayer: 0
  m_StaticEditorFlags: 0
  m_IsActive: 1
--- !u!1 &1990977277034068
GameObject:
  m_ObjectHideFlags: 1
  m_PrefabParentObject: {fileID: 0}
  m_PrefabInternal: {fileID: 100100000}
  serializedVersion: 5
  m_Component:
  - component: {fileID: 4172003167294288}
  m_Layer: 0
  m_Name: mixamorig_RightShoulder
  m_TagString: Untagged
  m_Icon: {fileID: 0}
  m_NavMeshLayer: 0
  m_StaticEditorFlags: 0
  m_IsActive: 1
--- !u!4 &4019277327452756
Transform:
  m_ObjectHideFlags: 1
  m_PrefabParentObject: {fileID: 0}
  m_PrefabInternal: {fileID: 100100000}
  m_GameObject: {fileID: 1273875218432892}
  m_LocalRotation: {x: 0, y: 1, z: 0, w: 0}
  m_LocalPosition: {x: -1.32, y: 0, z: 0}
  m_LocalScale: {x: 1, y: 1, z: 1}
  m_Children:
  - {fileID: 4245205387213394}
  - {fileID: 4547002682858346}
  - {fileID: 4519699712174006}
  - {fileID: 4674154452978068}
  - {fileID: 4895243882794030}
  m_Father: {fileID: 0}
  m_RootOrder: 0
  m_LocalEulerAnglesHint: {x: 0, y: 180, z: 0}
--- !u!4 &4031717731955612
Transform:
  m_ObjectHideFlags: 1
  m_PrefabParentObject: {fileID: 0}
  m_PrefabInternal: {fileID: 100100000}
  m_GameObject: {fileID: 1231082473424452}
  m_LocalRotation: {x: -0.36830434, y: -0.016156292, z: 0.08026023, w: 0.9260935}
  m_LocalPosition: {x: -0.000000006835907, y: 0.18184917, z: 0.0000000012665986}
  m_LocalScale: {x: 0.99999976, y: 0.9999995, z: 1.0000008}
  m_Children:
  - {fileID: 4952570844509472}
  m_Father: {fileID: 4984723626352092}
  m_RootOrder: 0
  m_LocalEulerAnglesHint: {x: 0, y: 0, z: 0}
--- !u!4 &4036953645964718
Transform:
  m_ObjectHideFlags: 1
  m_PrefabParentObject: {fileID: 0}
  m_PrefabInternal: {fileID: 100100000}
  m_GameObject: {fileID: 1592717498226406}
  m_LocalRotation: {x: 0, y: -0, z: -0, w: 1}
  m_LocalPosition: {x: -0, y: 0.014809202, z: 0}
  m_LocalScale: {x: 1, y: 1, z: 1}
  m_Children: []
  m_Father: {fileID: 4469117364361030}
  m_RootOrder: 0
  m_LocalEulerAnglesHint: {x: 0, y: 0, z: 0}
--- !u!4 &4042802680789816
Transform:
  m_ObjectHideFlags: 1
  m_PrefabParentObject: {fileID: 0}
  m_PrefabInternal: {fileID: 100100000}
  m_GameObject: {fileID: 1860234510583464}
  m_LocalRotation: {x: 0, y: -0, z: -0, w: 1}
  m_LocalPosition: {x: -0, y: 0.014809258, z: 0}
  m_LocalScale: {x: 1, y: 1, z: 1}
  m_Children: []
  m_Father: {fileID: 4128518726287604}
  m_RootOrder: 0
  m_LocalEulerAnglesHint: {x: 0, y: 0, z: 0}
--- !u!4 &4047005259197344
Transform:
  m_ObjectHideFlags: 1
  m_PrefabParentObject: {fileID: 0}
  m_PrefabInternal: {fileID: 100100000}
  m_GameObject: {fileID: 1557754727585452}
  m_LocalRotation: {x: 0.000001975588, y: 0.034630038, z: 0.000001139924, w: 0.9994002}
  m_LocalPosition: {x: -0.000000059604638, y: 0.037289325, z: -0.000000028610227}
  m_LocalScale: {x: 0.9999996, y: 1.0000007, z: 1.0000004}
  m_Children:
  - {fileID: 4304119040316512}
  m_Father: {fileID: 4365876900283418}
  m_RootOrder: 0
  m_LocalEulerAnglesHint: {x: 0, y: 0, z: 0}
--- !u!4 &4064852390900632
Transform:
  m_ObjectHideFlags: 1
  m_PrefabParentObject: {fileID: 0}
  m_PrefabInternal: {fileID: 100100000}
  m_GameObject: {fileID: 1639068177065768}
  m_LocalRotation: {x: -0.36821333, y: 0.015404166, z: -0.08054123, w: 0.92611814}
  m_LocalPosition: {x: 0.000000005215406, y: 0.18186311, z: 0.00000001788139}
  m_LocalScale: {x: 0.9999999, y: 1.0000002, z: 1.0000004}
  m_Children:
  - {fileID: 4217577770838248}
  m_Father: {fileID: 4393824267939530}
  m_RootOrder: 0
  m_LocalEulerAnglesHint: {x: 0, y: 0, z: 0}
--- !u!4 &4077151143462942
Transform:
  m_ObjectHideFlags: 1
  m_PrefabParentObject: {fileID: 0}
  m_PrefabInternal: {fileID: 100100000}
  m_GameObject: {fileID: 1956617857449012}
  m_LocalRotation: {x: 0, y: -0, z: -0, w: 1}
  m_LocalPosition: {x: -0, y: 0.0148091605, z: 0}
  m_LocalScale: {x: 1, y: 1, z: 1}
  m_Children: []
  m_Father: {fileID: 4250242786234340}
  m_RootOrder: 0
  m_LocalEulerAnglesHint: {x: 0, y: 0, z: 0}
--- !u!4 &4092960691350414
Transform:
  m_ObjectHideFlags: 1
  m_PrefabParentObject: {fileID: 0}
  m_PrefabInternal: {fileID: 100100000}
  m_GameObject: {fileID: 1201026786406504}
  m_LocalRotation: {x: -0.06386827, y: 0.0133678615, z: 0.026471008, w: 0.99751765}
  m_LocalPosition: {x: -0.00000011326504, y: 0.22896373, z: 0.0000000028503562}
  m_LocalScale: {x: 1.0000008, y: 0.9999994, z: 1}
  m_Children:
  - {fileID: 4661457238496376}
  - {fileID: 4739899776362268}
  - {fileID: 4649215859090910}
  - {fileID: 4182294907251154}
  - {fileID: 4986328270850916}
  m_Father: {fileID: 4829055704708924}
  m_RootOrder: 0
  m_LocalEulerAnglesHint: {x: 0, y: 0, z: 0}
--- !u!4 &4101359151083442
Transform:
  m_ObjectHideFlags: 1
  m_PrefabParentObject: {fileID: 0}
  m_PrefabInternal: {fileID: 100100000}
  m_GameObject: {fileID: 1124446956260560}
  m_LocalRotation: {x: -0.000000061629954, y: -0.0000000037134635, z: -0.0000014162364,
    w: 1}
  m_LocalPosition: {x: -0.00000023309022, y: 0.023806864, z: -0.0000000032864043}
  m_LocalScale: {x: 1, y: 1, z: 1}
  m_Children:
  - {fileID: 4717751848643830}
  m_Father: {fileID: 4497911358804960}
  m_RootOrder: 0
  m_LocalEulerAnglesHint: {x: 0, y: 0, z: 0}
--- !u!4 &4128518726287604
Transform:
  m_ObjectHideFlags: 1
  m_PrefabParentObject: {fileID: 0}
  m_PrefabInternal: {fileID: 100100000}
  m_GameObject: {fileID: 1412410265891066}
  m_LocalRotation: {x: 0.000000014148908, y: 9.537128e-10, z: 0.0000018562426, w: 1}
  m_LocalPosition: {x: 0.000000066953646, y: 0.029307285, z: -0.0000000013550742}
  m_LocalScale: {x: 1, y: 0.9999999, z: 1}
  m_Children:
  - {fileID: 4042802680789816}
  m_Father: {fileID: 4344611803677678}
  m_RootOrder: 0
  m_LocalEulerAnglesHint: {x: 0, y: 0, z: 0}
--- !u!4 &4142958442580414
Transform:
  m_ObjectHideFlags: 1
  m_PrefabParentObject: {fileID: 0}
  m_PrefabInternal: {fileID: 100100000}
  m_GameObject: {fileID: 1283236656321246}
  m_LocalRotation: {x: 0.3636373, y: 0.40533718, z: -0.068474695, w: 0.8359312}
  m_LocalPosition: {x: 0.022332234, y: 0.031399727, z: 0.027364913}
  m_LocalScale: {x: 1.0000026, y: 0.9999993, z: 0.9999989}
  m_Children:
  - {fileID: 4365876900283418}
  m_Father: {fileID: 4216157089481264}
  m_RootOrder: 4
  m_LocalEulerAnglesHint: {x: 0, y: 0, z: 0}
--- !u!4 &4163842682998458
Transform:
  m_ObjectHideFlags: 1
  m_PrefabParentObject: {fileID: 0}
  m_PrefabInternal: {fileID: 100100000}
  m_GameObject: {fileID: 1669816075194960}
  m_LocalRotation: {x: -0.0015782106, y: -0.000072252304, z: 0.16393977, w: 0.9864691}
  m_LocalPosition: {x: -0.000000052456738, y: 0.16263099, z: -0.0000000016391275}
  m_LocalScale: {x: 1.0000005, y: 1.0000004, z: 0.9999995}
  m_Children:
  - {fileID: 4479049498574234}
  m_Father: {fileID: 4172003167294288}
  m_RootOrder: 0
  m_LocalEulerAnglesHint: {x: 0, y: 0, z: 0}
--- !u!4 &4172003167294288
Transform:
  m_ObjectHideFlags: 1
  m_PrefabParentObject: {fileID: 0}
  m_PrefabInternal: {fileID: 100100000}
  m_GameObject: {fileID: 1990977277034068}
  m_LocalRotation: {x: 0.026614562, y: 0.0345291, z: -0.8127283, w: 0.58100957}
  m_LocalPosition: {x: 0.07740653, y: 0.12234444, z: -0.0020100672}
  m_LocalScale: {x: 0.9999999, y: 0.9999994, z: 0.99999964}
  m_Children:
  - {fileID: 4163842682998458}
  m_Father: {fileID: 4941049596353068}
  m_RootOrder: 2
  m_LocalEulerAnglesHint: {x: 0, y: 0, z: 0}
--- !u!4 &4182294907251154
Transform:
  m_ObjectHideFlags: 1
  m_PrefabParentObject: {fileID: 0}
  m_PrefabInternal: {fileID: 100100000}
  m_GameObject: {fileID: 1686234459649120}
  m_LocalRotation: {x: 0.06514435, y: 0.038319573, z: -0.023125581, w: 0.99687165}
  m_LocalPosition: {x: 0.0075384513, y: 0.11203228, z: -0.019173555}
  m_LocalScale: {x: 1, y: 1.0000002, z: 0.9999998}
  m_Children:
  - {fileID: 4694954822348790}
  m_Father: {fileID: 4092960691350414}
  m_RootOrder: 3
  m_LocalEulerAnglesHint: {x: 0, y: 0, z: 0}
--- !u!4 &4197344709918350
Transform:
  m_ObjectHideFlags: 1
  m_PrefabParentObject: {fileID: 0}
  m_PrefabInternal: {fileID: 100100000}
  m_GameObject: {fileID: 1350037199403584}
  m_LocalRotation: {x: -0.042448774, y: -0.0000020391055, z: 0.000024435467, w: 0.99909866}
  m_LocalPosition: {x: -0.0000027799977, y: 0.99336004, z: 0.021480193}
  m_LocalScale: {x: 1, y: 1.0000001, z: 0.99999994}
  m_Children:
  - {fileID: 4393748203504562}
  - {fileID: 4838166184543674}
  - {fileID: 4332288321442802}
  m_Father: {fileID: 4245205387213394}
  m_RootOrder: 0
  m_LocalEulerAnglesHint: {x: 0, y: 0, z: 0}
--- !u!4 &4197937332221324
Transform:
  m_ObjectHideFlags: 1
  m_PrefabParentObject: {fileID: 0}
  m_PrefabInternal: {fileID: 100100000}
  m_GameObject: {fileID: 1435664564228978}
  m_LocalRotation: {x: 0.00003100766, y: 0.00021802593, z: -0.000057224897, w: 1}
  m_LocalPosition: {x: -0.00000004909001, y: 0.022100512, z: 0.000000016500707}
  m_LocalScale: {x: 0.99999857, y: 0.9999989, z: 0.99999994}
  m_Children:
  - {fileID: 4993943915865780}
  m_Father: {fileID: 4365921271463068}
  m_RootOrder: 0
  m_LocalEulerAnglesHint: {x: 0, y: 0, z: 0}
--- !u!4 &4198775918174758
Transform:
  m_ObjectHideFlags: 1
  m_PrefabParentObject: {fileID: 0}
  m_PrefabInternal: {fileID: 100100000}
  m_GameObject: {fileID: 1662740876284998}
  m_LocalRotation: {x: 0, y: -0, z: -0, w: 1}
  m_LocalPosition: {x: -0, y: 0.014809273, z: 0}
  m_LocalScale: {x: 1, y: 1, z: 1}
  m_Children: []
  m_Father: {fileID: 4293646865468802}
  m_RootOrder: 0
  m_LocalEulerAnglesHint: {x: 0, y: 0, z: 0}
--- !u!4 &4216157089481264
Transform:
  m_ObjectHideFlags: 1
  m_PrefabParentObject: {fileID: 0}
  m_PrefabInternal: {fileID: 100100000}
  m_GameObject: {fileID: 1909405706274264}
  m_LocalRotation: {x: -0.070955254, y: -0.0160452, z: -0.02782838, w: 0.99696213}
  m_LocalPosition: {x: -0.00000027914876, y: 0.22896674, z: -0.0000000019281285}
  m_LocalScale: {x: 0.99999976, y: 0.9999994, z: 1.0000004}
  m_Children:
  - {fileID: 4517584698790666}
  - {fileID: 4744593480705662}
  - {fileID: 4365921271463068}
  - {fileID: 4257212094232836}
  - {fileID: 4142958442580414}
  m_Father: {fileID: 4479049498574234}
  m_RootOrder: 0
  m_LocalEulerAnglesHint: {x: 0, y: 0, z: 0}
--- !u!4 &4217577770838248
Transform:
  m_ObjectHideFlags: 1
  m_PrefabParentObject: {fileID: 0}
  m_PrefabInternal: {fileID: 100100000}
  m_GameObject: {fileID: 1646916028205036}
  m_LocalRotation: {x: -0.0000000053551044, y: 0.00000010081567, z: 0.00000007922063,
    w: 1}
  m_LocalPosition: {x: -0.0000000055813136, y: 0.06736669, z: 0.0000000016490228}
  m_LocalScale: {x: 1, y: 1, z: 1}
  m_Children:
  - {fileID: 4897691484095822}
  m_Father: {fileID: 4064852390900632}
  m_RootOrder: 0
  m_LocalEulerAnglesHint: {x: 0, y: 0, z: 0}
--- !u!4 &4245205387213394
Transform:
  m_ObjectHideFlags: 1
  m_PrefabParentObject: {fileID: 0}
  m_PrefabInternal: {fileID: 100100000}
  m_GameObject: {fileID: 1110010705134804}
  m_LocalRotation: {x: 0.000000021855694, y: -1.1102232e-16, z: 1.1102232e-16, w: 1}
  m_LocalPosition: {x: -0, y: 0, z: 0}
  m_LocalScale: {x: 1, y: 1, z: 1}
  m_Children:
  - {fileID: 4197344709918350}
  m_Father: {fileID: 4019277327452756}
  m_RootOrder: 0
  m_LocalEulerAnglesHint: {x: 0, y: 0, z: 0}
--- !u!4 &4250242786234340
Transform:
  m_ObjectHideFlags: 1
  m_PrefabParentObject: {fileID: 0}
  m_PrefabInternal: {fileID: 100100000}
  m_GameObject: {fileID: 1864116942772722}
  m_LocalRotation: {x: 0.00000090152037, y: 1.7763568e-15, z: -1.3171686e-12, w: 1}
  m_LocalPosition: {x: -2.2168931e-13, y: 0.2526566, z: -0.00000004768264}
  m_LocalScale: {x: 1, y: 0.99999994, z: 0.99999994}
  m_Children:
  - {fileID: 4077151143462942}
  m_Father: {fileID: 4943493644888130}
  m_RootOrder: 0
  m_LocalEulerAnglesHint: {x: 0, y: 0, z: 0}
--- !u!4 &4257212094232836
Transform:
  m_ObjectHideFlags: 1
  m_PrefabParentObject: {fileID: 0}
  m_PrefabInternal: {fileID: 100100000}
  m_GameObject: {fileID: 1801579197884776}
  m_LocalRotation: {x: 0.07223104, y: -0.032825436, z: 0.024301624, w: 0.99655133}
  m_LocalPosition: {x: -0.007794067, y: 0.115161814, z: -0.018389493}
  m_LocalScale: {x: 0.99999917, y: 1.0000005, z: 0.99999994}
  m_Children:
  - {fileID: 4863561802518434}
  m_Father: {fileID: 4216157089481264}
  m_RootOrder: 3
  m_LocalEulerAnglesHint: {x: 0, y: 0, z: 0}
--- !u!4 &4279739796702078
Transform:
  m_ObjectHideFlags: 1
  m_PrefabParentObject: {fileID: 0}
  m_PrefabInternal: {fileID: 100100000}
  m_GameObject: {fileID: 1928161531644002}
  m_LocalRotation: {x: 0, y: -0, z: -0, w: 1}
  m_LocalPosition: {x: -0, y: 0.0148092285, z: 0}
  m_LocalScale: {x: 1, y: 1, z: 1}
  m_Children: []
  m_Father: {fileID: 4353173374521890}
  m_RootOrder: 0
  m_LocalEulerAnglesHint: {x: 0, y: 0, z: 0}
--- !u!4 &4293646865468802
Transform:
  m_ObjectHideFlags: 1
  m_PrefabParentObject: {fileID: 0}
  m_PrefabInternal: {fileID: 100100000}
  m_GameObject: {fileID: 1770405590735036}
  m_LocalRotation: {x: -0.000000045279656, y: -0.00000008939226, z: 0.0000016929391,
    w: 1}
  m_LocalPosition: {x: -0.00000013292184, y: 0.024810331, z: -0.000000010828952}
  m_LocalScale: {x: 1, y: 1, z: 1}
  m_Children:
  - {fileID: 4198775918174758}
  m_Father: {fileID: 4899659405142326}
  m_RootOrder: 0
  m_LocalEulerAnglesHint: {x: 0, y: 0, z: 0}
--- !u!4 &4294736962295356
Transform:
  m_ObjectHideFlags: 1
  m_PrefabParentObject: {fileID: 0}
  m_PrefabInternal: {fileID: 100100000}
  m_GameObject: {fileID: 1140408115518356}
  m_LocalRotation: {x: 0.0000007264316, y: -0.0000006891787, z: 0.00000041723254,
    w: 1}
  m_LocalPosition: {x: -0.000000011920927, y: 0.029420702, z: -0.000000016689299}
  m_LocalScale: {x: 0.99999994, y: 0.9999999, z: 1.0000001}
  m_Children:
  - {fileID: 4902805951508122}
  m_Father: {fileID: 4408231413782354}
  m_RootOrder: 0
  m_LocalEulerAnglesHint: {x: 0, y: 0, z: 0}
--- !u!4 &4304119040316512
Transform:
  m_ObjectHideFlags: 1
  m_PrefabParentObject: {fileID: 0}
  m_PrefabInternal: {fileID: 100100000}
  m_GameObject: {fileID: 1707419291249080}
  m_LocalRotation: {x: -0.00000086799264, y: 0.00000031711537, z: 0.0000012712554,
    w: 1}
  m_LocalPosition: {x: -0.000000045299526, y: 0.03244996, z: -0.00000009775161}
  m_LocalScale: {x: 0.99999994, y: 1.0000001, z: 0.99999994}
  m_Children:
  - {fileID: 4975140667216960}
  m_Father: {fileID: 4047005259197344}
  m_RootOrder: 0
  m_LocalEulerAnglesHint: {x: 0, y: 0, z: 0}
--- !u!4 &4307462524843544
Transform:
  m_ObjectHideFlags: 1
  m_PrefabParentObject: {fileID: 0}
  m_PrefabInternal: {fileID: 100100000}
  m_GameObject: {fileID: 1749948368990332}
  m_LocalRotation: {x: 0.0000026401271, y: -0.00049776846, z: 0.0000069312814, w: 0.9999999}
  m_LocalPosition: {x: 0.00000012274616, y: 0.035936777, z: 0.000000003064051}
  m_LocalScale: {x: 1.0000002, y: 0.99999976, z: 1.0000001}
  m_Children:
  - {fileID: 4344611803677678}
  m_Father: {fileID: 4739899776362268}
  m_RootOrder: 0
  m_LocalEulerAnglesHint: {x: 0, y: 0, z: 0}
--- !u!4 &4332288321442802
Transform:
  m_ObjectHideFlags: 1
  m_PrefabParentObject: {fileID: 0}
  m_PrefabInternal: {fileID: 100100000}
  m_GameObject: {fileID: 1401180847206292}
  m_LocalRotation: {x: -0.00000030361235, y: 0.0000030372496, z: -0.000024413112,
    w: 1}
  m_LocalPosition: {x: 3.712102e-11, y: 0.09874025, z: -0.000000005913829}
  m_LocalScale: {x: 1, y: 1, z: 0.99999994}
  m_Children:
  - {fileID: 4439427522120272}
  m_Father: {fileID: 4197344709918350}
  m_RootOrder: 2
  m_LocalEulerAnglesHint: {x: 0, y: 0, z: 0}
--- !u!4 &4344611803677678
Transform:
  m_ObjectHideFlags: 1
  m_PrefabParentObject: {fileID: 0}
  m_PrefabInternal: {fileID: 100100000}
  m_GameObject: {fileID: 1291040444186906}
  m_LocalRotation: {x: 0.000018412, y: 0.002940018, z: -0.0000058634846, w: 0.9999957}
  m_LocalPosition: {x: -0.000000029351792, y: 0.03536091, z: -0.0000000026437916}
  m_LocalScale: {x: 1.0000001, y: 0.9999996, z: 0.99999946}
  m_Children:
  - {fileID: 4128518726287604}
  m_Father: {fileID: 4307462524843544}
  m_RootOrder: 0
  m_LocalEulerAnglesHint: {x: 0, y: 0, z: 0}
--- !u!4 &4353173374521890
Transform:
  m_ObjectHideFlags: 1
  m_PrefabParentObject: {fileID: 0}
  m_PrefabInternal: {fileID: 100100000}
  m_GameObject: {fileID: 1570178450066078}
  m_LocalRotation: {x: -0.00000027167576, y: 0.00000004470013, z: -0.0000015721992,
    w: 1}
  m_LocalPosition: {x: -0.00000007981368, y: 0.028853767, z: -0.0000000020352307}
  m_LocalScale: {x: 1.0000001, y: 0.9999999, z: 1.0000001}
  m_Children:
  - {fileID: 4279739796702078}
  m_Father: {fileID: 4893130243655656}
  m_RootOrder: 0
  m_LocalEulerAnglesHint: {x: 0, y: 0, z: 0}
--- !u!4 &4360618742485248
Transform:
  m_ObjectHideFlags: 1
  m_PrefabParentObject: {fileID: 0}
  m_PrefabInternal: {fileID: 100100000}
  m_GameObject: {fileID: 1337997301295040}
  m_LocalRotation: {x: 0.0000040265445, y: 0.0024876627, z: -0.000035968, w: 0.9999969}
  m_LocalPosition: {x: -0.000000031501983, y: 0.035557043, z: 0.00000002095883}
  m_LocalScale: {x: 1.0000004, y: 1.0000001, z: 1.0000004}
  m_Children:
  - {fileID: 4893130243655656}
  m_Father: {fileID: 4661457238496376}
  m_RootOrder: 0
  m_LocalEulerAnglesHint: {x: 0, y: 0, z: 0}
--- !u!4 &4365876900283418
Transform:
  m_ObjectHideFlags: 1
  m_PrefabParentObject: {fileID: 0}
  m_PrefabInternal: {fileID: 100100000}
  m_GameObject: {fileID: 1558169279397478}
  m_LocalRotation: {x: 0.0000031954894, y: -0.04270424, z: -0.0000016536745, w: 0.99908775}
  m_LocalPosition: {x: 0.00000006914138, y: 0.037806645, z: 0.000000048279755}
  m_LocalScale: {x: 1.0000006, y: 0.99999994, z: 1.0000001}
  m_Children:
  - {fileID: 4047005259197344}
  m_Father: {fileID: 4142958442580414}
  m_RootOrder: 0
  m_LocalEulerAnglesHint: {x: 0, y: 0, z: 0}
--- !u!4 &4365921271463068
Transform:
  m_ObjectHideFlags: 1
  m_PrefabParentObject: {fileID: 0}
  m_PrefabInternal: {fileID: 100100000}
  m_GameObject: {fileID: 1524024177593950}
  m_LocalRotation: {x: 0.0738111, y: -0.105799876, z: 0.018987074, w: 0.99146247}
  m_LocalPosition: {x: 0.00094114384, y: 0.101957284, z: -0.048403982}
  m_LocalScale: {x: 1.0000001, y: 1.0000008, z: 1.0000007}
  m_Children:
  - {fileID: 4197937332221324}
  m_Father: {fileID: 4216157089481264}
  m_RootOrder: 2
  m_LocalEulerAnglesHint: {x: 0, y: 0, z: 0}
--- !u!4 &4393748203504562
Transform:
  m_ObjectHideFlags: 1
  m_PrefabParentObject: {fileID: 0}
  m_PrefabInternal: {fileID: 100100000}
  m_GameObject: {fileID: 1492886918475280}
  m_LocalRotation: {x: 0.22934498, y: -0.03454888, z: 0.97269785, w: -0.008136784}
  m_LocalPosition: {x: -0.078465745, y: -0.0528628, z: -0.02406423}
  m_LocalScale: {x: 1.0000055, y: 1.0000005, z: 1.0000144}
  m_Children:
  - {fileID: 4751873365619910}
  m_Father: {fileID: 4197344709918350}
  m_RootOrder: 0
  m_LocalEulerAnglesHint: {x: 0, y: 0, z: 0}
--- !u!4 &4393824267939530
Transform:
  m_ObjectHideFlags: 1
  m_PrefabParentObject: {fileID: 0}
  m_PrefabInternal: {fileID: 100100000}
  m_GameObject: {fileID: 1721958870348424}
  m_LocalRotation: {x: -0.38310692, y: 0.5823791, z: 0.18014245, w: 0.69398296}
  m_LocalPosition: {x: 0.0000000011920928, y: 0.38006222, z: -0.000000010132789}
  m_LocalScale: {x: 1.0000005, y: 1.0000001, z: 1.0000002}
  m_Children:
  - {fileID: 4064852390900632}
  m_Father: {fileID: 4751873365619910}
  m_RootOrder: 0
  m_LocalEulerAnglesHint: {x: 0, y: 0, z: 0}
--- !u!4 &4406560425371262
Transform:
  m_ObjectHideFlags: 1
  m_PrefabParentObject: {fileID: 0}
  m_PrefabInternal: {fileID: 100100000}
  m_GameObject: {fileID: 1891362839174948}
  m_LocalRotation: {x: 0.0017819415, y: 0.0011317215, z: -0.16394274, w: 0.98646766}
  m_LocalPosition: {x: 0.00000012761912, y: 0.16263051, z: 0.0000000011920928}
  m_LocalScale: {x: 1.0000007, y: 1.0000001, z: 1.0000002}
  m_Children:
  - {fileID: 4829055704708924}
  m_Father: {fileID: 4631869639563748}
  m_RootOrder: 0
  m_LocalEulerAnglesHint: {x: 0, y: 0, z: 0}
--- !u!4 &4408231413782354
Transform:
  m_ObjectHideFlags: 1
  m_PrefabParentObject: {fileID: 0}
  m_PrefabInternal: {fileID: 100100000}
  m_GameObject: {fileID: 1151765366695506}
  m_LocalRotation: {x: 0.00000064556644, y: 0.121937096, z: -0.000013616504, w: 0.99253786}
  m_LocalPosition: {x: 0.000000008344649, y: 0.03660317, z: -0.000000050067896}
  m_LocalScale: {x: 0.9999995, y: 0.9999994, z: 1.0000006}
  m_Children:
  - {fileID: 4294736962295356}
  m_Father: {fileID: 4738075255015684}
  m_RootOrder: 0
  m_LocalEulerAnglesHint: {x: 0, y: 0, z: 0}
--- !u!4 &4439427522120272
Transform:
  m_ObjectHideFlags: 1
  m_PrefabParentObject: {fileID: 0}
  m_PrefabInternal: {fileID: 100100000}
  m_GameObject: {fileID: 1981292556521154}
  m_LocalRotation: {x: -0.00000015459956, y: 2.0413227e-11, z: -4.94331e-10, w: 1}
  m_LocalPosition: {x: -5.4541256e-13, y: 0.115196794, z: 0.00000000149068}
  m_LocalScale: {x: 1, y: 0.9999999, z: 0.99999994}
  m_Children:
  - {fileID: 4941049596353068}
  m_Father: {fileID: 4332288321442802}
  m_RootOrder: 0
  m_LocalEulerAnglesHint: {x: 0, y: 0, z: 0}
--- !u!4 &4443446840410796
Transform:
  m_ObjectHideFlags: 1
  m_PrefabParentObject: {fileID: 0}
  m_PrefabInternal: {fileID: 100100000}
  m_GameObject: {fileID: 1375114449373930}
  m_LocalRotation: {x: 0.0000000301864, y: 1.153827e-12, z: 0.00000006917685, w: 1}
  m_LocalPosition: {x: -0.000000055890407, y: 0.014809177, z: -0.000000015547265}
  m_LocalScale: {x: 1, y: 1, z: 1}
  m_Children:
  - {fileID: 4977149769534346}
  m_Father: {fileID: 4993943915865780}
  m_RootOrder: 0
  m_LocalEulerAnglesHint: {x: 0, y: 0, z: 0}
--- !u!4 &4454145182315564
Transform:
  m_ObjectHideFlags: 1
  m_PrefabParentObject: {fileID: 0}
  m_PrefabInternal: {fileID: 100100000}
  m_GameObject: {fileID: 1805911209843988}
  m_LocalRotation: {x: 0.0000026884604, y: 0.00015180124, z: -0.000011571583, w: 1}
  m_LocalPosition: {x: -0.000000026875638, y: 0.033765785, z: -2.6775521e-11}
  m_LocalScale: {x: 0.9999992, y: 0.99999934, z: 0.9999999}
  m_Children:
  - {fileID: 4469117364361030}
  m_Father: {fileID: 4871834507887662}
  m_RootOrder: 0
  m_LocalEulerAnglesHint: {x: 0, y: 0, z: 0}
--- !u!4 &4469117364361030
Transform:
  m_ObjectHideFlags: 1
  m_PrefabParentObject: {fileID: 0}
  m_PrefabInternal: {fileID: 100100000}
  m_GameObject: {fileID: 1339753024952770}
  m_LocalRotation: {x: -0.0000000018868187, y: 0.000000017228228, z: 0.0000017041004,
    w: 1}
  m_LocalPosition: {x: 0.000000102357866, y: 0.029494029, z: -5.7756544e-10}
  m_LocalScale: {x: 1, y: 1, z: 1}
  m_Children:
  - {fileID: 4036953645964718}
  m_Father: {fileID: 4454145182315564}
  m_RootOrder: 0
  m_LocalEulerAnglesHint: {x: 0, y: 0, z: 0}
--- !u!4 &4475470882518506
Transform:
  m_ObjectHideFlags: 1
  m_PrefabParentObject: {fileID: 0}
  m_PrefabInternal: {fileID: 100100000}
  m_GameObject: {fileID: 1243708575525914}
  m_LocalRotation: {x: -0.0000071073123, y: 0.0027248072, z: -0.0000084321455, w: 0.9999963}
  m_LocalPosition: {x: -0.000000052708778, y: 0.022182161, z: 0.000000009635695}
  m_LocalScale: {x: 0.9999997, y: 1.0000004, z: 0.99999976}
  m_Children:
  - {fileID: 4573014235044816}
  m_Father: {fileID: 4649215859090910}
  m_RootOrder: 0
  m_LocalEulerAnglesHint: {x: 0, y: 0, z: 0}
--- !u!4 &4479049498574234
Transform:
  m_ObjectHideFlags: 1
  m_PrefabParentObject: {fileID: 0}
  m_PrefabInternal: {fileID: 100100000}
  m_GameObject: {fileID: 1986712981341088}
  m_LocalRotation: {x: -0.0000021755836, y: 0.012295682, z: 0.0000016604997, w: 0.9999244}
  m_LocalPosition: {x: -0.00000007880342, y: 0.23395066, z: -1.440577e-10}
  m_LocalScale: {x: 0.99999994, y: 0.99999994, z: 1}
  m_Children:
  - {fileID: 4216157089481264}
  m_Father: {fileID: 4163842682998458}
  m_RootOrder: 0
  m_LocalEulerAnglesHint: {x: 0, y: 0, z: 0}
--- !u!4 &4497911358804960
Transform:
  m_ObjectHideFlags: 1
  m_PrefabParentObject: {fileID: 0}
  m_PrefabInternal: {fileID: 100100000}
  m_GameObject: {fileID: 1509967537132780}
  m_LocalRotation: {x: -0.00001778435, y: -0.00041766829, z: -0.000002900697, w: 0.99999994}
  m_LocalPosition: {x: 0.0000000819785, y: 0.029571544, z: -0.000000007270136}
  m_LocalScale: {x: 1, y: 1, z: 1.0000004}
  m_Children:
  - {fileID: 4101359151083442}
  m_Father: {fileID: 4863561802518434}
  m_RootOrder: 0
  m_LocalEulerAnglesHint: {x: 0, y: 0, z: 0}
--- !u!4 &4517584698790666
Transform:
  m_ObjectHideFlags: 1
  m_PrefabParentObject: {fileID: 0}
  m_PrefabInternal: {fileID: 100100000}
  m_GameObject: {fileID: 1984778139917402}
  m_LocalRotation: {x: 0.06939646, y: 0.06833754, z: 0.031505022, w: 0.994747}
  m_LocalPosition: {x: 0.0002156906, y: 0.123301, z: 0.045420002}
  m_LocalScale: {x: 1, y: 0.99999934, z: 0.9999993}
  m_Children:
  - {fileID: 4721581199599512}
  m_Father: {fileID: 4216157089481264}
  m_RootOrder: 0
  m_LocalEulerAnglesHint: {x: 0, y: 0, z: 0}
--- !u!4 &4519699712174006
Transform:
  m_ObjectHideFlags: 1
  m_PrefabParentObject: {fileID: 0}
  m_PrefabInternal: {fileID: 100100000}
  m_GameObject: {fileID: 1115554928230350}
  m_LocalRotation: {x: 0.000000021855694, y: -1.1102232e-16, z: 1.1102232e-16, w: 1}
  m_LocalPosition: {x: -0, y: 0, z: 0}
  m_LocalScale: {x: 1, y: 1, z: 1}
  m_Children: []
  m_Father: {fileID: 4019277327452756}
  m_RootOrder: 2
  m_LocalEulerAnglesHint: {x: 0, y: 0, z: 0}
--- !u!4 &4524621475018264
Transform:
  m_ObjectHideFlags: 1
  m_PrefabParentObject: {fileID: 0}
  m_PrefabInternal: {fileID: 100100000}
  m_GameObject: {fileID: 1645071640813158}
  m_LocalRotation: {x: 0.0000239816, y: -0.0016685494, z: 0.00000065747855, w: 0.9999986}
  m_LocalPosition: {x: -3.7311107e-10, y: 0.031438086, z: -0.0000000048940993}
  m_LocalScale: {x: 0.9999998, y: 0.99999946, z: 0.9999995}
  m_Children:
  - {fileID: 4625168442921126}
  m_Father: {fileID: 4721581199599512}
  m_RootOrder: 0
  m_LocalEulerAnglesHint: {x: 0, y: 0, z: 0}
--- !u!4 &4524791668112232
Transform:
  m_ObjectHideFlags: 1
  m_PrefabParentObject: {fileID: 0}
  m_PrefabInternal: {fileID: 100100000}
  m_GameObject: {fileID: 1239095515316808}
  m_LocalRotation: {x: -0.000000010061558, y: -0.00000018626999, z: 0.0000010238136,
    w: 1}
  m_LocalPosition: {x: 0.000000057466305, y: 0.015085347, z: 0.000000014511168}
  m_LocalScale: {x: 0.99999994, y: 0.99999994, z: 0.99999994}
  m_Children:
  - {fileID: 4746613788529404}
  m_Father: {fileID: 4573014235044816}
  m_RootOrder: 0
  m_LocalEulerAnglesHint: {x: 0, y: 0, z: 0}
--- !u!4 &4547002682858346
Transform:
  m_ObjectHideFlags: 1
  m_PrefabParentObject: {fileID: 0}
  m_PrefabInternal: {fileID: 100100000}
  m_GameObject: {fileID: 1477134724244610}
  m_LocalRotation: {x: 0.000000021855694, y: -1.1102232e-16, z: 1.1102232e-16, w: 1}
  m_LocalPosition: {x: -0, y: 0, z: 0}
  m_LocalScale: {x: 1, y: 1, z: 1}
  m_Children: []
  m_Father: {fileID: 4019277327452756}
  m_RootOrder: 1
  m_LocalEulerAnglesHint: {x: 0, y: 0, z: 0}
--- !u!4 &4573014235044816
Transform:
  m_ObjectHideFlags: 1
  m_PrefabParentObject: {fileID: 0}
  m_PrefabInternal: {fileID: 100100000}
  m_GameObject: {fileID: 1244848451373632}
  m_LocalRotation: {x: -0.0000064119417, y: 0.0048504947, z: 0.0000041446206, w: 0.99998826}
  m_LocalPosition: {x: 0.000000015951807, y: 0.018700086, z: 0.000000028978244}
  m_LocalScale: {x: 0.9999992, y: 0.99999964, z: 1.0000002}
  m_Children:
  - {fileID: 4524791668112232}
  m_Father: {fileID: 4475470882518506}
  m_RootOrder: 0
  m_LocalEulerAnglesHint: {x: 0, y: 0, z: 0}
--- !u!4 &4625168442921126
Transform:
  m_ObjectHideFlags: 1
  m_PrefabParentObject: {fileID: 0}
  m_PrefabInternal: {fileID: 100100000}
  m_GameObject: {fileID: 1846302695166898}
  m_LocalRotation: {x: -0.00000016602466, y: 0.000000115504484, z: 0.0000016250272,
    w: 1}
  m_LocalPosition: {x: 0.00000012758827, y: 0.026901247, z: 0.000000002640299}
  m_LocalScale: {x: 1.0000001, y: 1, z: 1.0000001}
  m_Children:
  - {fileID: 4864214765103526}
  m_Father: {fileID: 4524621475018264}
  m_RootOrder: 0
  m_LocalEulerAnglesHint: {x: 0, y: 0, z: 0}
--- !u!4 &4631869639563748
Transform:
  m_ObjectHideFlags: 1
  m_PrefabParentObject: {fileID: 0}
  m_PrefabInternal: {fileID: 100100000}
  m_GameObject: {fileID: 1511398164407608}
  m_LocalRotation: {x: 0.022761036, y: -0.034532245, z: 0.81273156, w: 0.58116853}
  m_LocalPosition: {x: -0.0774066, y: 0.12237541, z: -0.0023741017}
  m_LocalScale: {x: 0.9999995, y: 1.0000006, z: 1.0000001}
  m_Children:
  - {fileID: 4406560425371262}
  m_Father: {fileID: 4941049596353068}
  m_RootOrder: 0
  m_LocalEulerAnglesHint: {x: 0, y: 0, z: 0}
--- !u!4 &4649215859090910
Transform:
  m_ObjectHideFlags: 1
  m_PrefabParentObject: {fileID: 0}
  m_PrefabInternal: {fileID: 100100000}
  m_GameObject: {fileID: 1966074661253772}
  m_LocalRotation: {x: 0.06604029, y: 0.07851721, z: -0.020476745, w: 0.9945122}
  m_LocalPosition: {x: -0.0021949278, y: 0.099671274, z: -0.049975924}
  m_LocalScale: {x: 1.0000012, y: 0.99999994, z: 0.999999}
  m_Children:
  - {fileID: 4475470882518506}
  m_Father: {fileID: 4092960691350414}
  m_RootOrder: 2
  m_LocalEulerAnglesHint: {x: 0, y: 0, z: 0}
--- !u!4 &4661457238496376
Transform:
  m_ObjectHideFlags: 1
  m_PrefabParentObject: {fileID: 0}
  m_PrefabInternal: {fileID: 100100000}
  m_GameObject: {fileID: 1560967771911824}
  m_LocalRotation: {x: 0.06238402, y: -0.06579242, z: -0.029771518, w: 0.99543625}
  m_LocalPosition: {x: -0.0012221105, y: 0.119172886, z: 0.0438884}
  m_LocalScale: {x: 0.9999999, y: 0.9999997, z: 1.000001}
  m_Children:
  - {fileID: 4360618742485248}
  m_Father: {fileID: 4092960691350414}
  m_RootOrder: 0
  m_LocalEulerAnglesHint: {x: 0, y: 0, z: 0}
--- !u!4 &4674154452978068
Transform:
  m_ObjectHideFlags: 1
  m_PrefabParentObject: {fileID: 0}
  m_PrefabInternal: {fileID: 100100000}
  m_GameObject: {fileID: 1854418599633860}
  m_LocalRotation: {x: 0.000000021855698, y: -2.2204463e-16, z: 2.2204466e-16, w: 1}
  m_LocalPosition: {x: -4.57154e-19, y: 5.808598e-10, z: 0.0020588376}
  m_LocalScale: {x: 1, y: 1, z: 1}
  m_Children: []
  m_Father: {fileID: 4019277327452756}
  m_RootOrder: 3
  m_LocalEulerAnglesHint: {x: 0, y: 0, z: 0}
--- !u!4 &4694954822348790
Transform:
  m_ObjectHideFlags: 1
  m_PrefabParentObject: {fileID: 0}
  m_PrefabInternal: {fileID: 100100000}
  m_GameObject: {fileID: 1551238298631370}
  m_LocalRotation: {x: 0.000009447735, y: 0.00061838556, z: -0.000004729707, w: 0.9999998}
  m_LocalPosition: {x: -0.00000017188255, y: 0.03106465, z: -0.0000000065821215}
  m_LocalScale: {x: 1, y: 0.99999917, z: 0.9999994}
  m_Children:
  - {fileID: 4899659405142326}
  m_Father: {fileID: 4182294907251154}
  m_RootOrder: 0
  m_LocalEulerAnglesHint: {x: 0, y: 0, z: 0}
--- !u!4 &4717751848643830
Transform:
  m_ObjectHideFlags: 1
  m_PrefabParentObject: {fileID: 0}
  m_PrefabInternal: {fileID: 100100000}
  m_GameObject: {fileID: 1646734452427532}
  m_LocalRotation: {x: 0, y: -0, z: -0, w: 1}
  m_LocalPosition: {x: -0, y: 0.014809241, z: 0}
  m_LocalScale: {x: 1, y: 1, z: 1}
  m_Children: []
  m_Father: {fileID: 4101359151083442}
  m_RootOrder: 0
  m_LocalEulerAnglesHint: {x: 0, y: 0, z: 0}
--- !u!4 &4721581199599512
Transform:
  m_ObjectHideFlags: 1
  m_PrefabParentObject: {fileID: 0}
  m_PrefabInternal: {fileID: 100100000}
  m_GameObject: {fileID: 1392633194089164}
  m_LocalRotation: {x: -0.000006992981, y: -0.0011391124, z: 0.0000077414325, w: 0.99999934}
  m_LocalPosition: {x: -0.000000013560055, y: 0.033758044, z: -0.000000011149094}
  m_LocalScale: {x: 1.0000006, y: 1.0000006, z: 1}
  m_Children:
  - {fileID: 4524621475018264}
  m_Father: {fileID: 4517584698790666}
  m_RootOrder: 0
  m_LocalEulerAnglesHint: {x: 0, y: 0, z: 0}
--- !u!4 &4738075255015684
Transform:
  m_ObjectHideFlags: 1
  m_PrefabParentObject: {fileID: 0}
  m_PrefabInternal: {fileID: 100100000}
  m_GameObject: {fileID: 1874164390201174}
  m_LocalRotation: {x: -0.0000009767429, y: 0.038301025, z: 0.00001990347, w: 0.99926627}
  m_LocalPosition: {x: -0.000000066757195, y: 0.037769176, z: -0.000000058412546}
  m_LocalScale: {x: 1, y: 0.9999997, z: 1.0000001}
  m_Children:
  - {fileID: 4408231413782354}
  m_Father: {fileID: 4986328270850916}
  m_RootOrder: 0
  m_LocalEulerAnglesHint: {x: 0, y: 0, z: 0}
--- !u!4 &4739899776362268
Transform:
  m_ObjectHideFlags: 1
  m_PrefabParentObject: {fileID: 0}
  m_PrefabInternal: {fileID: 100100000}
  m_GameObject: {fileID: 1793541956013710}
  m_LocalRotation: {x: 0.06435179, y: 0.005563609, z: -0.025254847, w: 0.99759215}
  m_LocalPosition: {x: 0.006138088, y: 0.11896234, z: 0.0153901735}
  m_LocalScale: {x: 0.99999964, y: 1.0000002, z: 1.0000001}
  m_Children:
  - {fileID: 4307462524843544}
  m_Father: {fileID: 4092960691350414}
  m_RootOrder: 1
  m_LocalEulerAnglesHint: {x: 0, y: 0, z: 0}
--- !u!4 &4744593480705662
Transform:
  m_ObjectHideFlags: 1
  m_PrefabParentObject: {fileID: 0}
  m_PrefabInternal: {fileID: 100100000}
  m_GameObject: {fileID: 1750783762269566}
  m_LocalRotation: {x: 0.071499676, y: -0.0037914577, z: 0.026407743, w: 0.9970838}
  m_LocalPosition: {x: -0.0064327475, y: 0.11948529, z: 0.01721233}
  m_LocalScale: {x: 1.0000011, y: 1, z: 1.0000002}
  m_Children:
  - {fileID: 4871834507887662}
  m_Father: {fileID: 4216157089481264}
  m_RootOrder: 1
  m_LocalEulerAnglesHint: {x: 0, y: 0, z: 0}
--- !u!4 &4746613788529404
Transform:
  m_ObjectHideFlags: 1
  m_PrefabParentObject: {fileID: 0}
  m_PrefabInternal: {fileID: 100100000}
  m_GameObject: {fileID: 1535189284271666}
  m_LocalRotation: {x: 0, y: -0, z: -0, w: 1}
  m_LocalPosition: {x: -0, y: 0.014809267, z: 0}
  m_LocalScale: {x: 1, y: 1, z: 1}
  m_Children: []
  m_Father: {fileID: 4524791668112232}
  m_RootOrder: 0
  m_LocalEulerAnglesHint: {x: 0, y: 0, z: 0}
--- !u!4 &4751873365619910
Transform:
  m_ObjectHideFlags: 1
  m_PrefabParentObject: {fileID: 0}
  m_PrefabInternal: {fileID: 100100000}
  m_GameObject: {fileID: 1565264603113212}
  m_LocalRotation: {x: -0.032338545, y: 0.9724184, z: -0.039002653, w: 0.22767413}
  m_LocalPosition: {x: 8.940696e-10, y: 0.43132097, z: -0.0000000029802318}
  m_LocalScale: {x: 0.9999997, y: 0.9999997, z: 1.0000008}
  m_Children:
  - {fileID: 4393824267939530}
  m_Father: {fileID: 4393748203504562}
  m_RootOrder: 0
  m_LocalEulerAnglesHint: {x: 0, y: 0, z: 0}
--- !u!4 &4774101899193534
Transform:
  m_ObjectHideFlags: 1
  m_PrefabParentObject: {fileID: 0}
  m_PrefabInternal: {fileID: 100100000}
  m_GameObject: {fileID: 1475888360320940}
  m_LocalRotation: {x: 0.025223475, y: 0.9195854, z: -0.0372202, w: -0.39030907}
  m_LocalPosition: {x: -0.0000000037252899, y: 0.4313017, z: 2.980232e-10}
  m_LocalScale: {x: 0.99999964, y: 1.000001, z: 1.0000001}
  m_Children:
  - {fileID: 4984723626352092}
  m_Father: {fileID: 4838166184543674}
  m_RootOrder: 0
  m_LocalEulerAnglesHint: {x: 0, y: 0, z: 0}
--- !u!4 &4829055704708924
Transform:
  m_ObjectHideFlags: 1
  m_PrefabParentObject: {fileID: 0}
  m_PrefabInternal: {fileID: 100100000}
  m_GameObject: {fileID: 1056844727248540}
  m_LocalRotation: {x: -0.0000014256067, y: -0.015925918, z: 0.0000019192707, w: 0.9998732}
  m_LocalPosition: {x: -0.00000016734562, y: 0.23395173, z: -9.952054e-10}
  m_LocalScale: {x: 0.9999992, y: 1, z: 0.99999964}
  m_Children:
  - {fileID: 4092960691350414}
  m_Father: {fileID: 4406560425371262}
  m_RootOrder: 0
  m_LocalEulerAnglesHint: {x: 0, y: 0, z: 0}
--- !u!4 &4838166184543674
Transform:
  m_ObjectHideFlags: 1
  m_PrefabParentObject: {fileID: 0}
  m_PrefabInternal: {fileID: 100100000}
  m_GameObject: {fileID: 1763775553976422}
  m_LocalRotation: {x: -0.09733743, y: -0.03666315, z: 0.9945693, w: 0.0036278793}
  m_LocalPosition: {x: 0.07846572, y: -0.05267931, z: -0.026218256}
  m_LocalScale: {x: 0.9999908, y: 0.99999905, z: 0.99997014}
  m_Children:
  - {fileID: 4774101899193534}
  m_Father: {fileID: 4197344709918350}
  m_RootOrder: 1
  m_LocalEulerAnglesHint: {x: 0, y: 0, z: 0}
--- !u!4 &4844129560214712
Transform:
  m_ObjectHideFlags: 1
  m_PrefabParentObject: {fileID: 0}
  m_PrefabInternal: {fileID: 100100000}
  m_GameObject: {fileID: 1815417550319320}
  m_LocalRotation: {x: 0, y: -0, z: -0, w: 1}
  m_LocalPosition: {x: -0, y: 0.014809224, z: 0}
  m_LocalScale: {x: 1, y: 1, z: 1}
  m_Children: []
  m_Father: {fileID: 4952570844509472}
  m_RootOrder: 0
  m_LocalEulerAnglesHint: {x: 0, y: 0, z: 0}
--- !u!4 &4863561802518434
Transform:
  m_ObjectHideFlags: 1
  m_PrefabParentObject: {fileID: 0}
  m_PrefabInternal: {fileID: 100100000}
  m_GameObject: {fileID: 1058853442060872}
  m_LocalRotation: {x: 0.000015593489, y: 0.00015581226, z: 0.000017879685, w: 1}
  m_LocalPosition: {x: -0.000000017373821, y: 0.03165378, z: 0.000000010671209}
  m_LocalScale: {x: 1, y: 1.0000007, z: 0.99999994}
  m_Children:
  - {fileID: 4497911358804960}
  m_Father: {fileID: 4257212094232836}
  m_RootOrder: 0
  m_LocalEulerAnglesHint: {x: 0, y: 0, z: 0}
--- !u!4 &4864214765103526
Transform:
  m_ObjectHideFlags: 1
  m_PrefabParentObject: {fileID: 0}
  m_PrefabInternal: {fileID: 100100000}
  m_GameObject: {fileID: 1055557761338436}
  m_LocalRotation: {x: 0, y: -0, z: -0, w: 1}
  m_LocalPosition: {x: -0, y: 0.014809209, z: 0}
  m_LocalScale: {x: 1, y: 1, z: 1}
  m_Children: []
  m_Father: {fileID: 4625168442921126}
  m_RootOrder: 0
  m_LocalEulerAnglesHint: {x: 0, y: 0, z: 0}
--- !u!4 &4866753978768010
Transform:
  m_ObjectHideFlags: 1
  m_PrefabParentObject: {fileID: 0}
  m_PrefabInternal: {fileID: 100100000}
  m_GameObject: {fileID: 1159842561440736}
  m_LocalRotation: {x: 0.22545518, y: 1.8191526e-11, z: -1.9791674e-10, w: 0.9742536}
  m_LocalPosition: {x: -2.2701838e-12, y: 0.1481099, z: -0.00000007390919}
  m_LocalScale: {x: 1, y: 1.0000001, z: 1}
  m_Children:
  - {fileID: 4943493644888130}
  m_Father: {fileID: 4941049596353068}
  m_RootOrder: 1
  m_LocalEulerAnglesHint: {x: 0, y: 0, z: 0}
--- !u!4 &4871834507887662
Transform:
  m_ObjectHideFlags: 1
  m_PrefabParentObject: {fileID: 0}
  m_PrefabInternal: {fileID: 100100000}
  m_GameObject: {fileID: 1339420840316688}
  m_LocalRotation: {x: -0.0000064829574, y: -0.00070668914, z: 0.0000132860405, w: 0.99999976}
  m_LocalPosition: {x: -0.00000010047947, y: 0.037037324, z: 0.0000000010133953}
  m_LocalScale: {x: 0.9999997, y: 1.0000005, z: 0.9999998}
  m_Children:
  - {fileID: 4454145182315564}
  m_Father: {fileID: 4744593480705662}
  m_RootOrder: 0
  m_LocalEulerAnglesHint: {x: 0, y: 0, z: 0}
--- !u!4 &4893130243655656
Transform:
  m_ObjectHideFlags: 1
  m_PrefabParentObject: {fileID: 0}
  m_PrefabInternal: {fileID: 100100000}
  m_GameObject: {fileID: 1761153601391586}
  m_LocalRotation: {x: -0.000000011864608, y: 0.00744228, z: 0.0000137725665, w: 0.99997234}
  m_LocalPosition: {x: -0.000000018728894, y: 0.032886304, z: 0.000000016338015}
  m_LocalScale: {x: 0.9999997, y: 1.0000004, z: 1.0000001}
  m_Children:
  - {fileID: 4353173374521890}
  m_Father: {fileID: 4360618742485248}
  m_RootOrder: 0
  m_LocalEulerAnglesHint: {x: 0, y: 0, z: 0}
--- !u!4 &4895243882794030
Transform:
  m_ObjectHideFlags: 1
  m_PrefabParentObject: {fileID: 0}
  m_PrefabInternal: {fileID: 100100000}
  m_GameObject: {fileID: 1135766305268800}
  m_LocalRotation: {x: 0.000000021855694, y: -1.1102232e-16, z: 1.1102232e-16, w: 1}
  m_LocalPosition: {x: -0, y: 0, z: 0}
  m_LocalScale: {x: 1, y: 1, z: 1}
  m_Children: []
  m_Father: {fileID: 4019277327452756}
  m_RootOrder: 4
  m_LocalEulerAnglesHint: {x: 0, y: 0, z: 0}
--- !u!4 &4897691484095822
Transform:
  m_ObjectHideFlags: 1
  m_PrefabParentObject: {fileID: 0}
  m_PrefabInternal: {fileID: 100100000}
  m_GameObject: {fileID: 1645857386959494}
  m_LocalRotation: {x: 0, y: -0, z: -0, w: 1}
  m_LocalPosition: {x: -0, y: 0.01480922, z: 0}
  m_LocalScale: {x: 1, y: 1, z: 1}
  m_Children: []
  m_Father: {fileID: 4217577770838248}
  m_RootOrder: 0
  m_LocalEulerAnglesHint: {x: 0, y: 0, z: 0}
--- !u!4 &4899659405142326
Transform:
  m_ObjectHideFlags: 1
  m_PrefabParentObject: {fileID: 0}
  m_PrefabInternal: {fileID: 100100000}
  m_GameObject: {fileID: 1847470067025376}
  m_LocalRotation: {x: 0.0000099527815, y: 0.0057078986, z: 0.0000032901296, w: 0.9999837}
  m_LocalPosition: {x: -0.00000012931238, y: 0.030569138, z: 1.0841176e-10}
  m_LocalScale: {x: 0.99999976, y: 0.9999996, z: 0.99999946}
  m_Children:
  - {fileID: 4293646865468802}
  m_Father: {fileID: 4694954822348790}
  m_RootOrder: 0
  m_LocalEulerAnglesHint: {x: 0, y: 0, z: 0}
--- !u!4 &4902805951508122
Transform:
  m_ObjectHideFlags: 1
  m_PrefabParentObject: {fileID: 0}
  m_PrefabInternal: {fileID: 100100000}
  m_GameObject: {fileID: 1293728821111534}
  m_LocalRotation: {x: 0, y: -0, z: -0, w: 1}
  m_LocalPosition: {x: -0, y: 0.014809205, z: 0}
  m_LocalScale: {x: 1, y: 1, z: 1}
  m_Children: []
  m_Father: {fileID: 4294736962295356}
  m_RootOrder: 0
  m_LocalEulerAnglesHint: {x: 0, y: 0, z: 0}
--- !u!4 &4941049596353068
Transform:
  m_ObjectHideFlags: 1
  m_PrefabParentObject: {fileID: 0}
  m_PrefabInternal: {fileID: 100100000}
  m_GameObject: {fileID: 1508908519210390}
  m_LocalRotation: {x: 0.000000014901161, y: -6.4657164e-12, z: 1.125775e-10, w: 1}
  m_LocalPosition: {x: -3.049649e-13, y: 0.13165343, z: 5.6198595e-13}
  m_LocalScale: {x: 1, y: 1, z: 1.0000001}
  m_Children:
  - {fileID: 4631869639563748}
  - {fileID: 4866753978768010}
  - {fileID: 4172003167294288}
  m_Father: {fileID: 4439427522120272}
  m_RootOrder: 0
  m_LocalEulerAnglesHint: {x: 0, y: 0, z: 0}
--- !u!4 &4943493644888130
Transform:
  m_ObjectHideFlags: 1
  m_PrefabParentObject: {fileID: 0}
  m_PrefabInternal: {fileID: 100100000}
  m_GameObject: {fileID: 1287367907053628}
  m_LocalRotation: {x: 0.0000005811453, y: 3.9324988e-11, z: 2.0879477e-10, w: 1}
  m_LocalPosition: {x: -8.1744377e-13, y: 0.04630852, z: -0.00000001817834}
  m_LocalScale: {x: 1, y: 0.99999994, z: 1}
  m_Children:
  - {fileID: 4250242786234340}
  m_Father: {fileID: 4866753978768010}
  m_RootOrder: 0
  m_LocalEulerAnglesHint: {x: 0, y: 0, z: 0}
--- !u!4 &4952570844509472
Transform:
  m_ObjectHideFlags: 1
  m_PrefabParentObject: {fileID: 0}
  m_PrefabInternal: {fileID: 100100000}
  m_GameObject: {fileID: 1100166472221712}
  m_LocalRotation: {x: 0.00000004563481, y: 0.00000010919757, z: 0.00000003183959,
    w: 1}
  m_LocalPosition: {x: -0.000000004499597, y: 0.067063086, z: 2.2468155e-10}
  m_LocalScale: {x: 1, y: 0.9999999, z: 1}
  m_Children:
  - {fileID: 4844129560214712}
  m_Father: {fileID: 4031717731955612}
  m_RootOrder: 0
  m_LocalEulerAnglesHint: {x: 0, y: 0, z: 0}
--- !u!4 &4975140667216960
Transform:
  m_ObjectHideFlags: 1
  m_PrefabParentObject: {fileID: 0}
  m_PrefabInternal: {fileID: 100100000}
  m_GameObject: {fileID: 1109581293136350}
  m_LocalRotation: {x: 0, y: -0, z: -0, w: 1}
  m_LocalPosition: {x: -0, y: 0.014809188, z: 0}
  m_LocalScale: {x: 1, y: 1, z: 1}
  m_Children: []
  m_Father: {fileID: 4304119040316512}
  m_RootOrder: 0
  m_LocalEulerAnglesHint: {x: 0, y: 0, z: 0}
--- !u!4 &4977149769534346
Transform:
  m_ObjectHideFlags: 1
  m_PrefabParentObject: {fileID: 0}
  m_PrefabInternal: {fileID: 100100000}
  m_GameObject: {fileID: 1080473527385782}
  m_LocalRotation: {x: 0, y: -0, z: -0, w: 1}
  m_LocalPosition: {x: -0, y: 0.01480922, z: 0}
  m_LocalScale: {x: 1, y: 1, z: 1}
  m_Children: []
  m_Father: {fileID: 4443446840410796}
  m_RootOrder: 0
  m_LocalEulerAnglesHint: {x: 0, y: 0, z: 0}
--- !u!4 &4984723626352092
Transform:
  m_ObjectHideFlags: 1
  m_PrefabParentObject: {fileID: 0}
  m_PrefabInternal: {fileID: 100100000}
  m_GameObject: {fileID: 1093834145951158}
  m_LocalRotation: {x: -0.3722566, y: -0.6088878, z: -0.19330378, w: 0.67328626}
  m_LocalPosition: {x: 0.0000000011920928, y: 0.3798008, z: -0.0000000059604637}
  m_LocalScale: {x: 0.99999964, y: 0.9999996, z: 0.99999905}
  m_Children:
  - {fileID: 4031717731955612}
  m_Father: {fileID: 4774101899193534}
  m_RootOrder: 0
  m_LocalEulerAnglesHint: {x: 0, y: 0, z: 0}
--- !u!4 &4986328270850916
Transform:
  m_ObjectHideFlags: 1
  m_PrefabParentObject: {fileID: 0}
  m_PrefabInternal: {fileID: 100100000}
  m_GameObject: {fileID: 1950566855478618}
  m_LocalRotation: {x: 0.35760045, y: -0.39215937, z: 0.07583846, w: 0.8441454}
  m_LocalPosition: {x: -0.022347556, y: 0.03198924, z: 0.026573591}
  m_LocalScale: {x: 0.99999946, y: 1.0000002, z: 0.9999999}
  m_Children:
  - {fileID: 4738075255015684}
  m_Father: {fileID: 4092960691350414}
  m_RootOrder: 4
  m_LocalEulerAnglesHint: {x: 0, y: 0, z: 0}
--- !u!4 &4993943915865780
Transform:
  m_ObjectHideFlags: 1
  m_PrefabParentObject: {fileID: 0}
  m_PrefabInternal: {fileID: 100100000}
  m_GameObject: {fileID: 1587467467159050}
  m_LocalRotation: {x: -0.00002945155, y: 0.000346139, z: 0.00002581018, w: 0.99999994}
  m_LocalPosition: {x: -0.000000054840925, y: 0.017668238, z: 0.000000023762693}
  m_LocalScale: {x: 1.0000008, y: 1.0000008, z: 0.9999995}
  m_Children:
  - {fileID: 4443446840410796}
  m_Father: {fileID: 4197937332221324}
  m_RootOrder: 0
  m_LocalEulerAnglesHint: {x: 0, y: 0, z: 0}
--- !u!95 &95760693057808126
Animator:
  serializedVersion: 3
  m_ObjectHideFlags: 1
  m_PrefabParentObject: {fileID: 0}
  m_PrefabInternal: {fileID: 100100000}
  m_GameObject: {fileID: 1273875218432892}
  m_Enabled: 1
  m_Avatar: {fileID: 9000000, guid: 54703f7a1bdab43419cb12e2e21a1a2c, type: 3}
  m_Controller: {fileID: 9100000, guid: 3add3c09cac86cd4ba470998309f4fa2, type: 2}
  m_CullingMode: 1
  m_UpdateMode: 0
  m_ApplyRootMotion: 1
  m_LinearVelocityBlending: 0
  m_WarningMessage: 
  m_HasTransformHierarchy: 1
  m_AllowConstantClipSamplingOptimization: 1
--- !u!137 &137335775674105306
SkinnedMeshRenderer:
  m_ObjectHideFlags: 1
  m_PrefabParentObject: {fileID: 0}
  m_PrefabInternal: {fileID: 100100000}
  m_GameObject: {fileID: 1854418599633860}
  m_Enabled: 1
  m_CastShadows: 1
  m_ReceiveShadows: 1
  m_DynamicOccludee: 1
  m_MotionVectors: 1
  m_LightProbeUsage: 1
  m_ReflectionProbeUsage: 1
  m_Materials:
  - {fileID: 2100000, guid: 91de392a8955fa74dba8bcc98747f356, type: 2}
  m_StaticBatchInfo:
    firstSubMesh: 0
    subMeshCount: 0
  m_StaticBatchRoot: {fileID: 0}
  m_ProbeAnchor: {fileID: 0}
  m_LightProbeVolumeOverride: {fileID: 0}
  m_ScaleInLightmap: 1
  m_PreserveUVs: 0
  m_IgnoreNormalsForChartDetection: 0
  m_ImportantGI: 0
  m_StitchLightmapSeams: 0
  m_SelectedEditorRenderState: 3
  m_MinimumChartSize: 4
  m_AutoUVMaxDistance: 0.5
  m_AutoUVMaxAngle: 89
  m_LightmapParameters: {fileID: 0}
  m_SortingLayerID: 0
  m_SortingLayer: 0
  m_SortingOrder: 0
  serializedVersion: 2
  m_Quality: 0
  m_UpdateWhenOffscreen: 0
  m_SkinnedMotionVectors: 1
  m_Mesh: {fileID: 4300006, guid: 54703f7a1bdab43419cb12e2e21a1a2c, type: 3}
  m_Bones:
  - {fileID: 4197344709918350}
  - {fileID: 4332288321442802}
  - {fileID: 4439427522120272}
  - {fileID: 4941049596353068}
  - {fileID: 4866753978768010}
  - {fileID: 4943493644888130}
  - {fileID: 4250242786234340}
  - {fileID: 4631869639563748}
  - {fileID: 4406560425371262}
  - {fileID: 4829055704708924}
  - {fileID: 4092960691350414}
  - {fileID: 4986328270850916}
  - {fileID: 4738075255015684}
  - {fileID: 4408231413782354}
  - {fileID: 4294736962295356}
  - {fileID: 4661457238496376}
  - {fileID: 4360618742485248}
  - {fileID: 4893130243655656}
  - {fileID: 4353173374521890}
  - {fileID: 4739899776362268}
  - {fileID: 4307462524843544}
  - {fileID: 4344611803677678}
  - {fileID: 4128518726287604}
  - {fileID: 4182294907251154}
  - {fileID: 4694954822348790}
  - {fileID: 4899659405142326}
  - {fileID: 4293646865468802}
  - {fileID: 4649215859090910}
  - {fileID: 4475470882518506}
  - {fileID: 4573014235044816}
  - {fileID: 4524791668112232}
  - {fileID: 4172003167294288}
  - {fileID: 4163842682998458}
  - {fileID: 4479049498574234}
  - {fileID: 4216157089481264}
  - {fileID: 4142958442580414}
  - {fileID: 4365876900283418}
  - {fileID: 4047005259197344}
  - {fileID: 4304119040316512}
  - {fileID: 4517584698790666}
  - {fileID: 4721581199599512}
  - {fileID: 4524621475018264}
  - {fileID: 4625168442921126}
  - {fileID: 4744593480705662}
  - {fileID: 4871834507887662}
  - {fileID: 4454145182315564}
  - {fileID: 4469117364361030}
  - {fileID: 4257212094232836}
  - {fileID: 4863561802518434}
  - {fileID: 4497911358804960}
  - {fileID: 4101359151083442}
  - {fileID: 4365921271463068}
  - {fileID: 4197937332221324}
  - {fileID: 4993943915865780}
  - {fileID: 4443446840410796}
  - {fileID: 4393748203504562}
  - {fileID: 4751873365619910}
  - {fileID: 4393824267939530}
  - {fileID: 4064852390900632}
  - {fileID: 4217577770838248}
  - {fileID: 4838166184543674}
  - {fileID: 4774101899193534}
  - {fileID: 4984723626352092}
  - {fileID: 4031717731955612}
  - {fileID: 4952570844509472}
  m_BlendShapeWeights: []
  m_RootBone: {fileID: 4197344709918350}
  m_AABB:
    m_Center: {x: 0.00032697618, y: 0.5594085, z: 0.10576872}
    m_Extent: {x: 0.091038205, y: 0.06399602, z: 0.0692834}
  m_DirtyAABB: 0
--- !u!137 &137390871012769472
SkinnedMeshRenderer:
  m_ObjectHideFlags: 1
  m_PrefabParentObject: {fileID: 0}
  m_PrefabInternal: {fileID: 100100000}
  m_GameObject: {fileID: 1115554928230350}
  m_Enabled: 1
  m_CastShadows: 1
  m_ReceiveShadows: 1
  m_DynamicOccludee: 1
  m_MotionVectors: 1
  m_LightProbeUsage: 1
  m_ReflectionProbeUsage: 1
  m_Materials:
  - {fileID: 2100000, guid: 91de392a8955fa74dba8bcc98747f356, type: 2}
  m_StaticBatchInfo:
    firstSubMesh: 0
    subMeshCount: 0
  m_StaticBatchRoot: {fileID: 0}
  m_ProbeAnchor: {fileID: 0}
  m_LightProbeVolumeOverride: {fileID: 0}
  m_ScaleInLightmap: 1
  m_PreserveUVs: 0
  m_IgnoreNormalsForChartDetection: 0
  m_ImportantGI: 0
  m_StitchLightmapSeams: 0
  m_SelectedEditorRenderState: 3
  m_MinimumChartSize: 4
  m_AutoUVMaxDistance: 0.5
  m_AutoUVMaxAngle: 89
  m_LightmapParameters: {fileID: 0}
  m_SortingLayerID: 0
  m_SortingLayer: 0
  m_SortingOrder: 0
  serializedVersion: 2
  m_Quality: 0
  m_UpdateWhenOffscreen: 0
  m_SkinnedMotionVectors: 1
  m_Mesh: {fileID: 4300004, guid: 54703f7a1bdab43419cb12e2e21a1a2c, type: 3}
  m_Bones:
  - {fileID: 4197344709918350}
  - {fileID: 4332288321442802}
  - {fileID: 4439427522120272}
  - {fileID: 4941049596353068}
  - {fileID: 4866753978768010}
  - {fileID: 4943493644888130}
  - {fileID: 4250242786234340}
  - {fileID: 4631869639563748}
  - {fileID: 4406560425371262}
  - {fileID: 4829055704708924}
  - {fileID: 4092960691350414}
  - {fileID: 4986328270850916}
  - {fileID: 4738075255015684}
  - {fileID: 4408231413782354}
  - {fileID: 4294736962295356}
  - {fileID: 4661457238496376}
  - {fileID: 4360618742485248}
  - {fileID: 4893130243655656}
  - {fileID: 4353173374521890}
  - {fileID: 4739899776362268}
  - {fileID: 4307462524843544}
  - {fileID: 4344611803677678}
  - {fileID: 4128518726287604}
  - {fileID: 4182294907251154}
  - {fileID: 4694954822348790}
  - {fileID: 4899659405142326}
  - {fileID: 4293646865468802}
  - {fileID: 4649215859090910}
  - {fileID: 4475470882518506}
  - {fileID: 4573014235044816}
  - {fileID: 4524791668112232}
  - {fileID: 4172003167294288}
  - {fileID: 4163842682998458}
  - {fileID: 4479049498574234}
  - {fileID: 4216157089481264}
  - {fileID: 4142958442580414}
  - {fileID: 4365876900283418}
  - {fileID: 4047005259197344}
  - {fileID: 4304119040316512}
  - {fileID: 4517584698790666}
  - {fileID: 4721581199599512}
  - {fileID: 4524621475018264}
  - {fileID: 4625168442921126}
  - {fileID: 4744593480705662}
  - {fileID: 4871834507887662}
  - {fileID: 4454145182315564}
  - {fileID: 4469117364361030}
  - {fileID: 4257212094232836}
  - {fileID: 4863561802518434}
  - {fileID: 4497911358804960}
  - {fileID: 4101359151083442}
  - {fileID: 4365921271463068}
  - {fileID: 4197937332221324}
  - {fileID: 4993943915865780}
  - {fileID: 4443446840410796}
  - {fileID: 4393748203504562}
  - {fileID: 4751873365619910}
  - {fileID: 4393824267939530}
  - {fileID: 4064852390900632}
  - {fileID: 4217577770838248}
  - {fileID: 4838166184543674}
  - {fileID: 4774101899193534}
  - {fileID: 4984723626352092}
  - {fileID: 4031717731955612}
  - {fileID: 4952570844509472}
  m_BlendShapeWeights: []
  m_RootBone: {fileID: 4197344709918350}
  m_AABB:
    m_Center: {x: 0.00035607815, y: 0.67061645, z: 0.07728271}
    m_Extent: {x: 0.105886824, y: 0.14456058, z: 0.14704736}
  m_DirtyAABB: 0
--- !u!137 &137857961872557468
SkinnedMeshRenderer:
  m_ObjectHideFlags: 1
  m_PrefabParentObject: {fileID: 0}
  m_PrefabInternal: {fileID: 100100000}
  m_GameObject: {fileID: 1477134724244610}
  m_Enabled: 1
  m_CastShadows: 1
  m_ReceiveShadows: 1
  m_DynamicOccludee: 1
  m_MotionVectors: 1
  m_LightProbeUsage: 1
  m_ReflectionProbeUsage: 1
  m_Materials:
  - {fileID: 2100000, guid: 91de392a8955fa74dba8bcc98747f356, type: 2}
  m_StaticBatchInfo:
    firstSubMesh: 0
    subMeshCount: 0
  m_StaticBatchRoot: {fileID: 0}
  m_ProbeAnchor: {fileID: 0}
  m_LightProbeVolumeOverride: {fileID: 0}
  m_ScaleInLightmap: 1
  m_PreserveUVs: 0
  m_IgnoreNormalsForChartDetection: 0
  m_ImportantGI: 0
  m_StitchLightmapSeams: 0
  m_SelectedEditorRenderState: 3
  m_MinimumChartSize: 4
  m_AutoUVMaxDistance: 0.5
  m_AutoUVMaxAngle: 89
  m_LightmapParameters: {fileID: 0}
  m_SortingLayerID: 0
  m_SortingLayer: 0
  m_SortingOrder: 0
  serializedVersion: 2
  m_Quality: 0
  m_UpdateWhenOffscreen: 0
  m_SkinnedMotionVectors: 1
  m_Mesh: {fileID: 4300000, guid: 54703f7a1bdab43419cb12e2e21a1a2c, type: 3}
  m_Bones:
  - {fileID: 4197344709918350}
  - {fileID: 4332288321442802}
  - {fileID: 4439427522120272}
  - {fileID: 4941049596353068}
  - {fileID: 4866753978768010}
  - {fileID: 4943493644888130}
  - {fileID: 4250242786234340}
  - {fileID: 4631869639563748}
  - {fileID: 4406560425371262}
  - {fileID: 4829055704708924}
  - {fileID: 4092960691350414}
  - {fileID: 4986328270850916}
  - {fileID: 4738075255015684}
  - {fileID: 4408231413782354}
  - {fileID: 4294736962295356}
  - {fileID: 4661457238496376}
  - {fileID: 4360618742485248}
  - {fileID: 4893130243655656}
  - {fileID: 4353173374521890}
  - {fileID: 4739899776362268}
  - {fileID: 4307462524843544}
  - {fileID: 4344611803677678}
  - {fileID: 4128518726287604}
  - {fileID: 4182294907251154}
  - {fileID: 4694954822348790}
  - {fileID: 4899659405142326}
  - {fileID: 4293646865468802}
  - {fileID: 4649215859090910}
  - {fileID: 4475470882518506}
  - {fileID: 4573014235044816}
  - {fileID: 4524791668112232}
  - {fileID: 4172003167294288}
  - {fileID: 4163842682998458}
  - {fileID: 4479049498574234}
  - {fileID: 4216157089481264}
  - {fileID: 4142958442580414}
  - {fileID: 4365876900283418}
  - {fileID: 4047005259197344}
  - {fileID: 4304119040316512}
  - {fileID: 4517584698790666}
  - {fileID: 4721581199599512}
  - {fileID: 4524621475018264}
  - {fileID: 4625168442921126}
  - {fileID: 4744593480705662}
  - {fileID: 4871834507887662}
  - {fileID: 4454145182315564}
  - {fileID: 4469117364361030}
  - {fileID: 4257212094232836}
  - {fileID: 4863561802518434}
  - {fileID: 4497911358804960}
  - {fileID: 4101359151083442}
  - {fileID: 4365921271463068}
  - {fileID: 4197937332221324}
  - {fileID: 4993943915865780}
  - {fileID: 4443446840410796}
  - {fileID: 4393748203504562}
  - {fileID: 4751873365619910}
  - {fileID: 4393824267939530}
  - {fileID: 4064852390900632}
  - {fileID: 4217577770838248}
  - {fileID: 4838166184543674}
  - {fileID: 4774101899193534}
  - {fileID: 4984723626352092}
  - {fileID: 4031717731955612}
  - {fileID: 4952570844509472}
  m_BlendShapeWeights: []
  m_RootBone: {fileID: 4197344709918350}
  m_AABB:
    m_Center: {x: 0.00035504997, y: 0.64911824, z: 0.081735685}
    m_Extent: {x: 0.07023415, y: 0.10368359, z: 0.12253253}
  m_DirtyAABB: 0
--- !u!137 &137916698088153690
SkinnedMeshRenderer:
  m_ObjectHideFlags: 1
  m_PrefabParentObject: {fileID: 0}
  m_PrefabInternal: {fileID: 100100000}
  m_GameObject: {fileID: 1135766305268800}
  m_Enabled: 1
  m_CastShadows: 1
  m_ReceiveShadows: 1
  m_DynamicOccludee: 1
  m_MotionVectors: 1
  m_LightProbeUsage: 1
  m_ReflectionProbeUsage: 1
  m_Materials:
  - {fileID: 2100000, guid: 91de392a8955fa74dba8bcc98747f356, type: 2}
  m_StaticBatchInfo:
    firstSubMesh: 0
    subMeshCount: 0
  m_StaticBatchRoot: {fileID: 0}
  m_ProbeAnchor: {fileID: 0}
  m_LightProbeVolumeOverride: {fileID: 0}
  m_ScaleInLightmap: 1
  m_PreserveUVs: 0
  m_IgnoreNormalsForChartDetection: 0
  m_ImportantGI: 0
  m_StitchLightmapSeams: 0
  m_SelectedEditorRenderState: 3
  m_MinimumChartSize: 4
  m_AutoUVMaxDistance: 0.5
  m_AutoUVMaxAngle: 89
  m_LightmapParameters: {fileID: 0}
  m_SortingLayerID: 0
  m_SortingLayer: 0
  m_SortingOrder: 0
  serializedVersion: 2
  m_Quality: 0
  m_UpdateWhenOffscreen: 0
  m_SkinnedMotionVectors: 1
  m_Mesh: {fileID: 4300002, guid: 54703f7a1bdab43419cb12e2e21a1a2c, type: 3}
  m_Bones:
  - {fileID: 4197344709918350}
  - {fileID: 4332288321442802}
  - {fileID: 4439427522120272}
  - {fileID: 4941049596353068}
  - {fileID: 4866753978768010}
  - {fileID: 4943493644888130}
  - {fileID: 4250242786234340}
  - {fileID: 4631869639563748}
  - {fileID: 4406560425371262}
  - {fileID: 4829055704708924}
  - {fileID: 4092960691350414}
  - {fileID: 4986328270850916}
  - {fileID: 4738075255015684}
  - {fileID: 4408231413782354}
  - {fileID: 4294736962295356}
  - {fileID: 4661457238496376}
  - {fileID: 4360618742485248}
  - {fileID: 4893130243655656}
  - {fileID: 4353173374521890}
  - {fileID: 4739899776362268}
  - {fileID: 4307462524843544}
  - {fileID: 4344611803677678}
  - {fileID: 4128518726287604}
  - {fileID: 4182294907251154}
  - {fileID: 4694954822348790}
  - {fileID: 4899659405142326}
  - {fileID: 4293646865468802}
  - {fileID: 4649215859090910}
  - {fileID: 4475470882518506}
  - {fileID: 4573014235044816}
  - {fileID: 4524791668112232}
  - {fileID: 4172003167294288}
  - {fileID: 4163842682998458}
  - {fileID: 4479049498574234}
  - {fileID: 4216157089481264}
  - {fileID: 4142958442580414}
  - {fileID: 4365876900283418}
  - {fileID: 4047005259197344}
  - {fileID: 4304119040316512}
  - {fileID: 4517584698790666}
  - {fileID: 4721581199599512}
  - {fileID: 4524621475018264}
  - {fileID: 4625168442921126}
  - {fileID: 4744593480705662}
  - {fileID: 4871834507887662}
  - {fileID: 4454145182315564}
  - {fileID: 4469117364361030}
  - {fileID: 4257212094232836}
  - {fileID: 4863561802518434}
  - {fileID: 4497911358804960}
  - {fileID: 4101359151083442}
  - {fileID: 4365921271463068}
  - {fileID: 4197937332221324}
  - {fileID: 4993943915865780}
  - {fileID: 4443446840410796}
  - {fileID: 4393748203504562}
  - {fileID: 4751873365619910}
  - {fileID: 4393824267939530}
  - {fileID: 4064852390900632}
  - {fileID: 4217577770838248}
  - {fileID: 4838166184543674}
  - {fileID: 4774101899193534}
  - {fileID: 4984723626352092}
  - {fileID: 4031717731955612}
  - {fileID: 4952570844509472}
  m_BlendShapeWeights: []
  m_RootBone: {fileID: 4197344709918350}
  m_AABB:
    m_Center: {x: 0.00021746755, y: -0.17603397, z: -0.08077258}
    m_Extent: {x: 0.916929, y: 0.9591789, z: 0.3370002}
  m_DirtyAABB: 0
