%YAML 1.1
%TAG !u! tag:unity3d.com,2011:
--- !u!1001 &100100000
Prefab:
  m_ObjectHideFlags: 1
  serializedVersion: 2
  m_Modification:
    m_TransformParent: {fileID: 0}
    m_Modifications: []
    m_RemovedComponents: []
  m_ParentPrefab: {fileID: 0}
  m_RootGameObject: {fileID: 1463151604687914}
  m_IsPrefabParent: 1
--- !u!1 &1001298096064618
GameObject:
  m_ObjectHideFlags: 1
  m_PrefabParentObject: {fileID: 0}
  m_PrefabInternal: {fileID: 100100000}
  serializedVersion: 5
  m_Component:
  - component: {fileID: 4343231954669058}
  m_Layer: 0
  m_Name: mixamorig_RightHand
  m_TagString: Untagged
  m_Icon: {fileID: 0}
  m_NavMeshLayer: 0
  m_StaticEditorFlags: 0
  m_IsActive: 1
--- !u!1 &1004589698228956
GameObject:
  m_ObjectHideFlags: 1
  m_PrefabParentObject: {fileID: 0}
  m_PrefabInternal: {fileID: 100100000}
  serializedVersion: 5
  m_Component:
  - component: {fileID: 4944988898901564}
  m_Layer: 0
  m_Name: mixamorig_LeftShoulder
  m_TagString: Untagged
  m_Icon: {fileID: 0}
  m_NavMeshLayer: 0
  m_StaticEditorFlags: 0
  m_IsActive: 1
--- !u!1 &1005740245123644
GameObject:
  m_ObjectHideFlags: 1
  m_PrefabParentObject: {fileID: 0}
  m_PrefabInternal: {fileID: 100100000}
  serializedVersion: 5
  m_Component:
  - component: {fileID: 4458076339058320}
  m_Layer: 0
  m_Name: mixamorig_LeftHandThumb4_end
  m_TagString: Untagged
  m_Icon: {fileID: 0}
  m_NavMeshLayer: 0
  m_StaticEditorFlags: 0
  m_IsActive: 1
--- !u!1 &1008087747833226
GameObject:
  m_ObjectHideFlags: 1
  m_PrefabParentObject: {fileID: 0}
  m_PrefabInternal: {fileID: 100100000}
  serializedVersion: 5
  m_Component:
  - component: {fileID: 4704868180370540}
  m_Layer: 0
  m_Name: mixamorig_LeftFoot
  m_TagString: Untagged
  m_Icon: {fileID: 0}
  m_NavMeshLayer: 0
  m_StaticEditorFlags: 0
  m_IsActive: 1
--- !u!1 &1016864288099302
GameObject:
  m_ObjectHideFlags: 1
  m_PrefabParentObject: {fileID: 0}
  m_PrefabInternal: {fileID: 100100000}
  serializedVersion: 5
  m_Component:
  - component: {fileID: 4691709167340362}
  m_Layer: 0
  m_Name: mixamorig_RightHandThumb2
  m_TagString: Untagged
  m_Icon: {fileID: 0}
  m_NavMeshLayer: 0
  m_StaticEditorFlags: 0
  m_IsActive: 1
--- !u!1 &1021727628258468
GameObject:
  m_ObjectHideFlags: 1
  m_PrefabParentObject: {fileID: 0}
  m_PrefabInternal: {fileID: 100100000}
  serializedVersion: 5
  m_Component:
  - component: {fileID: 4781257983521274}
  m_Layer: 0
  m_Name: mixamorig_RightHandPinky4
  m_TagString: Untagged
  m_Icon: {fileID: 0}
  m_NavMeshLayer: 0
  m_StaticEditorFlags: 0
  m_IsActive: 1
--- !u!1 &1038097618402620
GameObject:
  m_ObjectHideFlags: 1
  m_PrefabParentObject: {fileID: 0}
  m_PrefabInternal: {fileID: 100100000}
  serializedVersion: 5
  m_Component:
  - component: {fileID: 4485183974669560}
  m_Layer: 0
  m_Name: mixamorig_LeftHandRing2
  m_TagString: Untagged
  m_Icon: {fileID: 0}
  m_NavMeshLayer: 0
  m_StaticEditorFlags: 0
  m_IsActive: 1
--- !u!1 &1038235663090952
GameObject:
  m_ObjectHideFlags: 1
  m_PrefabParentObject: {fileID: 0}
  m_PrefabInternal: {fileID: 100100000}
  serializedVersion: 5
  m_Component:
  - component: {fileID: 4022596902215642}
  m_Layer: 0
  m_Name: mixamorig_LeftHandIndex3
  m_TagString: Untagged
  m_Icon: {fileID: 0}
  m_NavMeshLayer: 0
  m_StaticEditorFlags: 0
  m_IsActive: 1
--- !u!1 &1048151808026616
GameObject:
  m_ObjectHideFlags: 1
  m_PrefabParentObject: {fileID: 0}
  m_PrefabInternal: {fileID: 100100000}
  serializedVersion: 5
  m_Component:
  - component: {fileID: 4042750051727208}
  m_Layer: 0
  m_Name: mixamorig_LeftHandPinky3
  m_TagString: Untagged
  m_Icon: {fileID: 0}
  m_NavMeshLayer: 0
  m_StaticEditorFlags: 0
  m_IsActive: 1
--- !u!1 &1063740258320012
GameObject:
  m_ObjectHideFlags: 1
  m_PrefabParentObject: {fileID: 0}
  m_PrefabInternal: {fileID: 100100000}
  serializedVersion: 5
  m_Component:
  - component: {fileID: 4966352535205892}
  m_Layer: 0
  m_Name: mixamorig_RightHandIndex4
  m_TagString: Untagged
  m_Icon: {fileID: 0}
  m_NavMeshLayer: 0
  m_StaticEditorFlags: 0
  m_IsActive: 1
--- !u!1 &1076067843588616
GameObject:
  m_ObjectHideFlags: 0
  m_PrefabParentObject: {fileID: 0}
  m_PrefabInternal: {fileID: 100100000}
  serializedVersion: 5
  m_Component:
  - component: {fileID: 4603144638243128}
  - component: {fileID: 137143310020234332}
  m_Layer: 0
  m_Name: Goggles_LP
  m_TagString: Untagged
  m_Icon: {fileID: 0}
  m_NavMeshLayer: 0
  m_StaticEditorFlags: 0
  m_IsActive: 1
--- !u!1 &1092169836555392
GameObject:
  m_ObjectHideFlags: 1
  m_PrefabParentObject: {fileID: 0}
  m_PrefabInternal: {fileID: 100100000}
  serializedVersion: 5
  m_Component:
  - component: {fileID: 4542486972874576}
  m_Layer: 0
  m_Name: mixamorig_RightForeArm
  m_TagString: Untagged
  m_Icon: {fileID: 0}
  m_NavMeshLayer: 0
  m_StaticEditorFlags: 0
  m_IsActive: 1
--- !u!1 &1094378609220214
GameObject:
  m_ObjectHideFlags: 1
  m_PrefabParentObject: {fileID: 0}
  m_PrefabInternal: {fileID: 100100000}
  serializedVersion: 5
  m_Component:
  - component: {fileID: 4878438322390586}
  m_Layer: 0
  m_Name: mixamorig_RightToe_End_end
  m_TagString: Untagged
  m_Icon: {fileID: 0}
  m_NavMeshLayer: 0
  m_StaticEditorFlags: 0
  m_IsActive: 1
--- !u!1 &1099309352483500
GameObject:
  m_ObjectHideFlags: 1
  m_PrefabParentObject: {fileID: 0}
  m_PrefabInternal: {fileID: 100100000}
  serializedVersion: 5
  m_Component:
  - component: {fileID: 4404240530038980}
  m_Layer: 0
  m_Name: mixamorig_RightHandRing1
  m_TagString: Untagged
  m_Icon: {fileID: 0}
  m_NavMeshLayer: 0
  m_StaticEditorFlags: 0
  m_IsActive: 1
--- !u!1 &1108563110177508
GameObject:
  m_ObjectHideFlags: 1
  m_PrefabParentObject: {fileID: 0}
  m_PrefabInternal: {fileID: 100100000}
  serializedVersion: 5
  m_Component:
  - component: {fileID: 4297808330285564}
  m_Layer: 0
  m_Name: mixamorig_RightHandThumb4_end
  m_TagString: Untagged
  m_Icon: {fileID: 0}
  m_NavMeshLayer: 0
  m_StaticEditorFlags: 0
  m_IsActive: 1
--- !u!1 &1132577791295586
GameObject:
  m_ObjectHideFlags: 1
  m_PrefabParentObject: {fileID: 0}
  m_PrefabInternal: {fileID: 100100000}
  serializedVersion: 5
  m_Component:
  - component: {fileID: 4770411700574020}
  m_Layer: 0
  m_Name: mixamorig_RightHandIndex2
  m_TagString: Untagged
  m_Icon: {fileID: 0}
  m_NavMeshLayer: 0
  m_StaticEditorFlags: 0
  m_IsActive: 1
--- !u!1 &1136807232324124
GameObject:
  m_ObjectHideFlags: 1
  m_PrefabParentObject: {fileID: 0}
  m_PrefabInternal: {fileID: 100100000}
  serializedVersion: 5
  m_Component:
  - component: {fileID: 4596332881035920}
  m_Layer: 0
  m_Name: mixamorig_LeftHandMiddle4
  m_TagString: Untagged
  m_Icon: {fileID: 0}
  m_NavMeshLayer: 0
  m_StaticEditorFlags: 0
  m_IsActive: 1
--- !u!1 &1138866459462816
GameObject:
  m_ObjectHideFlags: 1
  m_PrefabParentObject: {fileID: 0}
  m_PrefabInternal: {fileID: 100100000}
  serializedVersion: 5
  m_Component:
  - component: {fileID: 4168825345120646}
  m_Layer: 0
  m_Name: mixamorig_LeftToe_End_end
  m_TagString: Untagged
  m_Icon: {fileID: 0}
  m_NavMeshLayer: 0
  m_StaticEditorFlags: 0
  m_IsActive: 1
--- !u!1 &1183724619387884
GameObject:
  m_ObjectHideFlags: 1
  m_PrefabParentObject: {fileID: 0}
  m_PrefabInternal: {fileID: 100100000}
  serializedVersion: 5
  m_Component:
  - component: {fileID: 4174609812466220}
  m_Layer: 0
  m_Name: mixamorig_LeftLeg
  m_TagString: Untagged
  m_Icon: {fileID: 0}
  m_NavMeshLayer: 0
  m_StaticEditorFlags: 0
  m_IsActive: 1
--- !u!1 &1189640406706584
GameObject:
  m_ObjectHideFlags: 1
  m_PrefabParentObject: {fileID: 0}
  m_PrefabInternal: {fileID: 100100000}
  serializedVersion: 5
  m_Component:
  - component: {fileID: 4709604194157226}
  m_Layer: 0
  m_Name: mixamorig_RightHandRing4
  m_TagString: Untagged
  m_Icon: {fileID: 0}
  m_NavMeshLayer: 0
  m_StaticEditorFlags: 0
  m_IsActive: 1
--- !u!1 &1195188298579488
GameObject:
  m_ObjectHideFlags: 0
  m_PrefabParentObject: {fileID: 0}
  m_PrefabInternal: {fileID: 100100000}
  serializedVersion: 5
  m_Component:
  - component: {fileID: 4996109160097180}
  - component: {fileID: 137874309904355986}
  m_Layer: 0
  m_Name: Soldier_LP
  m_TagString: Untagged
  m_Icon: {fileID: 0}
  m_NavMeshLayer: 0
  m_StaticEditorFlags: 0
  m_IsActive: 1
--- !u!1 &1196346055455138
GameObject:
  m_ObjectHideFlags: 1
  m_PrefabParentObject: {fileID: 0}
  m_PrefabInternal: {fileID: 100100000}
  serializedVersion: 5
  m_Component:
  - component: {fileID: 4022873354322094}
  m_Layer: 0
  m_Name: mixamorig_LeftHandRing4_end
  m_TagString: Untagged
  m_Icon: {fileID: 0}
  m_NavMeshLayer: 0
  m_StaticEditorFlags: 0
  m_IsActive: 1
--- !u!1 &1206309897082106
GameObject:
  m_ObjectHideFlags: 1
  m_PrefabParentObject: {fileID: 0}
  m_PrefabInternal: {fileID: 100100000}
  serializedVersion: 5
  m_Component:
  - component: {fileID: 4195897282530900}
  m_Layer: 0
  m_Name: mixamorig_LeftHandThumb3
  m_TagString: Untagged
  m_Icon: {fileID: 0}
  m_NavMeshLayer: 0
  m_StaticEditorFlags: 0
  m_IsActive: 1
--- !u!1 &1210899769263940
GameObject:
  m_ObjectHideFlags: 1
  m_PrefabParentObject: {fileID: 0}
  m_PrefabInternal: {fileID: 100100000}
  serializedVersion: 5
  m_Component:
  - component: {fileID: 4787924537060468}
  m_Layer: 0
  m_Name: mixamorig_LeftUpLeg
  m_TagString: Untagged
  m_Icon: {fileID: 0}
  m_NavMeshLayer: 0
  m_StaticEditorFlags: 0
  m_IsActive: 1
--- !u!1 &1215149341263202
GameObject:
  m_ObjectHideFlags: 1
  m_PrefabParentObject: {fileID: 0}
  m_PrefabInternal: {fileID: 100100000}
  serializedVersion: 5
  m_Component:
  - component: {fileID: 4307140484506624}
  m_Layer: 0
  m_Name: mixamorig_RightArm
  m_TagString: Untagged
  m_Icon: {fileID: 0}
  m_NavMeshLayer: 0
  m_StaticEditorFlags: 0
  m_IsActive: 1
--- !u!1 &1217149606314136
GameObject:
  m_ObjectHideFlags: 1
  m_PrefabParentObject: {fileID: 0}
  m_PrefabInternal: {fileID: 100100000}
  serializedVersion: 5
  m_Component:
  - component: {fileID: 4965399306484348}
  m_Layer: 0
  m_Name: mixamorig_RightHandRing3
  m_TagString: Untagged
  m_Icon: {fileID: 0}
  m_NavMeshLayer: 0
  m_StaticEditorFlags: 0
  m_IsActive: 1
--- !u!1 &1221536895418002
GameObject:
  m_ObjectHideFlags: 1
  m_PrefabParentObject: {fileID: 0}
  m_PrefabInternal: {fileID: 100100000}
  serializedVersion: 5
  m_Component:
  - component: {fileID: 4728873188062766}
  m_Layer: 0
  m_Name: mixamorig_RightHandThumb3
  m_TagString: Untagged
  m_Icon: {fileID: 0}
  m_NavMeshLayer: 0
  m_StaticEditorFlags: 0
  m_IsActive: 1
--- !u!1 &1233475496219328
GameObject:
  m_ObjectHideFlags: 1
  m_PrefabParentObject: {fileID: 0}
  m_PrefabInternal: {fileID: 100100000}
  serializedVersion: 5
  m_Component:
  - component: {fileID: 4935464440052736}
  m_Layer: 0
  m_Name: mixamorig_RightUpLeg
  m_TagString: Untagged
  m_Icon: {fileID: 0}
  m_NavMeshLayer: 0
  m_StaticEditorFlags: 0
  m_IsActive: 1
--- !u!1 &1239911318053310
GameObject:
  m_ObjectHideFlags: 1
  m_PrefabParentObject: {fileID: 0}
  m_PrefabInternal: {fileID: 100100000}
  serializedVersion: 5
  m_Component:
  - component: {fileID: 4248518527262580}
  m_Layer: 0
  m_Name: mixamorig_LeftHandThumb4
  m_TagString: Untagged
  m_Icon: {fileID: 0}
  m_NavMeshLayer: 0
  m_StaticEditorFlags: 0
  m_IsActive: 1
--- !u!1 &1258502328086718
GameObject:
  m_ObjectHideFlags: 1
  m_PrefabParentObject: {fileID: 0}
  m_PrefabInternal: {fileID: 100100000}
  serializedVersion: 5
  m_Component:
  - component: {fileID: 4234167416724200}
  m_Layer: 0
  m_Name: mixamorig_LeftHandThumb1
  m_TagString: Untagged
  m_Icon: {fileID: 0}
  m_NavMeshLayer: 0
  m_StaticEditorFlags: 0
  m_IsActive: 1
--- !u!1 &1261576094876050
GameObject:
  m_ObjectHideFlags: 1
  m_PrefabParentObject: {fileID: 0}
  m_PrefabInternal: {fileID: 100100000}
  serializedVersion: 5
  m_Component:
  - component: {fileID: 4827225120279250}
  m_Layer: 0
  m_Name: mixamorig_LeftHandIndex2
  m_TagString: Untagged
  m_Icon: {fileID: 0}
  m_NavMeshLayer: 0
  m_StaticEditorFlags: 0
  m_IsActive: 1
--- !u!1 &1275687509924256
GameObject:
  m_ObjectHideFlags: 1
  m_PrefabParentObject: {fileID: 0}
  m_PrefabInternal: {fileID: 100100000}
  serializedVersion: 5
  m_Component:
  - component: {fileID: 4617970663596744}
  m_Layer: 0
  m_Name: mixamorig_LeftToe_End
  m_TagString: Untagged
  m_Icon: {fileID: 0}
  m_NavMeshLayer: 0
  m_StaticEditorFlags: 0
  m_IsActive: 1
--- !u!1 &1330742405717214
GameObject:
  m_ObjectHideFlags: 1
  m_PrefabParentObject: {fileID: 0}
  m_PrefabInternal: {fileID: 100100000}
  serializedVersion: 5
  m_Component:
  - component: {fileID: 4716733258071596}
  m_Layer: 0
  m_Name: mixamorig_RightHandPinky1
  m_TagString: Untagged
  m_Icon: {fileID: 0}
  m_NavMeshLayer: 0
  m_StaticEditorFlags: 0
  m_IsActive: 1
--- !u!1 &1332413541648686
GameObject:
  m_ObjectHideFlags: 1
  m_PrefabParentObject: {fileID: 0}
  m_PrefabInternal: {fileID: 100100000}
  serializedVersion: 5
  m_Component:
  - component: {fileID: 4475865333737130}
  m_Layer: 0
  m_Name: mixamorig_RightHandThumb1
  m_TagString: Untagged
  m_Icon: {fileID: 0}
  m_NavMeshLayer: 0
  m_StaticEditorFlags: 0
  m_IsActive: 1
--- !u!1 &1356305951336884
GameObject:
  m_ObjectHideFlags: 1
  m_PrefabParentObject: {fileID: 0}
  m_PrefabInternal: {fileID: 100100000}
  serializedVersion: 5
  m_Component:
  - component: {fileID: 4696308894851992}
  m_Layer: 0
  m_Name: mixamorig_LeftArm
  m_TagString: Untagged
  m_Icon: {fileID: 0}
  m_NavMeshLayer: 0
  m_StaticEditorFlags: 0
  m_IsActive: 1
--- !u!1 &1359276725018618
GameObject:
  m_ObjectHideFlags: 1
  m_PrefabParentObject: {fileID: 0}
  m_PrefabInternal: {fileID: 100100000}
  serializedVersion: 5
  m_Component:
  - component: {fileID: 4777509547481520}
  m_Layer: 0
  m_Name: mixamorig_RightShoulder
  m_TagString: Untagged
  m_Icon: {fileID: 0}
  m_NavMeshLayer: 0
  m_StaticEditorFlags: 0
  m_IsActive: 1
--- !u!1 &1371373758829242
GameObject:
  m_ObjectHideFlags: 1
  m_PrefabParentObject: {fileID: 0}
  m_PrefabInternal: {fileID: 100100000}
  serializedVersion: 5
  m_Component:
  - component: {fileID: 4347793824084298}
  m_Layer: 0
  m_Name: mixamorig_Neck
  m_TagString: Untagged
  m_Icon: {fileID: 0}
  m_NavMeshLayer: 0
  m_StaticEditorFlags: 0
  m_IsActive: 1
--- !u!1 &1378800082175258
GameObject:
  m_ObjectHideFlags: 1
  m_PrefabParentObject: {fileID: 0}
  m_PrefabInternal: {fileID: 100100000}
  serializedVersion: 5
  m_Component:
  - component: {fileID: 4073230592271686}
  m_Layer: 0
  m_Name: mixamorig_LeftHandThumb2
  m_TagString: Untagged
  m_Icon: {fileID: 0}
  m_NavMeshLayer: 0
  m_StaticEditorFlags: 0
  m_IsActive: 1
--- !u!1 &1391427601557266
GameObject:
  m_ObjectHideFlags: 1
  m_PrefabParentObject: {fileID: 0}
  m_PrefabInternal: {fileID: 100100000}
  serializedVersion: 5
  m_Component:
  - component: {fileID: 4441625903472076}
  m_Layer: 0
  m_Name: mixamorig_LeftHandMiddle1
  m_TagString: Untagged
  m_Icon: {fileID: 0}
  m_NavMeshLayer: 0
  m_StaticEditorFlags: 0
  m_IsActive: 1
--- !u!1 &1393302855500440
GameObject:
  m_ObjectHideFlags: 0
  m_PrefabParentObject: {fileID: 0}
  m_PrefabInternal: {fileID: 100100000}
  serializedVersion: 5
  m_Component:
  - component: {fileID: 4077174448692400}
  m_Layer: 0
  m_Name: Armature
  m_TagString: Untagged
  m_Icon: {fileID: 0}
  m_NavMeshLayer: 0
  m_StaticEditorFlags: 0
  m_IsActive: 1
--- !u!1 &1403513073807390
GameObject:
  m_ObjectHideFlags: 1
  m_PrefabParentObject: {fileID: 0}
  m_PrefabInternal: {fileID: 100100000}
  serializedVersion: 5
  m_Component:
  - component: {fileID: 4778138693212528}
  m_Layer: 0
  m_Name: mixamorig_RightHandIndex3
  m_TagString: Untagged
  m_Icon: {fileID: 0}
  m_NavMeshLayer: 0
  m_StaticEditorFlags: 0
  m_IsActive: 1
--- !u!1 &1410018675196408
GameObject:
  m_ObjectHideFlags: 1
  m_PrefabParentObject: {fileID: 0}
  m_PrefabInternal: {fileID: 100100000}
  serializedVersion: 5
  m_Component:
  - component: {fileID: 4148021466559956}
  m_Layer: 0
  m_Name: mixamorig_LeftHandMiddle4_end
  m_TagString: Untagged
  m_Icon: {fileID: 0}
  m_NavMeshLayer: 0
  m_StaticEditorFlags: 0
  m_IsActive: 1
--- !u!1 &1432770101534424
GameObject:
  m_ObjectHideFlags: 1
  m_PrefabParentObject: {fileID: 0}
  m_PrefabInternal: {fileID: 100100000}
  serializedVersion: 5
  m_Component:
  - component: {fileID: 4571984202997256}
  m_Layer: 0
  m_Name: mixamorig_Hips
  m_TagString: Untagged
  m_Icon: {fileID: 0}
  m_NavMeshLayer: 0
  m_StaticEditorFlags: 0
  m_IsActive: 1
--- !u!1 &1446846163869170
GameObject:
  m_ObjectHideFlags: 1
  m_PrefabParentObject: {fileID: 0}
  m_PrefabInternal: {fileID: 100100000}
  serializedVersion: 5
  m_Component:
  - component: {fileID: 4752689631347542}
  m_Layer: 0
  m_Name: mixamorig_LeftToeBase
  m_TagString: Untagged
  m_Icon: {fileID: 0}
  m_NavMeshLayer: 0
  m_StaticEditorFlags: 0
  m_IsActive: 1
--- !u!1 &1452928927583112
GameObject:
  m_ObjectHideFlags: 1
  m_PrefabParentObject: {fileID: 0}
  m_PrefabInternal: {fileID: 100100000}
  serializedVersion: 5
  m_Component:
  - component: {fileID: 4143504755296940}
  m_Layer: 0
  m_Name: mixamorig_LeftHandPinky1
  m_TagString: Untagged
  m_Icon: {fileID: 0}
  m_NavMeshLayer: 0
  m_StaticEditorFlags: 0
  m_IsActive: 1
--- !u!1 &1463151604687914
GameObject:
  m_ObjectHideFlags: 0
  m_PrefabParentObject: {fileID: 0}
  m_PrefabInternal: {fileID: 100100000}
  serializedVersion: 5
  m_Component:
  - component: {fileID: 4073802395707736}
  - component: {fileID: 95298771120003020}
  m_Layer: 0
  m_Name: Soldier_Team4_Standard
  m_TagString: Untagged
  m_Icon: {fileID: 0}
  m_NavMeshLayer: 0
  m_StaticEditorFlags: 0
  m_IsActive: 1
--- !u!1 &1468869890412208
GameObject:
  m_ObjectHideFlags: 1
  m_PrefabParentObject: {fileID: 0}
  m_PrefabInternal: {fileID: 100100000}
  serializedVersion: 5
  m_Component:
  - component: {fileID: 4851101280585664}
  m_Layer: 0
  m_Name: mixamorig_RightHandPinky3
  m_TagString: Untagged
  m_Icon: {fileID: 0}
  m_NavMeshLayer: 0
  m_StaticEditorFlags: 0
  m_IsActive: 1
--- !u!1 &1479878661931322
GameObject:
  m_ObjectHideFlags: 1
  m_PrefabParentObject: {fileID: 0}
  m_PrefabInternal: {fileID: 100100000}
  serializedVersion: 5
  m_Component:
  - component: {fileID: 4224731016930542}
  m_Layer: 0
  m_Name: mixamorig_RightToeBase
  m_TagString: Untagged
  m_Icon: {fileID: 0}
  m_NavMeshLayer: 0
  m_StaticEditorFlags: 0
  m_IsActive: 1
--- !u!1 &1496229058882812
GameObject:
  m_ObjectHideFlags: 1
  m_PrefabParentObject: {fileID: 0}
  m_PrefabInternal: {fileID: 100100000}
  serializedVersion: 5
  m_Component:
  - component: {fileID: 4569796752813800}
  m_Layer: 0
  m_Name: mixamorig_RightHandPinky2
  m_TagString: Untagged
  m_Icon: {fileID: 0}
  m_NavMeshLayer: 0
  m_StaticEditorFlags: 0
  m_IsActive: 1
--- !u!1 &1516040813485354
GameObject:
  m_ObjectHideFlags: 0
  m_PrefabParentObject: {fileID: 0}
  m_PrefabInternal: {fileID: 100100000}
  serializedVersion: 5
  m_Component:
  - component: {fileID: 4568174307971624}
  - component: {fileID: 137636282249213170}
  m_Layer: 0
  m_Name: Helmet_Strap_LP
  m_TagString: Untagged
  m_Icon: {fileID: 0}
  m_NavMeshLayer: 0
  m_StaticEditorFlags: 0
  m_IsActive: 1
--- !u!1 &1523367766256278
GameObject:
  m_ObjectHideFlags: 1
  m_PrefabParentObject: {fileID: 0}
  m_PrefabInternal: {fileID: 100100000}
  serializedVersion: 5
  m_Component:
  - component: {fileID: 4093699556489434}
  m_Layer: 0
  m_Name: mixamorig_RightHandMiddle4
  m_TagString: Untagged
  m_Icon: {fileID: 0}
  m_NavMeshLayer: 0
  m_StaticEditorFlags: 0
  m_IsActive: 1
--- !u!1 &1556230149876320
GameObject:
  m_ObjectHideFlags: 1
  m_PrefabParentObject: {fileID: 0}
  m_PrefabInternal: {fileID: 100100000}
  serializedVersion: 5
  m_Component:
  - component: {fileID: 4479625713155012}
  m_Layer: 0
  m_Name: mixamorig_RightHandThumb4
  m_TagString: Untagged
  m_Icon: {fileID: 0}
  m_NavMeshLayer: 0
  m_StaticEditorFlags: 0
  m_IsActive: 1
--- !u!1 &1562845063210542
GameObject:
  m_ObjectHideFlags: 1
  m_PrefabParentObject: {fileID: 0}
  m_PrefabInternal: {fileID: 100100000}
  serializedVersion: 5
  m_Component:
  - component: {fileID: 4156584673184032}
  m_Layer: 0
  m_Name: mixamorig_LeftHandPinky4_end
  m_TagString: Untagged
  m_Icon: {fileID: 0}
  m_NavMeshLayer: 0
  m_StaticEditorFlags: 0
  m_IsActive: 1
--- !u!1 &1595312387275660
GameObject:
  m_ObjectHideFlags: 1
  m_PrefabParentObject: {fileID: 0}
  m_PrefabInternal: {fileID: 100100000}
  serializedVersion: 5
  m_Component:
  - component: {fileID: 4603974934929680}
  m_Layer: 0
  m_Name: mixamorig_RightHandMiddle3
  m_TagString: Untagged
  m_Icon: {fileID: 0}
  m_NavMeshLayer: 0
  m_StaticEditorFlags: 0
  m_IsActive: 1
--- !u!1 &1599760003184388
GameObject:
  m_ObjectHideFlags: 1
  m_PrefabParentObject: {fileID: 0}
  m_PrefabInternal: {fileID: 100100000}
  serializedVersion: 5
  m_Component:
  - component: {fileID: 4167817827283622}
  m_Layer: 0
  m_Name: mixamorig_RightHandMiddle4_end
  m_TagString: Untagged
  m_Icon: {fileID: 0}
  m_NavMeshLayer: 0
  m_StaticEditorFlags: 0
  m_IsActive: 1
--- !u!1 &1624843764826296
GameObject:
  m_ObjectHideFlags: 1
  m_PrefabParentObject: {fileID: 0}
  m_PrefabInternal: {fileID: 100100000}
  serializedVersion: 5
  m_Component:
  - component: {fileID: 4954154363595446}
  m_Layer: 0
  m_Name: mixamorig_Spine2
  m_TagString: Untagged
  m_Icon: {fileID: 0}
  m_NavMeshLayer: 0
  m_StaticEditorFlags: 0
  m_IsActive: 1
--- !u!1 &1626647725738390
GameObject:
  m_ObjectHideFlags: 1
  m_PrefabParentObject: {fileID: 0}
  m_PrefabInternal: {fileID: 100100000}
  serializedVersion: 5
  m_Component:
  - component: {fileID: 4313111626612694}
  m_Layer: 0
  m_Name: mixamorig_LeftHandRing3
  m_TagString: Untagged
  m_Icon: {fileID: 0}
  m_NavMeshLayer: 0
  m_StaticEditorFlags: 0
  m_IsActive: 1
--- !u!1 &1627430221265034
GameObject:
  m_ObjectHideFlags: 1
  m_PrefabParentObject: {fileID: 0}
  m_PrefabInternal: {fileID: 100100000}
  serializedVersion: 5
  m_Component:
  - component: {fileID: 4115639341145446}
  m_Layer: 0
  m_Name: mixamorig_HeadTop_End
  m_TagString: Untagged
  m_Icon: {fileID: 0}
  m_NavMeshLayer: 0
  m_StaticEditorFlags: 0
  m_IsActive: 1
--- !u!1 &1627703270790212
GameObject:
  m_ObjectHideFlags: 1
  m_PrefabParentObject: {fileID: 0}
  m_PrefabInternal: {fileID: 100100000}
  serializedVersion: 5
  m_Component:
  - component: {fileID: 4844831483426492}
  m_Layer: 0
  m_Name: mixamorig_RightHandRing4_end
  m_TagString: Untagged
  m_Icon: {fileID: 0}
  m_NavMeshLayer: 0
  m_StaticEditorFlags: 0
  m_IsActive: 1
--- !u!1 &1650541821269056
GameObject:
  m_ObjectHideFlags: 1
  m_PrefabParentObject: {fileID: 0}
  m_PrefabInternal: {fileID: 100100000}
  serializedVersion: 5
  m_Component:
  - component: {fileID: 4647263794450450}
  m_Layer: 0
  m_Name: mixamorig_LeftHandIndex4
  m_TagString: Untagged
  m_Icon: {fileID: 0}
  m_NavMeshLayer: 0
  m_StaticEditorFlags: 0
  m_IsActive: 1
--- !u!1 &1656592801464358
GameObject:
  m_ObjectHideFlags: 1
  m_PrefabParentObject: {fileID: 0}
  m_PrefabInternal: {fileID: 100100000}
  serializedVersion: 5
  m_Component:
  - component: {fileID: 4959981588302044}
  m_Layer: 0
  m_Name: mixamorig_RightToe_End
  m_TagString: Untagged
  m_Icon: {fileID: 0}
  m_NavMeshLayer: 0
  m_StaticEditorFlags: 0
  m_IsActive: 1
--- !u!1 &1659495028699798
GameObject:
  m_ObjectHideFlags: 1
  m_PrefabParentObject: {fileID: 0}
  m_PrefabInternal: {fileID: 100100000}
  serializedVersion: 5
  m_Component:
  - component: {fileID: 4685015940792200}
  m_Layer: 0
  m_Name: mixamorig_RightHandRing2
  m_TagString: Untagged
  m_Icon: {fileID: 0}
  m_NavMeshLayer: 0
  m_StaticEditorFlags: 0
  m_IsActive: 1
--- !u!1 &1670967427682786
GameObject:
  m_ObjectHideFlags: 1
  m_PrefabParentObject: {fileID: 0}
  m_PrefabInternal: {fileID: 100100000}
  serializedVersion: 5
  m_Component:
  - component: {fileID: 4401636839678276}
  m_Layer: 0
  m_Name: mixamorig_Spine
  m_TagString: Untagged
  m_Icon: {fileID: 0}
  m_NavMeshLayer: 0
  m_StaticEditorFlags: 0
  m_IsActive: 1
--- !u!1 &1698503698383034
GameObject:
  m_ObjectHideFlags: 0
  m_PrefabParentObject: {fileID: 0}
  m_PrefabInternal: {fileID: 100100000}
  serializedVersion: 5
  m_Component:
  - component: {fileID: 4877426866436878}
  - component: {fileID: 137217515308879662}
  m_Layer: 0
  m_Name: Helmet_LP
  m_TagString: Untagged
  m_Icon: {fileID: 0}
  m_NavMeshLayer: 0
  m_StaticEditorFlags: 0
  m_IsActive: 1
--- !u!1 &1719920239780188
GameObject:
  m_ObjectHideFlags: 1
  m_PrefabParentObject: {fileID: 0}
  m_PrefabInternal: {fileID: 100100000}
  serializedVersion: 5
  m_Component:
  - component: {fileID: 4425212561893764}
  m_Layer: 0
  m_Name: mixamorig_LeftHandRing4
  m_TagString: Untagged
  m_Icon: {fileID: 0}
  m_NavMeshLayer: 0
  m_StaticEditorFlags: 0
  m_IsActive: 1
--- !u!1 &1744948775768150
GameObject:
  m_ObjectHideFlags: 1
  m_PrefabParentObject: {fileID: 0}
  m_PrefabInternal: {fileID: 100100000}
  serializedVersion: 5
  m_Component:
  - component: {fileID: 4278157042784168}
  m_Layer: 0
  m_Name: mixamorig_LeftForeArm
  m_TagString: Untagged
  m_Icon: {fileID: 0}
  m_NavMeshLayer: 0
  m_StaticEditorFlags: 0
  m_IsActive: 1
--- !u!1 &1749470807632438
GameObject:
  m_ObjectHideFlags: 1
  m_PrefabParentObject: {fileID: 0}
  m_PrefabInternal: {fileID: 100100000}
  serializedVersion: 5
  m_Component:
  - component: {fileID: 4218197020382160}
  m_Layer: 0
  m_Name: mixamorig_LeftHandMiddle2
  m_TagString: Untagged
  m_Icon: {fileID: 0}
  m_NavMeshLayer: 0
  m_StaticEditorFlags: 0
  m_IsActive: 1
--- !u!1 &1754974631370834
GameObject:
  m_ObjectHideFlags: 1
  m_PrefabParentObject: {fileID: 0}
  m_PrefabInternal: {fileID: 100100000}
  serializedVersion: 5
  m_Component:
  - component: {fileID: 4188164368554646}
  m_Layer: 0
  m_Name: mixamorig_RightHandPinky4_end
  m_TagString: Untagged
  m_Icon: {fileID: 0}
  m_NavMeshLayer: 0
  m_StaticEditorFlags: 0
  m_IsActive: 1
--- !u!1 &1781644332610602
GameObject:
  m_ObjectHideFlags: 1
  m_PrefabParentObject: {fileID: 0}
  m_PrefabInternal: {fileID: 100100000}
  serializedVersion: 5
  m_Component:
  - component: {fileID: 4627416859282414}
  m_Layer: 0
  m_Name: mixamorig_LeftHandPinky2
  m_TagString: Untagged
  m_Icon: {fileID: 0}
  m_NavMeshLayer: 0
  m_StaticEditorFlags: 0
  m_IsActive: 1
--- !u!1 &1793013101131522
GameObject:
  m_ObjectHideFlags: 1
  m_PrefabParentObject: {fileID: 0}
  m_PrefabInternal: {fileID: 100100000}
  serializedVersion: 5
  m_Component:
  - component: {fileID: 4106279992904078}
  m_Layer: 0
  m_Name: mixamorig_RightHandIndex1
  m_TagString: Untagged
  m_Icon: {fileID: 0}
  m_NavMeshLayer: 0
  m_StaticEditorFlags: 0
  m_IsActive: 1
--- !u!1 &1821726705058720
GameObject:
  m_ObjectHideFlags: 1
  m_PrefabParentObject: {fileID: 0}
  m_PrefabInternal: {fileID: 100100000}
  serializedVersion: 5
  m_Component:
  - component: {fileID: 4622390604623688}
  m_Layer: 0
  m_Name: mixamorig_RightFoot
  m_TagString: Untagged
  m_Icon: {fileID: 0}
  m_NavMeshLayer: 0
  m_StaticEditorFlags: 0
  m_IsActive: 1
--- !u!1 &1853640863136774
GameObject:
  m_ObjectHideFlags: 1
  m_PrefabParentObject: {fileID: 0}
  m_PrefabInternal: {fileID: 100100000}
  serializedVersion: 5
  m_Component:
  - component: {fileID: 4071840712965176}
  m_Layer: 0
  m_Name: mixamorig_Spine1
  m_TagString: Untagged
  m_Icon: {fileID: 0}
  m_NavMeshLayer: 0
  m_StaticEditorFlags: 0
  m_IsActive: 1
--- !u!1 &1873542563183122
GameObject:
  m_ObjectHideFlags: 1
  m_PrefabParentObject: {fileID: 0}
  m_PrefabInternal: {fileID: 100100000}
  serializedVersion: 5
  m_Component:
  - component: {fileID: 4485065807522870}
  m_Layer: 0
  m_Name: mixamorig_Head
  m_TagString: Untagged
  m_Icon: {fileID: 0}
  m_NavMeshLayer: 0
  m_StaticEditorFlags: 0
  m_IsActive: 1
--- !u!1 &1886903335449876
GameObject:
  m_ObjectHideFlags: 1
  m_PrefabParentObject: {fileID: 0}
  m_PrefabInternal: {fileID: 100100000}
  serializedVersion: 5
  m_Component:
  - component: {fileID: 4186092858610062}
  m_Layer: 0
  m_Name: mixamorig_LeftHandPinky4
  m_TagString: Untagged
  m_Icon: {fileID: 0}
  m_NavMeshLayer: 0
  m_StaticEditorFlags: 0
  m_IsActive: 1
--- !u!1 &1894684811998514
GameObject:
  m_ObjectHideFlags: 1
  m_PrefabParentObject: {fileID: 0}
  m_PrefabInternal: {fileID: 100100000}
  serializedVersion: 5
  m_Component:
  - component: {fileID: 4173491942575620}
  m_Layer: 0
  m_Name: mixamorig_RightHandIndex4_end
  m_TagString: Untagged
  m_Icon: {fileID: 0}
  m_NavMeshLayer: 0
  m_StaticEditorFlags: 0
  m_IsActive: 1
--- !u!1 &1897005551168776
GameObject:
  m_ObjectHideFlags: 1
  m_PrefabParentObject: {fileID: 0}
  m_PrefabInternal: {fileID: 100100000}
  serializedVersion: 5
  m_Component:
  - component: {fileID: 4852865611641646}
  m_Layer: 0
  m_Name: mixamorig_HeadTop_End_end
  m_TagString: Untagged
  m_Icon: {fileID: 0}
  m_NavMeshLayer: 0
  m_StaticEditorFlags: 0
  m_IsActive: 1
--- !u!1 &1920960307725014
GameObject:
  m_ObjectHideFlags: 1
  m_PrefabParentObject: {fileID: 0}
  m_PrefabInternal: {fileID: 100100000}
  serializedVersion: 5
  m_Component:
  - component: {fileID: 4016601607126394}
  m_Layer: 0
  m_Name: mixamorig_LeftHandRing1
  m_TagString: Untagged
  m_Icon: {fileID: 0}
  m_NavMeshLayer: 0
  m_StaticEditorFlags: 0
  m_IsActive: 1
--- !u!1 &1922243702333616
GameObject:
  m_ObjectHideFlags: 1
  m_PrefabParentObject: {fileID: 0}
  m_PrefabInternal: {fileID: 100100000}
  serializedVersion: 5
  m_Component:
  - component: {fileID: 4237962584255668}
  m_Layer: 0
  m_Name: mixamorig_LeftHand
  m_TagString: Untagged
  m_Icon: {fileID: 0}
  m_NavMeshLayer: 0
  m_StaticEditorFlags: 0
  m_IsActive: 1
--- !u!1 &1938211560638178
GameObject:
  m_ObjectHideFlags: 1
  m_PrefabParentObject: {fileID: 0}
  m_PrefabInternal: {fileID: 100100000}
  serializedVersion: 5
  m_Component:
  - component: {fileID: 4078077121161098}
  m_Layer: 0
  m_Name: mixamorig_LeftHandIndex1
  m_TagString: Untagged
  m_Icon: {fileID: 0}
  m_NavMeshLayer: 0
  m_StaticEditorFlags: 0
  m_IsActive: 1
--- !u!1 &1964585310396174
GameObject:
  m_ObjectHideFlags: 1
  m_PrefabParentObject: {fileID: 0}
  m_PrefabInternal: {fileID: 100100000}
  serializedVersion: 5
  m_Component:
  - component: {fileID: 4835732395350038}
  m_Layer: 0
  m_Name: mixamorig_LeftHandIndex4_end
  m_TagString: Untagged
  m_Icon: {fileID: 0}
  m_NavMeshLayer: 0
  m_StaticEditorFlags: 0
  m_IsActive: 1
--- !u!1 &1976623452814638
GameObject:
  m_ObjectHideFlags: 1
  m_PrefabParentObject: {fileID: 0}
  m_PrefabInternal: {fileID: 100100000}
  serializedVersion: 5
  m_Component:
  - component: {fileID: 4310780837362538}
  m_Layer: 0
  m_Name: mixamorig_RightHandMiddle2
  m_TagString: Untagged
  m_Icon: {fileID: 0}
  m_NavMeshLayer: 0
  m_StaticEditorFlags: 0
  m_IsActive: 1
--- !u!1 &1978106395900072
GameObject:
  m_ObjectHideFlags: 1
  m_PrefabParentObject: {fileID: 0}
  m_PrefabInternal: {fileID: 100100000}
  serializedVersion: 5
  m_Component:
  - component: {fileID: 4706955015869810}
  m_Layer: 0
  m_Name: mixamorig_RightHandMiddle1
  m_TagString: Untagged
  m_Icon: {fileID: 0}
  m_NavMeshLayer: 0
  m_StaticEditorFlags: 0
  m_IsActive: 1
--- !u!1 &1986278961374406
GameObject:
  m_ObjectHideFlags: 1
  m_PrefabParentObject: {fileID: 0}
  m_PrefabInternal: {fileID: 100100000}
  serializedVersion: 5
  m_Component:
  - component: {fileID: 4174536787098370}
  m_Layer: 0
  m_Name: mixamorig_RightLeg
  m_TagString: Untagged
  m_Icon: {fileID: 0}
  m_NavMeshLayer: 0
  m_StaticEditorFlags: 0
  m_IsActive: 1
--- !u!1 &1998278387262218
GameObject:
  m_ObjectHideFlags: 1
  m_PrefabParentObject: {fileID: 0}
  m_PrefabInternal: {fileID: 100100000}
  serializedVersion: 5
  m_Component:
  - component: {fileID: 4145034786998714}
  m_Layer: 0
  m_Name: mixamorig_LeftHandMiddle3
  m_TagString: Untagged
  m_Icon: {fileID: 0}
  m_NavMeshLayer: 0
  m_StaticEditorFlags: 0
  m_IsActive: 1
--- !u!4 &4016601607126394
Transform:
  m_ObjectHideFlags: 1
  m_PrefabParentObject: {fileID: 0}
  m_PrefabInternal: {fileID: 100100000}
  m_GameObject: {fileID: 1920960307725014}
  m_LocalRotation: {x: 0.06514435, y: 0.038319573, z: -0.023125581, w: 0.99687165}
  m_LocalPosition: {x: 0.0075384513, y: 0.11203228, z: -0.019173555}
  m_LocalScale: {x: 1, y: 1.0000002, z: 0.9999998}
  m_Children:
  - {fileID: 4485183974669560}
  m_Father: {fileID: 4237962584255668}
  m_RootOrder: 3
  m_LocalEulerAnglesHint: {x: 0, y: 0, z: 0}
--- !u!4 &4022596902215642
Transform:
  m_ObjectHideFlags: 1
  m_PrefabParentObject: {fileID: 0}
  m_PrefabInternal: {fileID: 100100000}
  m_GameObject: {fileID: 1038235663090952}
  m_LocalRotation: {x: -0.000000011864608, y: 0.00744228, z: 0.0000137725665, w: 0.99997234}
  m_LocalPosition: {x: -0.000000018728894, y: 0.032886304, z: 0.000000016338015}
  m_LocalScale: {x: 0.9999997, y: 1.0000004, z: 1.0000001}
  m_Children:
  - {fileID: 4647263794450450}
  m_Father: {fileID: 4827225120279250}
  m_RootOrder: 0
  m_LocalEulerAnglesHint: {x: 0, y: 0, z: 0}
--- !u!4 &4022873354322094
Transform:
  m_ObjectHideFlags: 1
  m_PrefabParentObject: {fileID: 0}
  m_PrefabInternal: {fileID: 100100000}
  m_GameObject: {fileID: 1196346055455138}
  m_LocalRotation: {x: 0, y: -0, z: -0, w: 1}
  m_LocalPosition: {x: -0, y: 0.014809273, z: 0}
  m_LocalScale: {x: 1, y: 1, z: 1}
  m_Children: []
  m_Father: {fileID: 4425212561893764}
  m_RootOrder: 0
  m_LocalEulerAnglesHint: {x: 0, y: 0, z: 0}
--- !u!4 &4042750051727208
Transform:
  m_ObjectHideFlags: 1
  m_PrefabParentObject: {fileID: 0}
  m_PrefabInternal: {fileID: 100100000}
  m_GameObject: {fileID: 1048151808026616}
  m_LocalRotation: {x: -0.0000064119417, y: 0.0048504947, z: 0.0000041446206, w: 0.99998826}
  m_LocalPosition: {x: 0.000000015951807, y: 0.018700086, z: 0.000000028978244}
  m_LocalScale: {x: 0.9999992, y: 0.99999964, z: 1.0000002}
  m_Children:
  - {fileID: 4186092858610062}
  m_Father: {fileID: 4627416859282414}
  m_RootOrder: 0
  m_LocalEulerAnglesHint: {x: 0, y: 0, z: 0}
--- !u!4 &4071840712965176
Transform:
  m_ObjectHideFlags: 1
  m_PrefabParentObject: {fileID: 0}
  m_PrefabInternal: {fileID: 100100000}
  m_GameObject: {fileID: 1853640863136774}
  m_LocalRotation: {x: -0.00000015459956, y: 2.0413227e-11, z: -4.94331e-10, w: 1}
  m_LocalPosition: {x: -5.4541256e-13, y: 0.115196794, z: 0.00000000149068}
  m_LocalScale: {x: 1, y: 0.9999999, z: 0.99999994}
  m_Children:
  - {fileID: 4954154363595446}
  m_Father: {fileID: 4401636839678276}
  m_RootOrder: 0
  m_LocalEulerAnglesHint: {x: 0, y: 0, z: 0}
--- !u!4 &4073230592271686
Transform:
  m_ObjectHideFlags: 1
  m_PrefabParentObject: {fileID: 0}
  m_PrefabInternal: {fileID: 100100000}
  m_GameObject: {fileID: 1378800082175258}
  m_LocalRotation: {x: -0.0000009767429, y: 0.038301025, z: 0.00001990347, w: 0.99926627}
  m_LocalPosition: {x: -0.000000066757195, y: 0.037769176, z: -0.000000058412546}
  m_LocalScale: {x: 1, y: 0.9999997, z: 1.0000001}
  m_Children:
  - {fileID: 4195897282530900}
  m_Father: {fileID: 4234167416724200}
  m_RootOrder: 0
  m_LocalEulerAnglesHint: {x: 0, y: 0, z: 0}
--- !u!4 &4073802395707736
Transform:
  m_ObjectHideFlags: 1
  m_PrefabParentObject: {fileID: 0}
  m_PrefabInternal: {fileID: 100100000}
  m_GameObject: {fileID: 1463151604687914}
  m_LocalRotation: {x: 0, y: 1, z: 0, w: 0}
  m_LocalPosition: {x: 1.47, y: 0, z: 0}
  m_LocalScale: {x: 1, y: 1, z: 1}
  m_Children:
  - {fileID: 4077174448692400}
  - {fileID: 4603144638243128}
  - {fileID: 4877426866436878}
  - {fileID: 4568174307971624}
  - {fileID: 4996109160097180}
  m_Father: {fileID: 0}
  m_RootOrder: 0
  m_LocalEulerAnglesHint: {x: 0, y: 180, z: 0}
--- !u!4 &4077174448692400
Transform:
  m_ObjectHideFlags: 1
  m_PrefabParentObject: {fileID: 0}
  m_PrefabInternal: {fileID: 100100000}
  m_GameObject: {fileID: 1393302855500440}
  m_LocalRotation: {x: 0.000000021855694, y: -1.1102232e-16, z: 1.1102232e-16, w: 1}
  m_LocalPosition: {x: -0, y: 0, z: 0}
  m_LocalScale: {x: 1, y: 1, z: 1}
  m_Children:
  - {fileID: 4571984202997256}
  m_Father: {fileID: 4073802395707736}
  m_RootOrder: 0
  m_LocalEulerAnglesHint: {x: 0, y: 0, z: 0}
--- !u!4 &4078077121161098
Transform:
  m_ObjectHideFlags: 1
  m_PrefabParentObject: {fileID: 0}
  m_PrefabInternal: {fileID: 100100000}
  m_GameObject: {fileID: 1938211560638178}
  m_LocalRotation: {x: 0.06238402, y: -0.06579242, z: -0.029771518, w: 0.99543625}
  m_LocalPosition: {x: -0.0012221105, y: 0.119172886, z: 0.0438884}
  m_LocalScale: {x: 0.9999999, y: 0.9999997, z: 1.000001}
  m_Children:
  - {fileID: 4827225120279250}
  m_Father: {fileID: 4237962584255668}
  m_RootOrder: 0
  m_LocalEulerAnglesHint: {x: 0, y: 0, z: 0}
--- !u!4 &4093699556489434
Transform:
  m_ObjectHideFlags: 1
  m_PrefabParentObject: {fileID: 0}
  m_PrefabInternal: {fileID: 100100000}
  m_GameObject: {fileID: 1523367766256278}
  m_LocalRotation: {x: -0.0000000018868187, y: 0.000000017228228, z: 0.0000017041004,
    w: 1}
  m_LocalPosition: {x: 0.000000102357866, y: 0.029494029, z: -5.7756544e-10}
  m_LocalScale: {x: 1, y: 1, z: 1}
  m_Children:
  - {fileID: 4167817827283622}
  m_Father: {fileID: 4603974934929680}
  m_RootOrder: 0
  m_LocalEulerAnglesHint: {x: 0, y: 0, z: 0}
--- !u!4 &4106279992904078
Transform:
  m_ObjectHideFlags: 1
  m_PrefabParentObject: {fileID: 0}
  m_PrefabInternal: {fileID: 100100000}
  m_GameObject: {fileID: 1793013101131522}
  m_LocalRotation: {x: 0.06939646, y: 0.06833754, z: 0.031505022, w: 0.994747}
  m_LocalPosition: {x: 0.0002156906, y: 0.123301, z: 0.045420002}
  m_LocalScale: {x: 1, y: 0.99999934, z: 0.9999993}
  m_Children:
  - {fileID: 4770411700574020}
  m_Father: {fileID: 4343231954669058}
  m_RootOrder: 0
  m_LocalEulerAnglesHint: {x: 0, y: 0, z: 0}
--- !u!4 &4115639341145446
Transform:
  m_ObjectHideFlags: 1
  m_PrefabParentObject: {fileID: 0}
  m_PrefabInternal: {fileID: 100100000}
  m_GameObject: {fileID: 1627430221265034}
  m_LocalRotation: {x: 0.00000090152037, y: 1.7763568e-15, z: -1.3171686e-12, w: 1}
  m_LocalPosition: {x: -2.2168931e-13, y: 0.2526566, z: -0.00000004768264}
  m_LocalScale: {x: 1, y: 0.99999994, z: 0.99999994}
  m_Children:
  - {fileID: 4852865611641646}
  m_Father: {fileID: 4485065807522870}
  m_RootOrder: 0
  m_LocalEulerAnglesHint: {x: 0, y: 0, z: 0}
--- !u!4 &4143504755296940
Transform:
  m_ObjectHideFlags: 1
  m_PrefabParentObject: {fileID: 0}
  m_PrefabInternal: {fileID: 100100000}
  m_GameObject: {fileID: 1452928927583112}
  m_LocalRotation: {x: 0.06604029, y: 0.07851721, z: -0.020476745, w: 0.9945122}
  m_LocalPosition: {x: -0.0021949278, y: 0.099671274, z: -0.049975924}
  m_LocalScale: {x: 1.0000012, y: 0.99999994, z: 0.999999}
  m_Children:
  - {fileID: 4627416859282414}
  m_Father: {fileID: 4237962584255668}
  m_RootOrder: 2
  m_LocalEulerAnglesHint: {x: 0, y: 0, z: 0}
--- !u!4 &4145034786998714
Transform:
  m_ObjectHideFlags: 1
  m_PrefabParentObject: {fileID: 0}
  m_PrefabInternal: {fileID: 100100000}
  m_GameObject: {fileID: 1998278387262218}
  m_LocalRotation: {x: 0.000018412, y: 0.002940018, z: -0.0000058634846, w: 0.9999957}
  m_LocalPosition: {x: -0.000000029351792, y: 0.03536091, z: -0.0000000026437916}
  m_LocalScale: {x: 1.0000001, y: 0.9999996, z: 0.99999946}
  m_Children:
  - {fileID: 4596332881035920}
  m_Father: {fileID: 4218197020382160}
  m_RootOrder: 0
  m_LocalEulerAnglesHint: {x: 0, y: 0, z: 0}
--- !u!4 &4148021466559956
Transform:
  m_ObjectHideFlags: 1
  m_PrefabParentObject: {fileID: 0}
  m_PrefabInternal: {fileID: 100100000}
  m_GameObject: {fileID: 1410018675196408}
  m_LocalRotation: {x: 0, y: -0, z: -0, w: 1}
  m_LocalPosition: {x: -0, y: 0.014809258, z: 0}
  m_LocalScale: {x: 1, y: 1, z: 1}
  m_Children: []
  m_Father: {fileID: 4596332881035920}
  m_RootOrder: 0
  m_LocalEulerAnglesHint: {x: 0, y: 0, z: 0}
--- !u!4 &4156584673184032
Transform:
  m_ObjectHideFlags: 1
  m_PrefabParentObject: {fileID: 0}
  m_PrefabInternal: {fileID: 100100000}
  m_GameObject: {fileID: 1562845063210542}
  m_LocalRotation: {x: 0, y: -0, z: -0, w: 1}
  m_LocalPosition: {x: -0, y: 0.014809267, z: 0}
  m_LocalScale: {x: 1, y: 1, z: 1}
  m_Children: []
  m_Father: {fileID: 4186092858610062}
  m_RootOrder: 0
  m_LocalEulerAnglesHint: {x: 0, y: 0, z: 0}
--- !u!4 &4167817827283622
Transform:
  m_ObjectHideFlags: 1
  m_PrefabParentObject: {fileID: 0}
  m_PrefabInternal: {fileID: 100100000}
  m_GameObject: {fileID: 1599760003184388}
  m_LocalRotation: {x: 0, y: -0, z: -0, w: 1}
  m_LocalPosition: {x: -0, y: 0.014809202, z: 0}
  m_LocalScale: {x: 1, y: 1, z: 1}
  m_Children: []
  m_Father: {fileID: 4093699556489434}
  m_RootOrder: 0
  m_LocalEulerAnglesHint: {x: 0, y: 0, z: 0}
--- !u!4 &4168825345120646
Transform:
  m_ObjectHideFlags: 1
  m_PrefabParentObject: {fileID: 0}
  m_PrefabInternal: {fileID: 100100000}
  m_GameObject: {fileID: 1138866459462816}
  m_LocalRotation: {x: 0, y: -0, z: -0, w: 1}
  m_LocalPosition: {x: -0, y: 0.01480922, z: 0}
  m_LocalScale: {x: 1, y: 1, z: 1}
  m_Children: []
  m_Father: {fileID: 4617970663596744}
  m_RootOrder: 0
  m_LocalEulerAnglesHint: {x: 0, y: 0, z: 0}
--- !u!4 &4173491942575620
Transform:
  m_ObjectHideFlags: 1
  m_PrefabParentObject: {fileID: 0}
  m_PrefabInternal: {fileID: 100100000}
  m_GameObject: {fileID: 1894684811998514}
  m_LocalRotation: {x: 0, y: -0, z: -0, w: 1}
  m_LocalPosition: {x: -0, y: 0.014809209, z: 0}
  m_LocalScale: {x: 1, y: 1, z: 1}
  m_Children: []
  m_Father: {fileID: 4966352535205892}
  m_RootOrder: 0
  m_LocalEulerAnglesHint: {x: 0, y: 0, z: 0}
--- !u!4 &4174536787098370
Transform:
  m_ObjectHideFlags: 1
  m_PrefabParentObject: {fileID: 0}
  m_PrefabInternal: {fileID: 100100000}
  m_GameObject: {fileID: 1986278961374406}
  m_LocalRotation: {x: 0.025223475, y: 0.9195854, z: -0.0372202, w: -0.39030907}
  m_LocalPosition: {x: -0.0000000037252899, y: 0.4313017, z: 2.980232e-10}
  m_LocalScale: {x: 0.99999964, y: 1.000001, z: 1.0000001}
  m_Children:
  - {fileID: 4622390604623688}
  m_Father: {fileID: 4935464440052736}
  m_RootOrder: 0
  m_LocalEulerAnglesHint: {x: 0, y: 0, z: 0}
--- !u!4 &4174609812466220
Transform:
  m_ObjectHideFlags: 1
  m_PrefabParentObject: {fileID: 0}
  m_PrefabInternal: {fileID: 100100000}
  m_GameObject: {fileID: 1183724619387884}
  m_LocalRotation: {x: -0.032338545, y: 0.9724184, z: -0.039002653, w: 0.22767413}
  m_LocalPosition: {x: 8.940696e-10, y: 0.43132097, z: -0.0000000029802318}
  m_LocalScale: {x: 0.9999997, y: 0.9999997, z: 1.0000008}
  m_Children:
  - {fileID: 4704868180370540}
  m_Father: {fileID: 4787924537060468}
  m_RootOrder: 0
  m_LocalEulerAnglesHint: {x: 0, y: 0, z: 0}
--- !u!4 &4186092858610062
Transform:
  m_ObjectHideFlags: 1
  m_PrefabParentObject: {fileID: 0}
  m_PrefabInternal: {fileID: 100100000}
  m_GameObject: {fileID: 1886903335449876}
  m_LocalRotation: {x: -0.000000010061558, y: -0.00000018626999, z: 0.0000010238136,
    w: 1}
  m_LocalPosition: {x: 0.000000057466305, y: 0.015085347, z: 0.000000014511168}
  m_LocalScale: {x: 0.99999994, y: 0.99999994, z: 0.99999994}
  m_Children:
  - {fileID: 4156584673184032}
  m_Father: {fileID: 4042750051727208}
  m_RootOrder: 0
  m_LocalEulerAnglesHint: {x: 0, y: 0, z: 0}
--- !u!4 &4188164368554646
Transform:
  m_ObjectHideFlags: 1
  m_PrefabParentObject: {fileID: 0}
  m_PrefabInternal: {fileID: 100100000}
  m_GameObject: {fileID: 1754974631370834}
  m_LocalRotation: {x: 0, y: -0, z: -0, w: 1}
  m_LocalPosition: {x: -0, y: 0.01480922, z: 0}
  m_LocalScale: {x: 1, y: 1, z: 1}
  m_Children: []
  m_Father: {fileID: 4781257983521274}
  m_RootOrder: 0
  m_LocalEulerAnglesHint: {x: 0, y: 0, z: 0}
--- !u!4 &4195897282530900
Transform:
  m_ObjectHideFlags: 1
  m_PrefabParentObject: {fileID: 0}
  m_PrefabInternal: {fileID: 100100000}
  m_GameObject: {fileID: 1206309897082106}
  m_LocalRotation: {x: 0.00000064556644, y: 0.121937096, z: -0.000013616504, w: 0.99253786}
  m_LocalPosition: {x: 0.000000008344649, y: 0.03660317, z: -0.000000050067896}
  m_LocalScale: {x: 0.9999995, y: 0.9999994, z: 1.0000006}
  m_Children:
  - {fileID: 4248518527262580}
  m_Father: {fileID: 4073230592271686}
  m_RootOrder: 0
  m_LocalEulerAnglesHint: {x: 0, y: 0, z: 0}
--- !u!4 &4218197020382160
Transform:
  m_ObjectHideFlags: 1
  m_PrefabParentObject: {fileID: 0}
  m_PrefabInternal: {fileID: 100100000}
  m_GameObject: {fileID: 1749470807632438}
  m_LocalRotation: {x: 0.0000026401271, y: -0.00049776846, z: 0.0000069312814, w: 0.9999999}
  m_LocalPosition: {x: 0.00000012274616, y: 0.035936777, z: 0.000000003064051}
  m_LocalScale: {x: 1.0000002, y: 0.99999976, z: 1.0000001}
  m_Children:
  - {fileID: 4145034786998714}
  m_Father: {fileID: 4441625903472076}
  m_RootOrder: 0
  m_LocalEulerAnglesHint: {x: 0, y: 0, z: 0}
--- !u!4 &4224731016930542
Transform:
  m_ObjectHideFlags: 1
  m_PrefabParentObject: {fileID: 0}
  m_PrefabInternal: {fileID: 100100000}
  m_GameObject: {fileID: 1479878661931322}
  m_LocalRotation: {x: -0.36830434, y: -0.016156292, z: 0.08026023, w: 0.9260935}
  m_LocalPosition: {x: -0.000000006835907, y: 0.18184917, z: 0.0000000012665986}
  m_LocalScale: {x: 0.99999976, y: 0.9999995, z: 1.0000008}
  m_Children:
  - {fileID: 4959981588302044}
  m_Father: {fileID: 4622390604623688}
  m_RootOrder: 0
  m_LocalEulerAnglesHint: {x: 0, y: 0, z: 0}
--- !u!4 &4234167416724200
Transform:
  m_ObjectHideFlags: 1
  m_PrefabParentObject: {fileID: 0}
  m_PrefabInternal: {fileID: 100100000}
  m_GameObject: {fileID: 1258502328086718}
  m_LocalRotation: {x: 0.35760045, y: -0.39215937, z: 0.07583846, w: 0.8441454}
  m_LocalPosition: {x: -0.022347556, y: 0.03198924, z: 0.026573591}
  m_LocalScale: {x: 0.99999946, y: 1.0000002, z: 0.9999999}
  m_Children:
  - {fileID: 4073230592271686}
  m_Father: {fileID: 4237962584255668}
  m_RootOrder: 4
  m_LocalEulerAnglesHint: {x: 0, y: 0, z: 0}
--- !u!4 &4237962584255668
Transform:
  m_ObjectHideFlags: 1
  m_PrefabParentObject: {fileID: 0}
  m_PrefabInternal: {fileID: 100100000}
  m_GameObject: {fileID: 1922243702333616}
  m_LocalRotation: {x: -0.06386827, y: 0.0133678615, z: 0.026471008, w: 0.99751765}
  m_LocalPosition: {x: -0.00000011326504, y: 0.22896373, z: 0.0000000028503562}
  m_LocalScale: {x: 1.0000008, y: 0.9999994, z: 1}
  m_Children:
  - {fileID: 4078077121161098}
  - {fileID: 4441625903472076}
  - {fileID: 4143504755296940}
  - {fileID: 4016601607126394}
  - {fileID: 4234167416724200}
  m_Father: {fileID: 4278157042784168}
  m_RootOrder: 0
  m_LocalEulerAnglesHint: {x: 0, y: 0, z: 0}
--- !u!4 &4248518527262580
Transform:
  m_ObjectHideFlags: 1
  m_PrefabParentObject: {fileID: 0}
  m_PrefabInternal: {fileID: 100100000}
  m_GameObject: {fileID: 1239911318053310}
  m_LocalRotation: {x: 0.0000007264316, y: -0.0000006891787, z: 0.00000041723254,
    w: 1}
  m_LocalPosition: {x: -0.000000011920927, y: 0.029420702, z: -0.000000016689299}
  m_LocalScale: {x: 0.99999994, y: 0.9999999, z: 1.0000001}
  m_Children:
  - {fileID: 4458076339058320}
  m_Father: {fileID: 4195897282530900}
  m_RootOrder: 0
  m_LocalEulerAnglesHint: {x: 0, y: 0, z: 0}
--- !u!4 &4278157042784168
Transform:
  m_ObjectHideFlags: 1
  m_PrefabParentObject: {fileID: 0}
  m_PrefabInternal: {fileID: 100100000}
  m_GameObject: {fileID: 1744948775768150}
  m_LocalRotation: {x: -0.0000014256067, y: -0.015925918, z: 0.0000019192707, w: 0.9998732}
  m_LocalPosition: {x: -0.00000016734562, y: 0.23395173, z: -9.952054e-10}
  m_LocalScale: {x: 0.9999992, y: 1, z: 0.99999964}
  m_Children:
  - {fileID: 4237962584255668}
  m_Father: {fileID: 4696308894851992}
  m_RootOrder: 0
  m_LocalEulerAnglesHint: {x: 0, y: 0, z: 0}
--- !u!4 &4297808330285564
Transform:
  m_ObjectHideFlags: 1
  m_PrefabParentObject: {fileID: 0}
  m_PrefabInternal: {fileID: 100100000}
  m_GameObject: {fileID: 1108563110177508}
  m_LocalRotation: {x: 0, y: -0, z: -0, w: 1}
  m_LocalPosition: {x: -0, y: 0.014809188, z: 0}
  m_LocalScale: {x: 1, y: 1, z: 1}
  m_Children: []
  m_Father: {fileID: 4479625713155012}
  m_RootOrder: 0
  m_LocalEulerAnglesHint: {x: 0, y: 0, z: 0}
--- !u!4 &4307140484506624
Transform:
  m_ObjectHideFlags: 1
  m_PrefabParentObject: {fileID: 0}
  m_PrefabInternal: {fileID: 100100000}
  m_GameObject: {fileID: 1215149341263202}
  m_LocalRotation: {x: -0.0015782106, y: -0.000072252304, z: 0.16393977, w: 0.9864691}
  m_LocalPosition: {x: -0.000000052456738, y: 0.16263099, z: -0.0000000016391275}
  m_LocalScale: {x: 1.0000005, y: 1.0000004, z: 0.9999995}
  m_Children:
  - {fileID: 4542486972874576}
  m_Father: {fileID: 4777509547481520}
  m_RootOrder: 0
  m_LocalEulerAnglesHint: {x: 0, y: 0, z: 0}
--- !u!4 &4310780837362538
Transform:
  m_ObjectHideFlags: 1
  m_PrefabParentObject: {fileID: 0}
  m_PrefabInternal: {fileID: 100100000}
  m_GameObject: {fileID: 1976623452814638}
  m_LocalRotation: {x: -0.0000064829574, y: -0.00070668914, z: 0.0000132860405, w: 0.99999976}
  m_LocalPosition: {x: -0.00000010047947, y: 0.037037324, z: 0.0000000010133953}
  m_LocalScale: {x: 0.9999997, y: 1.0000005, z: 0.9999998}
  m_Children:
  - {fileID: 4603974934929680}
  m_Father: {fileID: 4706955015869810}
  m_RootOrder: 0
  m_LocalEulerAnglesHint: {x: 0, y: 0, z: 0}
--- !u!4 &4313111626612694
Transform:
  m_ObjectHideFlags: 1
  m_PrefabParentObject: {fileID: 0}
  m_PrefabInternal: {fileID: 100100000}
  m_GameObject: {fileID: 1626647725738390}
  m_LocalRotation: {x: 0.0000099527815, y: 0.0057078986, z: 0.0000032901296, w: 0.9999837}
  m_LocalPosition: {x: -0.00000012931238, y: 0.030569138, z: 1.0841176e-10}
  m_LocalScale: {x: 0.99999976, y: 0.9999996, z: 0.99999946}
  m_Children:
  - {fileID: 4425212561893764}
  m_Father: {fileID: 4485183974669560}
  m_RootOrder: 0
  m_LocalEulerAnglesHint: {x: 0, y: 0, z: 0}
--- !u!4 &4343231954669058
Transform:
  m_ObjectHideFlags: 1
  m_PrefabParentObject: {fileID: 0}
  m_PrefabInternal: {fileID: 100100000}
  m_GameObject: {fileID: 1001298096064618}
  m_LocalRotation: {x: -0.070955254, y: -0.0160452, z: -0.02782838, w: 0.99696213}
  m_LocalPosition: {x: -0.00000027914876, y: 0.22896674, z: -0.0000000019281285}
  m_LocalScale: {x: 0.99999976, y: 0.9999994, z: 1.0000004}
  m_Children:
  - {fileID: 4106279992904078}
  - {fileID: 4706955015869810}
  - {fileID: 4716733258071596}
  - {fileID: 4404240530038980}
  - {fileID: 4475865333737130}
  m_Father: {fileID: 4542486972874576}
  m_RootOrder: 0
  m_LocalEulerAnglesHint: {x: 0, y: 0, z: 0}
--- !u!4 &4347793824084298
Transform:
  m_ObjectHideFlags: 1
  m_PrefabParentObject: {fileID: 0}
  m_PrefabInternal: {fileID: 100100000}
  m_GameObject: {fileID: 1371373758829242}
  m_LocalRotation: {x: 0.22545518, y: 1.8191526e-11, z: -1.9791674e-10, w: 0.9742536}
  m_LocalPosition: {x: -2.2701838e-12, y: 0.1481099, z: -0.00000007390919}
  m_LocalScale: {x: 1, y: 1.0000001, z: 1}
  m_Children:
  - {fileID: 4485065807522870}
  m_Father: {fileID: 4954154363595446}
  m_RootOrder: 1
  m_LocalEulerAnglesHint: {x: 0, y: 0, z: 0}
--- !u!4 &4401636839678276
Transform:
  m_ObjectHideFlags: 1
  m_PrefabParentObject: {fileID: 0}
  m_PrefabInternal: {fileID: 100100000}
  m_GameObject: {fileID: 1670967427682786}
  m_LocalRotation: {x: -0.00000030361235, y: 0.0000030372496, z: -0.000024413112,
    w: 1}
  m_LocalPosition: {x: 3.712102e-11, y: 0.09874025, z: -0.000000005913829}
  m_LocalScale: {x: 1, y: 1, z: 0.99999994}
  m_Children:
  - {fileID: 4071840712965176}
  m_Father: {fileID: 4571984202997256}
  m_RootOrder: 2
  m_LocalEulerAnglesHint: {x: 0, y: 0, z: 0}
--- !u!4 &4404240530038980
Transform:
  m_ObjectHideFlags: 1
  m_PrefabParentObject: {fileID: 0}
  m_PrefabInternal: {fileID: 100100000}
  m_GameObject: {fileID: 1099309352483500}
  m_LocalRotation: {x: 0.07223104, y: -0.032825436, z: 0.024301624, w: 0.99655133}
  m_LocalPosition: {x: -0.007794067, y: 0.115161814, z: -0.018389493}
  m_LocalScale: {x: 0.99999917, y: 1.0000005, z: 0.99999994}
  m_Children:
  - {fileID: 4685015940792200}
  m_Father: {fileID: 4343231954669058}
  m_RootOrder: 3
  m_LocalEulerAnglesHint: {x: 0, y: 0, z: 0}
--- !u!4 &4425212561893764
Transform:
  m_ObjectHideFlags: 1
  m_PrefabParentObject: {fileID: 0}
  m_PrefabInternal: {fileID: 100100000}
  m_GameObject: {fileID: 1719920239780188}
  m_LocalRotation: {x: -0.000000045279656, y: -0.00000008939226, z: 0.0000016929391,
    w: 1}
  m_LocalPosition: {x: -0.00000013292184, y: 0.024810331, z: -0.000000010828952}
  m_LocalScale: {x: 1, y: 1, z: 1}
  m_Children:
  - {fileID: 4022873354322094}
  m_Father: {fileID: 4313111626612694}
  m_RootOrder: 0
  m_LocalEulerAnglesHint: {x: 0, y: 0, z: 0}
--- !u!4 &4441625903472076
Transform:
  m_ObjectHideFlags: 1
  m_PrefabParentObject: {fileID: 0}
  m_PrefabInternal: {fileID: 100100000}
  m_GameObject: {fileID: 1391427601557266}
  m_LocalRotation: {x: 0.06435179, y: 0.005563609, z: -0.025254847, w: 0.99759215}
  m_LocalPosition: {x: 0.006138088, y: 0.11896234, z: 0.0153901735}
  m_LocalScale: {x: 0.99999964, y: 1.0000002, z: 1.0000001}
  m_Children:
  - {fileID: 4218197020382160}
  m_Father: {fileID: 4237962584255668}
  m_RootOrder: 1
  m_LocalEulerAnglesHint: {x: 0, y: 0, z: 0}
--- !u!4 &4458076339058320
Transform:
  m_ObjectHideFlags: 1
  m_PrefabParentObject: {fileID: 0}
  m_PrefabInternal: {fileID: 100100000}
  m_GameObject: {fileID: 1005740245123644}
  m_LocalRotation: {x: 0, y: -0, z: -0, w: 1}
  m_LocalPosition: {x: -0, y: 0.014809205, z: 0}
  m_LocalScale: {x: 1, y: 1, z: 1}
  m_Children: []
  m_Father: {fileID: 4248518527262580}
  m_RootOrder: 0
  m_LocalEulerAnglesHint: {x: 0, y: 0, z: 0}
--- !u!4 &4475865333737130
Transform:
  m_ObjectHideFlags: 1
  m_PrefabParentObject: {fileID: 0}
  m_PrefabInternal: {fileID: 100100000}
  m_GameObject: {fileID: 1332413541648686}
  m_LocalRotation: {x: 0.3636373, y: 0.40533718, z: -0.068474695, w: 0.8359312}
  m_LocalPosition: {x: 0.022332234, y: 0.031399727, z: 0.027364913}
  m_LocalScale: {x: 1.0000026, y: 0.9999993, z: 0.9999989}
  m_Children:
  - {fileID: 4691709167340362}
  m_Father: {fileID: 4343231954669058}
  m_RootOrder: 4
  m_LocalEulerAnglesHint: {x: 0, y: 0, z: 0}
--- !u!4 &4479625713155012
Transform:
  m_ObjectHideFlags: 1
  m_PrefabParentObject: {fileID: 0}
  m_PrefabInternal: {fileID: 100100000}
  m_GameObject: {fileID: 1556230149876320}
  m_LocalRotation: {x: -0.00000086799264, y: 0.00000031711537, z: 0.0000012712554,
    w: 1}
  m_LocalPosition: {x: -0.000000045299526, y: 0.03244996, z: -0.00000009775161}
  m_LocalScale: {x: 0.99999994, y: 1.0000001, z: 0.99999994}
  m_Children:
  - {fileID: 4297808330285564}
  m_Father: {fileID: 4728873188062766}
  m_RootOrder: 0
  m_LocalEulerAnglesHint: {x: 0, y: 0, z: 0}
--- !u!4 &4485065807522870
Transform:
  m_ObjectHideFlags: 1
  m_PrefabParentObject: {fileID: 0}
  m_PrefabInternal: {fileID: 100100000}
  m_GameObject: {fileID: 1873542563183122}
  m_LocalRotation: {x: 0.0000005811453, y: 3.9324988e-11, z: 2.0879477e-10, w: 1}
  m_LocalPosition: {x: -8.1744377e-13, y: 0.04630852, z: -0.00000001817834}
  m_LocalScale: {x: 1, y: 0.99999994, z: 1}
  m_Children:
  - {fileID: 4115639341145446}
  m_Father: {fileID: 4347793824084298}
  m_RootOrder: 0
  m_LocalEulerAnglesHint: {x: 0, y: 0, z: 0}
--- !u!4 &4485183974669560
Transform:
  m_ObjectHideFlags: 1
  m_PrefabParentObject: {fileID: 0}
  m_PrefabInternal: {fileID: 100100000}
  m_GameObject: {fileID: 1038097618402620}
  m_LocalRotation: {x: 0.000009447735, y: 0.00061838556, z: -0.000004729707, w: 0.9999998}
  m_LocalPosition: {x: -0.00000017188255, y: 0.03106465, z: -0.0000000065821215}
  m_LocalScale: {x: 1, y: 0.99999917, z: 0.9999994}
  m_Children:
  - {fileID: 4313111626612694}
  m_Father: {fileID: 4016601607126394}
  m_RootOrder: 0
  m_LocalEulerAnglesHint: {x: 0, y: 0, z: 0}
--- !u!4 &4542486972874576
Transform:
  m_ObjectHideFlags: 1
  m_PrefabParentObject: {fileID: 0}
  m_PrefabInternal: {fileID: 100100000}
  m_GameObject: {fileID: 1092169836555392}
  m_LocalRotation: {x: -0.0000021755836, y: 0.012295682, z: 0.0000016604997, w: 0.9999244}
  m_LocalPosition: {x: -0.00000007880342, y: 0.23395066, z: -1.440577e-10}
  m_LocalScale: {x: 0.99999994, y: 0.99999994, z: 1}
  m_Children:
  - {fileID: 4343231954669058}
  m_Father: {fileID: 4307140484506624}
  m_RootOrder: 0
  m_LocalEulerAnglesHint: {x: 0, y: 0, z: 0}
--- !u!4 &4568174307971624
Transform:
  m_ObjectHideFlags: 1
  m_PrefabParentObject: {fileID: 0}
  m_PrefabInternal: {fileID: 100100000}
  m_GameObject: {fileID: 1516040813485354}
  m_LocalRotation: {x: 0.000000021855698, y: -2.2204463e-16, z: 2.2204466e-16, w: 1}
  m_LocalPosition: {x: -4.57154e-19, y: 5.808598e-10, z: 0.0020588376}
  m_LocalScale: {x: 1, y: 1, z: 1}
  m_Children: []
  m_Father: {fileID: 4073802395707736}
  m_RootOrder: 3
  m_LocalEulerAnglesHint: {x: 0, y: 0, z: 0}
--- !u!4 &4569796752813800
Transform:
  m_ObjectHideFlags: 1
  m_PrefabParentObject: {fileID: 0}
  m_PrefabInternal: {fileID: 100100000}
  m_GameObject: {fileID: 1496229058882812}
  m_LocalRotation: {x: 0.00003100766, y: 0.00021802593, z: -0.000057224897, w: 1}
  m_LocalPosition: {x: -0.00000004909001, y: 0.022100512, z: 0.000000016500707}
  m_LocalScale: {x: 0.99999857, y: 0.9999989, z: 0.99999994}
  m_Children:
  - {fileID: 4851101280585664}
  m_Father: {fileID: 4716733258071596}
  m_RootOrder: 0
  m_LocalEulerAnglesHint: {x: 0, y: 0, z: 0}
--- !u!4 &4571984202997256
Transform:
  m_ObjectHideFlags: 1
  m_PrefabParentObject: {fileID: 0}
  m_PrefabInternal: {fileID: 100100000}
  m_GameObject: {fileID: 1432770101534424}
  m_LocalRotation: {x: -0.042448774, y: -0.0000020391055, z: 0.000024435467, w: 0.99909866}
  m_LocalPosition: {x: -0.0000027799977, y: 0.99336004, z: 0.021480193}
  m_LocalScale: {x: 1, y: 1.0000001, z: 0.99999994}
  m_Children:
  - {fileID: 4787924537060468}
  - {fileID: 4935464440052736}
  - {fileID: 4401636839678276}
  m_Father: {fileID: 4077174448692400}
  m_RootOrder: 0
  m_LocalEulerAnglesHint: {x: 0, y: 0, z: 0}
--- !u!4 &4596332881035920
Transform:
  m_ObjectHideFlags: 1
  m_PrefabParentObject: {fileID: 0}
  m_PrefabInternal: {fileID: 100100000}
  m_GameObject: {fileID: 1136807232324124}
  m_LocalRotation: {x: 0.000000014148908, y: 9.537128e-10, z: 0.0000018562426, w: 1}
  m_LocalPosition: {x: 0.000000066953646, y: 0.029307285, z: -0.0000000013550742}
  m_LocalScale: {x: 1, y: 0.9999999, z: 1}
  m_Children:
  - {fileID: 4148021466559956}
  m_Father: {fileID: 4145034786998714}
  m_RootOrder: 0
  m_LocalEulerAnglesHint: {x: 0, y: 0, z: 0}
--- !u!4 &4603144638243128
Transform:
  m_ObjectHideFlags: 1
  m_PrefabParentObject: {fileID: 0}
  m_PrefabInternal: {fileID: 100100000}
  m_GameObject: {fileID: 1076067843588616}
  m_LocalRotation: {x: 0.000000021855694, y: -1.1102232e-16, z: 1.1102232e-16, w: 1}
  m_LocalPosition: {x: -0, y: 0, z: 0}
  m_LocalScale: {x: 1, y: 1, z: 1}
  m_Children: []
  m_Father: {fileID: 4073802395707736}
  m_RootOrder: 1
  m_LocalEulerAnglesHint: {x: 0, y: 0, z: 0}
--- !u!4 &4603974934929680
Transform:
  m_ObjectHideFlags: 1
  m_PrefabParentObject: {fileID: 0}
  m_PrefabInternal: {fileID: 100100000}
  m_GameObject: {fileID: 1595312387275660}
  m_LocalRotation: {x: 0.0000026884604, y: 0.00015180124, z: -0.000011571583, w: 1}
  m_LocalPosition: {x: -0.000000026875638, y: 0.033765785, z: -2.6775521e-11}
  m_LocalScale: {x: 0.9999992, y: 0.99999934, z: 0.9999999}
  m_Children:
  - {fileID: 4093699556489434}
  m_Father: {fileID: 4310780837362538}
  m_RootOrder: 0
  m_LocalEulerAnglesHint: {x: 0, y: 0, z: 0}
--- !u!4 &4617970663596744
Transform:
  m_ObjectHideFlags: 1
  m_PrefabParentObject: {fileID: 0}
  m_PrefabInternal: {fileID: 100100000}
  m_GameObject: {fileID: 1275687509924256}
  m_LocalRotation: {x: -0.0000000053551044, y: 0.00000010081567, z: 0.00000007922063,
    w: 1}
  m_LocalPosition: {x: -0.0000000055813136, y: 0.06736669, z: 0.0000000016490228}
  m_LocalScale: {x: 1, y: 1, z: 1}
  m_Children:
  - {fileID: 4168825345120646}
  m_Father: {fileID: 4752689631347542}
  m_RootOrder: 0
  m_LocalEulerAnglesHint: {x: 0, y: 0, z: 0}
--- !u!4 &4622390604623688
Transform:
  m_ObjectHideFlags: 1
  m_PrefabParentObject: {fileID: 0}
  m_PrefabInternal: {fileID: 100100000}
  m_GameObject: {fileID: 1821726705058720}
  m_LocalRotation: {x: -0.3722566, y: -0.6088878, z: -0.19330378, w: 0.67328626}
  m_LocalPosition: {x: 0.0000000011920928, y: 0.3798008, z: -0.0000000059604637}
  m_LocalScale: {x: 0.99999964, y: 0.9999996, z: 0.99999905}
  m_Children:
  - {fileID: 4224731016930542}
  m_Father: {fileID: 4174536787098370}
  m_RootOrder: 0
  m_LocalEulerAnglesHint: {x: 0, y: 0, z: 0}
--- !u!4 &4627416859282414
Transform:
  m_ObjectHideFlags: 1
  m_PrefabParentObject: {fileID: 0}
  m_PrefabInternal: {fileID: 100100000}
  m_GameObject: {fileID: 1781644332610602}
  m_LocalRotation: {x: -0.0000071073123, y: 0.0027248072, z: -0.0000084321455, w: 0.9999963}
  m_LocalPosition: {x: -0.000000052708778, y: 0.022182161, z: 0.000000009635695}
  m_LocalScale: {x: 0.9999997, y: 1.0000004, z: 0.99999976}
  m_Children:
  - {fileID: 4042750051727208}
  m_Father: {fileID: 4143504755296940}
  m_RootOrder: 0
  m_LocalEulerAnglesHint: {x: 0, y: 0, z: 0}
--- !u!4 &4647263794450450
Transform:
  m_ObjectHideFlags: 1
  m_PrefabParentObject: {fileID: 0}
  m_PrefabInternal: {fileID: 100100000}
  m_GameObject: {fileID: 1650541821269056}
  m_LocalRotation: {x: -0.00000027167576, y: 0.00000004470013, z: -0.0000015721992,
    w: 1}
  m_LocalPosition: {x: -0.00000007981368, y: 0.028853767, z: -0.0000000020352307}
  m_LocalScale: {x: 1.0000001, y: 0.9999999, z: 1.0000001}
  m_Children:
  - {fileID: 4835732395350038}
  m_Father: {fileID: 4022596902215642}
  m_RootOrder: 0
  m_LocalEulerAnglesHint: {x: 0, y: 0, z: 0}
--- !u!4 &4685015940792200
Transform:
  m_ObjectHideFlags: 1
  m_PrefabParentObject: {fileID: 0}
  m_PrefabInternal: {fileID: 100100000}
  m_GameObject: {fileID: 1659495028699798}
  m_LocalRotation: {x: 0.000015593489, y: 0.00015581226, z: 0.000017879685, w: 1}
  m_LocalPosition: {x: -0.000000017373821, y: 0.03165378, z: 0.000000010671209}
  m_LocalScale: {x: 1, y: 1.0000007, z: 0.99999994}
  m_Children:
  - {fileID: 4965399306484348}
  m_Father: {fileID: 4404240530038980}
  m_RootOrder: 0
  m_LocalEulerAnglesHint: {x: 0, y: 0, z: 0}
--- !u!4 &4691709167340362
Transform:
  m_ObjectHideFlags: 1
  m_PrefabParentObject: {fileID: 0}
  m_PrefabInternal: {fileID: 100100000}
  m_GameObject: {fileID: 1016864288099302}
  m_LocalRotation: {x: 0.0000031954894, y: -0.04270424, z: -0.0000016536745, w: 0.99908775}
  m_LocalPosition: {x: 0.00000006914138, y: 0.037806645, z: 0.000000048279755}
  m_LocalScale: {x: 1.0000006, y: 0.99999994, z: 1.0000001}
  m_Children:
  - {fileID: 4728873188062766}
  m_Father: {fileID: 4475865333737130}
  m_RootOrder: 0
  m_LocalEulerAnglesHint: {x: 0, y: 0, z: 0}
--- !u!4 &4696308894851992
Transform:
  m_ObjectHideFlags: 1
  m_PrefabParentObject: {fileID: 0}
  m_PrefabInternal: {fileID: 100100000}
  m_GameObject: {fileID: 1356305951336884}
  m_LocalRotation: {x: 0.0017819415, y: 0.0011317215, z: -0.16394274, w: 0.98646766}
  m_LocalPosition: {x: 0.00000012761912, y: 0.16263051, z: 0.0000000011920928}
  m_LocalScale: {x: 1.0000007, y: 1.0000001, z: 1.0000002}
  m_Children:
  - {fileID: 4278157042784168}
  m_Father: {fileID: 4944988898901564}
  m_RootOrder: 0
  m_LocalEulerAnglesHint: {x: 0, y: 0, z: 0}
--- !u!4 &4704868180370540
Transform:
  m_ObjectHideFlags: 1
  m_PrefabParentObject: {fileID: 0}
  m_PrefabInternal: {fileID: 100100000}
  m_GameObject: {fileID: 1008087747833226}
  m_LocalRotation: {x: -0.38310692, y: 0.5823791, z: 0.18014245, w: 0.69398296}
  m_LocalPosition: {x: 0.0000000011920928, y: 0.38006222, z: -0.000000010132789}
  m_LocalScale: {x: 1.0000005, y: 1.0000001, z: 1.0000002}
  m_Children:
  - {fileID: 4752689631347542}
  m_Father: {fileID: 4174609812466220}
  m_RootOrder: 0
  m_LocalEulerAnglesHint: {x: 0, y: 0, z: 0}
--- !u!4 &4706955015869810
Transform:
  m_ObjectHideFlags: 1
  m_PrefabParentObject: {fileID: 0}
  m_PrefabInternal: {fileID: 100100000}
  m_GameObject: {fileID: 1978106395900072}
  m_LocalRotation: {x: 0.071499676, y: -0.0037914577, z: 0.026407743, w: 0.9970838}
  m_LocalPosition: {x: -0.0064327475, y: 0.11948529, z: 0.01721233}
  m_LocalScale: {x: 1.0000011, y: 1, z: 1.0000002}
  m_Children:
  - {fileID: 4310780837362538}
  m_Father: {fileID: 4343231954669058}
  m_RootOrder: 1
  m_LocalEulerAnglesHint: {x: 0, y: 0, z: 0}
--- !u!4 &4709604194157226
Transform:
  m_ObjectHideFlags: 1
  m_PrefabParentObject: {fileID: 0}
  m_PrefabInternal: {fileID: 100100000}
  m_GameObject: {fileID: 1189640406706584}
  m_LocalRotation: {x: -0.000000061629954, y: -0.0000000037134635, z: -0.0000014162364,
    w: 1}
  m_LocalPosition: {x: -0.00000023309022, y: 0.023806864, z: -0.0000000032864043}
  m_LocalScale: {x: 1, y: 1, z: 1}
  m_Children:
  - {fileID: 4844831483426492}
  m_Father: {fileID: 4965399306484348}
  m_RootOrder: 0
  m_LocalEulerAnglesHint: {x: 0, y: 0, z: 0}
--- !u!4 &4716733258071596
Transform:
  m_ObjectHideFlags: 1
  m_PrefabParentObject: {fileID: 0}
  m_PrefabInternal: {fileID: 100100000}
  m_GameObject: {fileID: 1330742405717214}
  m_LocalRotation: {x: 0.0738111, y: -0.105799876, z: 0.018987074, w: 0.99146247}
  m_LocalPosition: {x: 0.00094114384, y: 0.101957284, z: -0.048403982}
  m_LocalScale: {x: 1.0000001, y: 1.0000008, z: 1.0000007}
  m_Children:
  - {fileID: 4569796752813800}
  m_Father: {fileID: 4343231954669058}
  m_RootOrder: 2
  m_LocalEulerAnglesHint: {x: 0, y: 0, z: 0}
--- !u!4 &4728873188062766
Transform:
  m_ObjectHideFlags: 1
  m_PrefabParentObject: {fileID: 0}
  m_PrefabInternal: {fileID: 100100000}
  m_GameObject: {fileID: 1221536895418002}
  m_LocalRotation: {x: 0.000001975588, y: 0.034630038, z: 0.000001139924, w: 0.9994002}
  m_LocalPosition: {x: -0.000000059604638, y: 0.037289325, z: -0.000000028610227}
  m_LocalScale: {x: 0.9999996, y: 1.0000007, z: 1.0000004}
  m_Children:
  - {fileID: 4479625713155012}
  m_Father: {fileID: 4691709167340362}
  m_RootOrder: 0
  m_LocalEulerAnglesHint: {x: 0, y: 0, z: 0}
--- !u!4 &4752689631347542
Transform:
  m_ObjectHideFlags: 1
  m_PrefabParentObject: {fileID: 0}
  m_PrefabInternal: {fileID: 100100000}
  m_GameObject: {fileID: 1446846163869170}
  m_LocalRotation: {x: -0.36821333, y: 0.015404166, z: -0.08054123, w: 0.92611814}
  m_LocalPosition: {x: 0.000000005215406, y: 0.18186311, z: 0.00000001788139}
  m_LocalScale: {x: 0.9999999, y: 1.0000002, z: 1.0000004}
  m_Children:
  - {fileID: 4617970663596744}
  m_Father: {fileID: 4704868180370540}
  m_RootOrder: 0
  m_LocalEulerAnglesHint: {x: 0, y: 0, z: 0}
--- !u!4 &4770411700574020
Transform:
  m_ObjectHideFlags: 1
  m_PrefabParentObject: {fileID: 0}
  m_PrefabInternal: {fileID: 100100000}
  m_GameObject: {fileID: 1132577791295586}
  m_LocalRotation: {x: -0.000006992981, y: -0.0011391124, z: 0.0000077414325, w: 0.99999934}
  m_LocalPosition: {x: -0.000000013560055, y: 0.033758044, z: -0.000000011149094}
  m_LocalScale: {x: 1.0000006, y: 1.0000006, z: 1}
  m_Children:
  - {fileID: 4778138693212528}
  m_Father: {fileID: 4106279992904078}
  m_RootOrder: 0
  m_LocalEulerAnglesHint: {x: 0, y: 0, z: 0}
--- !u!4 &4777509547481520
Transform:
  m_ObjectHideFlags: 1
  m_PrefabParentObject: {fileID: 0}
  m_PrefabInternal: {fileID: 100100000}
  m_GameObject: {fileID: 1359276725018618}
  m_LocalRotation: {x: 0.026614562, y: 0.0345291, z: -0.8127283, w: 0.58100957}
  m_LocalPosition: {x: 0.07740653, y: 0.12234444, z: -0.0020100672}
  m_LocalScale: {x: 0.9999999, y: 0.9999994, z: 0.99999964}
  m_Children:
  - {fileID: 4307140484506624}
  m_Father: {fileID: 4954154363595446}
  m_RootOrder: 2
  m_LocalEulerAnglesHint: {x: 0, y: 0, z: 0}
--- !u!4 &4778138693212528
Transform:
  m_ObjectHideFlags: 1
  m_PrefabParentObject: {fileID: 0}
  m_PrefabInternal: {fileID: 100100000}
  m_GameObject: {fileID: 1403513073807390}
  m_LocalRotation: {x: 0.0000239816, y: -0.0016685494, z: 0.00000065747855, w: 0.9999986}
  m_LocalPosition: {x: -3.7311107e-10, y: 0.031438086, z: -0.0000000048940993}
  m_LocalScale: {x: 0.9999998, y: 0.99999946, z: 0.9999995}
  m_Children:
  - {fileID: 4966352535205892}
  m_Father: {fileID: 4770411700574020}
  m_RootOrder: 0
  m_LocalEulerAnglesHint: {x: 0, y: 0, z: 0}
--- !u!4 &4781257983521274
Transform:
  m_ObjectHideFlags: 1
  m_PrefabParentObject: {fileID: 0}
  m_PrefabInternal: {fileID: 100100000}
  m_GameObject: {fileID: 1021727628258468}
  m_LocalRotation: {x: 0.0000000301864, y: 1.153827e-12, z: 0.00000006917685, w: 1}
  m_LocalPosition: {x: -0.000000055890407, y: 0.014809177, z: -0.000000015547265}
  m_LocalScale: {x: 1, y: 1, z: 1}
  m_Children:
  - {fileID: 4188164368554646}
  m_Father: {fileID: 4851101280585664}
  m_RootOrder: 0
  m_LocalEulerAnglesHint: {x: 0, y: 0, z: 0}
--- !u!4 &4787924537060468
Transform:
  m_ObjectHideFlags: 1
  m_PrefabParentObject: {fileID: 0}
  m_PrefabInternal: {fileID: 100100000}
  m_GameObject: {fileID: 1210899769263940}
  m_LocalRotation: {x: 0.22934498, y: -0.03454888, z: 0.97269785, w: -0.008136784}
  m_LocalPosition: {x: -0.078465745, y: -0.0528628, z: -0.02406423}
  m_LocalScale: {x: 1.0000055, y: 1.0000005, z: 1.0000144}
  m_Children:
  - {fileID: 4174609812466220}
  m_Father: {fileID: 4571984202997256}
  m_RootOrder: 0
  m_LocalEulerAnglesHint: {x: 0, y: 0, z: 0}
--- !u!4 &4827225120279250
Transform:
  m_ObjectHideFlags: 1
  m_PrefabParentObject: {fileID: 0}
  m_PrefabInternal: {fileID: 100100000}
  m_GameObject: {fileID: 1261576094876050}
  m_LocalRotation: {x: 0.0000040265445, y: 0.0024876627, z: -0.000035968, w: 0.9999969}
  m_LocalPosition: {x: -0.000000031501983, y: 0.035557043, z: 0.00000002095883}
  m_LocalScale: {x: 1.0000004, y: 1.0000001, z: 1.0000004}
  m_Children:
  - {fileID: 4022596902215642}
  m_Father: {fileID: 4078077121161098}
  m_RootOrder: 0
  m_LocalEulerAnglesHint: {x: 0, y: 0, z: 0}
--- !u!4 &4835732395350038
Transform:
  m_ObjectHideFlags: 1
  m_PrefabParentObject: {fileID: 0}
  m_PrefabInternal: {fileID: 100100000}
  m_GameObject: {fileID: 1964585310396174}
  m_LocalRotation: {x: 0, y: -0, z: -0, w: 1}
  m_LocalPosition: {x: -0, y: 0.0148092285, z: 0}
  m_LocalScale: {x: 1, y: 1, z: 1}
  m_Children: []
  m_Father: {fileID: 4647263794450450}
  m_RootOrder: 0
  m_LocalEulerAnglesHint: {x: 0, y: 0, z: 0}
--- !u!4 &4844831483426492
Transform:
  m_ObjectHideFlags: 1
  m_PrefabParentObject: {fileID: 0}
  m_PrefabInternal: {fileID: 100100000}
  m_GameObject: {fileID: 1627703270790212}
  m_LocalRotation: {x: 0, y: -0, z: -0, w: 1}
  m_LocalPosition: {x: -0, y: 0.014809241, z: 0}
  m_LocalScale: {x: 1, y: 1, z: 1}
  m_Children: []
  m_Father: {fileID: 4709604194157226}
  m_RootOrder: 0
  m_LocalEulerAnglesHint: {x: 0, y: 0, z: 0}
--- !u!4 &4851101280585664
Transform:
  m_ObjectHideFlags: 1
  m_PrefabParentObject: {fileID: 0}
  m_PrefabInternal: {fileID: 100100000}
  m_GameObject: {fileID: 1468869890412208}
  m_LocalRotation: {x: -0.00002945155, y: 0.000346139, z: 0.00002581018, w: 0.99999994}
  m_LocalPosition: {x: -0.000000054840925, y: 0.017668238, z: 0.000000023762693}
  m_LocalScale: {x: 1.0000008, y: 1.0000008, z: 0.9999995}
  m_Children:
  - {fileID: 4781257983521274}
  m_Father: {fileID: 4569796752813800}
  m_RootOrder: 0
  m_LocalEulerAnglesHint: {x: 0, y: 0, z: 0}
--- !u!4 &4852865611641646
Transform:
  m_ObjectHideFlags: 1
  m_PrefabParentObject: {fileID: 0}
  m_PrefabInternal: {fileID: 100100000}
  m_GameObject: {fileID: 1897005551168776}
  m_LocalRotation: {x: 0, y: -0, z: -0, w: 1}
  m_LocalPosition: {x: -0, y: 0.0148091605, z: 0}
  m_LocalScale: {x: 1, y: 1, z: 1}
  m_Children: []
  m_Father: {fileID: 4115639341145446}
  m_RootOrder: 0
  m_LocalEulerAnglesHint: {x: 0, y: 0, z: 0}
--- !u!4 &4877426866436878
Transform:
  m_ObjectHideFlags: 1
  m_PrefabParentObject: {fileID: 0}
  m_PrefabInternal: {fileID: 100100000}
  m_GameObject: {fileID: 1698503698383034}
  m_LocalRotation: {x: 0.000000021855694, y: -1.1102232e-16, z: 1.1102232e-16, w: 1}
  m_LocalPosition: {x: -0, y: 0, z: 0}
  m_LocalScale: {x: 1, y: 1, z: 1}
  m_Children: []
  m_Father: {fileID: 4073802395707736}
  m_RootOrder: 2
  m_LocalEulerAnglesHint: {x: 0, y: 0, z: 0}
--- !u!4 &4878438322390586
Transform:
  m_ObjectHideFlags: 1
  m_PrefabParentObject: {fileID: 0}
  m_PrefabInternal: {fileID: 100100000}
  m_GameObject: {fileID: 1094378609220214}
  m_LocalRotation: {x: 0, y: -0, z: -0, w: 1}
  m_LocalPosition: {x: -0, y: 0.014809224, z: 0}
  m_LocalScale: {x: 1, y: 1, z: 1}
  m_Children: []
  m_Father: {fileID: 4959981588302044}
  m_RootOrder: 0
  m_LocalEulerAnglesHint: {x: 0, y: 0, z: 0}
--- !u!4 &4935464440052736
Transform:
  m_ObjectHideFlags: 1
  m_PrefabParentObject: {fileID: 0}
  m_PrefabInternal: {fileID: 100100000}
  m_GameObject: {fileID: 1233475496219328}
  m_LocalRotation: {x: -0.09733743, y: -0.03666315, z: 0.9945693, w: 0.0036278793}
  m_LocalPosition: {x: 0.07846572, y: -0.05267931, z: -0.026218256}
  m_LocalScale: {x: 0.9999908, y: 0.99999905, z: 0.99997014}
  m_Children:
  - {fileID: 4174536787098370}
  m_Father: {fileID: 4571984202997256}
  m_RootOrder: 1
  m_LocalEulerAnglesHint: {x: 0, y: 0, z: 0}
--- !u!4 &4944988898901564
Transform:
  m_ObjectHideFlags: 1
  m_PrefabParentObject: {fileID: 0}
  m_PrefabInternal: {fileID: 100100000}
  m_GameObject: {fileID: 1004589698228956}
  m_LocalRotation: {x: 0.022761036, y: -0.034532245, z: 0.81273156, w: 0.58116853}
  m_LocalPosition: {x: -0.0774066, y: 0.12237541, z: -0.0023741017}
  m_LocalScale: {x: 0.9999995, y: 1.0000006, z: 1.0000001}
  m_Children:
  - {fileID: 4696308894851992}
  m_Father: {fileID: 4954154363595446}
  m_RootOrder: 0
  m_LocalEulerAnglesHint: {x: 0, y: 0, z: 0}
--- !u!4 &4954154363595446
Transform:
  m_ObjectHideFlags: 1
  m_PrefabParentObject: {fileID: 0}
  m_PrefabInternal: {fileID: 100100000}
  m_GameObject: {fileID: 1624843764826296}
  m_LocalRotation: {x: 0.000000014901161, y: -6.4657164e-12, z: 1.125775e-10, w: 1}
  m_LocalPosition: {x: -3.049649e-13, y: 0.13165343, z: 5.6198595e-13}
  m_LocalScale: {x: 1, y: 1, z: 1.0000001}
  m_Children:
  - {fileID: 4944988898901564}
  - {fileID: 4347793824084298}
  - {fileID: 4777509547481520}
  m_Father: {fileID: 4071840712965176}
  m_RootOrder: 0
  m_LocalEulerAnglesHint: {x: 0, y: 0, z: 0}
--- !u!4 &4959981588302044
Transform:
  m_ObjectHideFlags: 1
  m_PrefabParentObject: {fileID: 0}
  m_PrefabInternal: {fileID: 100100000}
  m_GameObject: {fileID: 1656592801464358}
  m_LocalRotation: {x: 0.00000004563481, y: 0.00000010919757, z: 0.00000003183959,
    w: 1}
  m_LocalPosition: {x: -0.000000004499597, y: 0.067063086, z: 2.2468155e-10}
  m_LocalScale: {x: 1, y: 0.9999999, z: 1}
  m_Children:
  - {fileID: 4878438322390586}
  m_Father: {fileID: 4224731016930542}
  m_RootOrder: 0
  m_LocalEulerAnglesHint: {x: 0, y: 0, z: 0}
--- !u!4 &4965399306484348
Transform:
  m_ObjectHideFlags: 1
  m_PrefabParentObject: {fileID: 0}
  m_PrefabInternal: {fileID: 100100000}
  m_GameObject: {fileID: 1217149606314136}
  m_LocalRotation: {x: -0.00001778435, y: -0.00041766829, z: -0.000002900697, w: 0.99999994}
  m_LocalPosition: {x: 0.0000000819785, y: 0.029571544, z: -0.000000007270136}
  m_LocalScale: {x: 1, y: 1, z: 1.0000004}
  m_Children:
  - {fileID: 4709604194157226}
  m_Father: {fileID: 4685015940792200}
  m_RootOrder: 0
  m_LocalEulerAnglesHint: {x: 0, y: 0, z: 0}
--- !u!4 &4966352535205892
Transform:
  m_ObjectHideFlags: 1
  m_PrefabParentObject: {fileID: 0}
  m_PrefabInternal: {fileID: 100100000}
  m_GameObject: {fileID: 1063740258320012}
  m_LocalRotation: {x: -0.00000016602466, y: 0.000000115504484, z: 0.0000016250272,
    w: 1}
  m_LocalPosition: {x: 0.00000012758827, y: 0.026901247, z: 0.000000002640299}
  m_LocalScale: {x: 1.0000001, y: 1, z: 1.0000001}
  m_Children:
  - {fileID: 4173491942575620}
  m_Father: {fileID: 4778138693212528}
  m_RootOrder: 0
  m_LocalEulerAnglesHint: {x: 0, y: 0, z: 0}
--- !u!4 &4996109160097180
Transform:
  m_ObjectHideFlags: 1
  m_PrefabParentObject: {fileID: 0}
  m_PrefabInternal: {fileID: 100100000}
  m_GameObject: {fileID: 1195188298579488}
  m_LocalRotation: {x: 0.000000021855694, y: -1.1102232e-16, z: 1.1102232e-16, w: 1}
  m_LocalPosition: {x: -0, y: 0, z: 0}
  m_LocalScale: {x: 1, y: 1, z: 1}
  m_Children: []
  m_Father: {fileID: 4073802395707736}
  m_RootOrder: 4
  m_LocalEulerAnglesHint: {x: 0, y: 0, z: 0}
--- !u!95 &95298771120003020
Animator:
  serializedVersion: 3
  m_ObjectHideFlags: 1
  m_PrefabParentObject: {fileID: 0}
  m_PrefabInternal: {fileID: 100100000}
  m_GameObject: {fileID: 1463151604687914}
  m_Enabled: 1
  m_Avatar: {fileID: 9000000, guid: 54703f7a1bdab43419cb12e2e21a1a2c, type: 3}
  m_Controller: {fileID: 9100000, guid: 3add3c09cac86cd4ba470998309f4fa2, type: 2}
  m_CullingMode: 1
  m_UpdateMode: 0
  m_ApplyRootMotion: 1
  m_LinearVelocityBlending: 0
  m_WarningMessage: 
  m_HasTransformHierarchy: 1
  m_AllowConstantClipSamplingOptimization: 1
--- !u!137 &137143310020234332
SkinnedMeshRenderer:
  m_ObjectHideFlags: 1
  m_PrefabParentObject: {fileID: 0}
  m_PrefabInternal: {fileID: 100100000}
  m_GameObject: {fileID: 1076067843588616}
  m_Enabled: 1
  m_CastShadows: 1
  m_ReceiveShadows: 1
  m_DynamicOccludee: 1
  m_MotionVectors: 1
  m_LightProbeUsage: 1
  m_ReflectionProbeUsage: 1
  m_Materials:
  - {fileID: 2100000, guid: 4c34ed9f11183204f8dba505ea44992d, type: 2}
  m_StaticBatchInfo:
    firstSubMesh: 0
    subMeshCount: 0
  m_StaticBatchRoot: {fileID: 0}
  m_ProbeAnchor: {fileID: 0}
  m_LightProbeVolumeOverride: {fileID: 0}
  m_ScaleInLightmap: 1
  m_PreserveUVs: 0
  m_IgnoreNormalsForChartDetection: 0
  m_ImportantGI: 0
  m_StitchLightmapSeams: 0
  m_SelectedEditorRenderState: 3
  m_MinimumChartSize: 4
  m_AutoUVMaxDistance: 0.5
  m_AutoUVMaxAngle: 89
  m_LightmapParameters: {fileID: 0}
  m_SortingLayerID: 0
  m_SortingLayer: 0
  m_SortingOrder: 0
  serializedVersion: 2
  m_Quality: 0
  m_UpdateWhenOffscreen: 0
  m_SkinnedMotionVectors: 1
  m_Mesh: {fileID: 4300000, guid: 54703f7a1bdab43419cb12e2e21a1a2c, type: 3}
  m_Bones:
  - {fileID: 4571984202997256}
  - {fileID: 4401636839678276}
  - {fileID: 4071840712965176}
  - {fileID: 4954154363595446}
  - {fileID: 4347793824084298}
  - {fileID: 4485065807522870}
  - {fileID: 4115639341145446}
  - {fileID: 4944988898901564}
  - {fileID: 4696308894851992}
  - {fileID: 4278157042784168}
  - {fileID: 4237962584255668}
  - {fileID: 4234167416724200}
  - {fileID: 4073230592271686}
  - {fileID: 4195897282530900}
  - {fileID: 4248518527262580}
  - {fileID: 4078077121161098}
  - {fileID: 4827225120279250}
  - {fileID: 4022596902215642}
  - {fileID: 4647263794450450}
  - {fileID: 4441625903472076}
  - {fileID: 4218197020382160}
  - {fileID: 4145034786998714}
  - {fileID: 4596332881035920}
  - {fileID: 4016601607126394}
  - {fileID: 4485183974669560}
  - {fileID: 4313111626612694}
  - {fileID: 4425212561893764}
  - {fileID: 4143504755296940}
  - {fileID: 4627416859282414}
  - {fileID: 4042750051727208}
  - {fileID: 4186092858610062}
  - {fileID: 4777509547481520}
  - {fileID: 4307140484506624}
  - {fileID: 4542486972874576}
  - {fileID: 4343231954669058}
  - {fileID: 4475865333737130}
  - {fileID: 4691709167340362}
  - {fileID: 4728873188062766}
  - {fileID: 4479625713155012}
  - {fileID: 4106279992904078}
  - {fileID: 4770411700574020}
  - {fileID: 4778138693212528}
  - {fileID: 4966352535205892}
  - {fileID: 4706955015869810}
  - {fileID: 4310780837362538}
  - {fileID: 4603974934929680}
  - {fileID: 4093699556489434}
  - {fileID: 4404240530038980}
  - {fileID: 4685015940792200}
  - {fileID: 4965399306484348}
  - {fileID: 4709604194157226}
  - {fileID: 4716733258071596}
  - {fileID: 4569796752813800}
  - {fileID: 4851101280585664}
  - {fileID: 4781257983521274}
  - {fileID: 4787924537060468}
  - {fileID: 4174609812466220}
  - {fileID: 4704868180370540}
  - {fileID: 4752689631347542}
  - {fileID: 4617970663596744}
  - {fileID: 4935464440052736}
  - {fileID: 4174536787098370}
  - {fileID: 4622390604623688}
  - {fileID: 4224731016930542}
  - {fileID: 4959981588302044}
  m_BlendShapeWeights: []
  m_RootBone: {fileID: 4571984202997256}
  m_AABB:
    m_Center: {x: 0.00035504997, y: 0.64911824, z: 0.081735685}
    m_Extent: {x: 0.07023415, y: 0.10368359, z: 0.12253253}
  m_DirtyAABB: 0
--- !u!137 &137217515308879662
SkinnedMeshRenderer:
  m_ObjectHideFlags: 1
  m_PrefabParentObject: {fileID: 0}
  m_PrefabInternal: {fileID: 100100000}
  m_GameObject: {fileID: 1698503698383034}
  m_Enabled: 1
  m_CastShadows: 1
  m_ReceiveShadows: 1
  m_DynamicOccludee: 1
  m_MotionVectors: 1
  m_LightProbeUsage: 1
  m_ReflectionProbeUsage: 1
  m_Materials:
  - {fileID: 2100000, guid: 4c34ed9f11183204f8dba505ea44992d, type: 2}
  m_StaticBatchInfo:
    firstSubMesh: 0
    subMeshCount: 0
  m_StaticBatchRoot: {fileID: 0}
  m_ProbeAnchor: {fileID: 0}
  m_LightProbeVolumeOverride: {fileID: 0}
  m_ScaleInLightmap: 1
  m_PreserveUVs: 0
  m_IgnoreNormalsForChartDetection: 0
  m_ImportantGI: 0
  m_StitchLightmapSeams: 0
  m_SelectedEditorRenderState: 3
  m_MinimumChartSize: 4
  m_AutoUVMaxDistance: 0.5
  m_AutoUVMaxAngle: 89
  m_LightmapParameters: {fileID: 0}
  m_SortingLayerID: 0
  m_SortingLayer: 0
  m_SortingOrder: 0
  serializedVersion: 2
  m_Quality: 0
  m_UpdateWhenOffscreen: 0
  m_SkinnedMotionVectors: 1
  m_Mesh: {fileID: 4300004, guid: 54703f7a1bdab43419cb12e2e21a1a2c, type: 3}
  m_Bones:
  - {fileID: 4571984202997256}
  - {fileID: 4401636839678276}
  - {fileID: 4071840712965176}
  - {fileID: 4954154363595446}
  - {fileID: 4347793824084298}
  - {fileID: 4485065807522870}
  - {fileID: 4115639341145446}
  - {fileID: 4944988898901564}
  - {fileID: 4696308894851992}
  - {fileID: 4278157042784168}
  - {fileID: 4237962584255668}
  - {fileID: 4234167416724200}
  - {fileID: 4073230592271686}
  - {fileID: 4195897282530900}
  - {fileID: 4248518527262580}
  - {fileID: 4078077121161098}
  - {fileID: 4827225120279250}
  - {fileID: 4022596902215642}
  - {fileID: 4647263794450450}
  - {fileID: 4441625903472076}
  - {fileID: 4218197020382160}
  - {fileID: 4145034786998714}
  - {fileID: 4596332881035920}
  - {fileID: 4016601607126394}
  - {fileID: 4485183974669560}
  - {fileID: 4313111626612694}
  - {fileID: 4425212561893764}
  - {fileID: 4143504755296940}
  - {fileID: 4627416859282414}
  - {fileID: 4042750051727208}
  - {fileID: 4186092858610062}
  - {fileID: 4777509547481520}
  - {fileID: 4307140484506624}
  - {fileID: 4542486972874576}
  - {fileID: 4343231954669058}
  - {fileID: 4475865333737130}
  - {fileID: 4691709167340362}
  - {fileID: 4728873188062766}
  - {fileID: 4479625713155012}
  - {fileID: 4106279992904078}
  - {fileID: 4770411700574020}
  - {fileID: 4778138693212528}
  - {fileID: 4966352535205892}
  - {fileID: 4706955015869810}
  - {fileID: 4310780837362538}
  - {fileID: 4603974934929680}
  - {fileID: 4093699556489434}
  - {fileID: 4404240530038980}
  - {fileID: 4685015940792200}
  - {fileID: 4965399306484348}
  - {fileID: 4709604194157226}
  - {fileID: 4716733258071596}
  - {fileID: 4569796752813800}
  - {fileID: 4851101280585664}
  - {fileID: 4781257983521274}
  - {fileID: 4787924537060468}
  - {fileID: 4174609812466220}
  - {fileID: 4704868180370540}
  - {fileID: 4752689631347542}
  - {fileID: 4617970663596744}
  - {fileID: 4935464440052736}
  - {fileID: 4174536787098370}
  - {fileID: 4622390604623688}
  - {fileID: 4224731016930542}
  - {fileID: 4959981588302044}
  m_BlendShapeWeights: []
  m_RootBone: {fileID: 4571984202997256}
  m_AABB:
    m_Center: {x: 0.00035607815, y: 0.67061645, z: 0.07728271}
    m_Extent: {x: 0.105886824, y: 0.14456058, z: 0.14704736}
  m_DirtyAABB: 0
--- !u!137 &137636282249213170
SkinnedMeshRenderer:
  m_ObjectHideFlags: 1
  m_PrefabParentObject: {fileID: 0}
  m_PrefabInternal: {fileID: 100100000}
  m_GameObject: {fileID: 1516040813485354}
  m_Enabled: 1
  m_CastShadows: 1
  m_ReceiveShadows: 1
  m_DynamicOccludee: 1
  m_MotionVectors: 1
  m_LightProbeUsage: 1
  m_ReflectionProbeUsage: 1
  m_Materials:
  - {fileID: 2100000, guid: 4c34ed9f11183204f8dba505ea44992d, type: 2}
  m_StaticBatchInfo:
    firstSubMesh: 0
    subMeshCount: 0
  m_StaticBatchRoot: {fileID: 0}
  m_ProbeAnchor: {fileID: 0}
  m_LightProbeVolumeOverride: {fileID: 0}
  m_ScaleInLightmap: 1
  m_PreserveUVs: 0
  m_IgnoreNormalsForChartDetection: 0
  m_ImportantGI: 0
  m_StitchLightmapSeams: 0
  m_SelectedEditorRenderState: 3
  m_MinimumChartSize: 4
  m_AutoUVMaxDistance: 0.5
  m_AutoUVMaxAngle: 89
  m_LightmapParameters: {fileID: 0}
  m_SortingLayerID: 0
  m_SortingLayer: 0
  m_SortingOrder: 0
  serializedVersion: 2
  m_Quality: 0
  m_UpdateWhenOffscreen: 0
  m_SkinnedMotionVectors: 1
  m_Mesh: {fileID: 4300006, guid: 54703f7a1bdab43419cb12e2e21a1a2c, type: 3}
  m_Bones:
  - {fileID: 4571984202997256}
  - {fileID: 4401636839678276}
  - {fileID: 4071840712965176}
  - {fileID: 4954154363595446}
  - {fileID: 4347793824084298}
  - {fileID: 4485065807522870}
  - {fileID: 4115639341145446}
  - {fileID: 4944988898901564}
  - {fileID: 4696308894851992}
  - {fileID: 4278157042784168}
  - {fileID: 4237962584255668}
  - {fileID: 4234167416724200}
  - {fileID: 4073230592271686}
  - {fileID: 4195897282530900}
  - {fileID: 4248518527262580}
  - {fileID: 4078077121161098}
  - {fileID: 4827225120279250}
  - {fileID: 4022596902215642}
  - {fileID: 4647263794450450}
  - {fileID: 4441625903472076}
  - {fileID: 4218197020382160}
  - {fileID: 4145034786998714}
  - {fileID: 4596332881035920}
  - {fileID: 4016601607126394}
  - {fileID: 4485183974669560}
  - {fileID: 4313111626612694}
  - {fileID: 4425212561893764}
  - {fileID: 4143504755296940}
  - {fileID: 4627416859282414}
  - {fileID: 4042750051727208}
  - {fileID: 4186092858610062}
  - {fileID: 4777509547481520}
  - {fileID: 4307140484506624}
  - {fileID: 4542486972874576}
  - {fileID: 4343231954669058}
  - {fileID: 4475865333737130}
  - {fileID: 4691709167340362}
  - {fileID: 4728873188062766}
  - {fileID: 4479625713155012}
  - {fileID: 4106279992904078}
  - {fileID: 4770411700574020}
  - {fileID: 4778138693212528}
  - {fileID: 4966352535205892}
  - {fileID: 4706955015869810}
  - {fileID: 4310780837362538}
  - {fileID: 4603974934929680}
  - {fileID: 4093699556489434}
  - {fileID: 4404240530038980}
  - {fileID: 4685015940792200}
  - {fileID: 4965399306484348}
  - {fileID: 4709604194157226}
  - {fileID: 4716733258071596}
  - {fileID: 4569796752813800}
  - {fileID: 4851101280585664}
  - {fileID: 4781257983521274}
  - {fileID: 4787924537060468}
  - {fileID: 4174609812466220}
  - {fileID: 4704868180370540}
  - {fileID: 4752689631347542}
  - {fileID: 4617970663596744}
  - {fileID: 4935464440052736}
  - {fileID: 4174536787098370}
  - {fileID: 4622390604623688}
  - {fileID: 4224731016930542}
  - {fileID: 4959981588302044}
  m_BlendShapeWeights: []
  m_RootBone: {fileID: 4571984202997256}
  m_AABB:
    m_Center: {x: 0.00032697618, y: 0.5594085, z: 0.10576872}
    m_Extent: {x: 0.091038205, y: 0.06399602, z: 0.0692834}
  m_DirtyAABB: 0
--- !u!137 &137874309904355986
SkinnedMeshRenderer:
  m_ObjectHideFlags: 1
  m_PrefabParentObject: {fileID: 0}
  m_PrefabInternal: {fileID: 100100000}
  m_GameObject: {fileID: 1195188298579488}
  m_Enabled: 1
  m_CastShadows: 1
  m_ReceiveShadows: 1
  m_DynamicOccludee: 1
  m_MotionVectors: 1
  m_LightProbeUsage: 1
  m_ReflectionProbeUsage: 1
  m_Materials:
  - {fileID: 2100000, guid: 4c34ed9f11183204f8dba505ea44992d, type: 2}
  m_StaticBatchInfo:
    firstSubMesh: 0
    subMeshCount: 0
  m_StaticBatchRoot: {fileID: 0}
  m_ProbeAnchor: {fileID: 0}
  m_LightProbeVolumeOverride: {fileID: 0}
  m_ScaleInLightmap: 1
  m_PreserveUVs: 0
  m_IgnoreNormalsForChartDetection: 0
  m_ImportantGI: 0
  m_StitchLightmapSeams: 0
  m_SelectedEditorRenderState: 3
  m_MinimumChartSize: 4
  m_AutoUVMaxDistance: 0.5
  m_AutoUVMaxAngle: 89
  m_LightmapParameters: {fileID: 0}
  m_SortingLayerID: 0
  m_SortingLayer: 0
  m_SortingOrder: 0
  serializedVersion: 2
  m_Quality: 0
  m_UpdateWhenOffscreen: 0
  m_SkinnedMotionVectors: 1
  m_Mesh: {fileID: 4300002, guid: 54703f7a1bdab43419cb12e2e21a1a2c, type: 3}
  m_Bones:
  - {fileID: 4571984202997256}
  - {fileID: 4401636839678276}
  - {fileID: 4071840712965176}
  - {fileID: 4954154363595446}
  - {fileID: 4347793824084298}
  - {fileID: 4485065807522870}
  - {fileID: 4115639341145446}
  - {fileID: 4944988898901564}
  - {fileID: 4696308894851992}
  - {fileID: 4278157042784168}
  - {fileID: 4237962584255668}
  - {fileID: 4234167416724200}
  - {fileID: 4073230592271686}
  - {fileID: 4195897282530900}
  - {fileID: 4248518527262580}
  - {fileID: 4078077121161098}
  - {fileID: 4827225120279250}
  - {fileID: 4022596902215642}
  - {fileID: 4647263794450450}
  - {fileID: 4441625903472076}
  - {fileID: 4218197020382160}
  - {fileID: 4145034786998714}
  - {fileID: 4596332881035920}
  - {fileID: 4016601607126394}
  - {fileID: 4485183974669560}
  - {fileID: 4313111626612694}
  - {fileID: 4425212561893764}
  - {fileID: 4143504755296940}
  - {fileID: 4627416859282414}
  - {fileID: 4042750051727208}
  - {fileID: 4186092858610062}
  - {fileID: 4777509547481520}
  - {fileID: 4307140484506624}
  - {fileID: 4542486972874576}
  - {fileID: 4343231954669058}
  - {fileID: 4475865333737130}
  - {fileID: 4691709167340362}
  - {fileID: 4728873188062766}
  - {fileID: 4479625713155012}
  - {fileID: 4106279992904078}
  - {fileID: 4770411700574020}
  - {fileID: 4778138693212528}
  - {fileID: 4966352535205892}
  - {fileID: 4706955015869810}
  - {fileID: 4310780837362538}
  - {fileID: 4603974934929680}
  - {fileID: 4093699556489434}
  - {fileID: 4404240530038980}
  - {fileID: 4685015940792200}
  - {fileID: 4965399306484348}
  - {fileID: 4709604194157226}
  - {fileID: 4716733258071596}
  - {fileID: 4569796752813800}
  - {fileID: 4851101280585664}
  - {fileID: 4781257983521274}
  - {fileID: 4787924537060468}
  - {fileID: 4174609812466220}
  - {fileID: 4704868180370540}
  - {fileID: 4752689631347542}
  - {fileID: 4617970663596744}
  - {fileID: 4935464440052736}
  - {fileID: 4174536787098370}
  - {fileID: 4622390604623688}
  - {fileID: 4224731016930542}
  - {fileID: 4959981588302044}
  m_BlendShapeWeights: []
  m_RootBone: {fileID: 4571984202997256}
  m_AABB:
    m_Center: {x: 0.00021746755, y: -0.17603397, z: -0.08077258}
    m_Extent: {x: 0.916929, y: 0.9591789, z: 0.3370002}
  m_DirtyAABB: 0
